%!PS-Adobe-2.0 EPSF-2.0
%%BoundingBox:  0 0 567 407
%%Title: /afs/cern.ch/user/g/gkoren/DijetAlgo/trunk/TLA/Plots/aux_fit_sideband.eps: canvas_iter_fit
%%Creator: ROOT Version 5.34/25
%%CreationDate: Mon Oct 19 16:28:55 2015
%%EndComments
%%BeginProlog
80 dict begin
/s {stroke} def /l {lineto} def /m {moveto} def /t {translate} def
/r {rotate} def /rl {roll}  def /R {repeat} def
/d {rlineto} def /rm {rmoveto} def /gr {grestore} def /f {eofill} def
/c {setrgbcolor} def /black {0 setgray} def /sd {setdash} def
/cl {closepath} def /sf {scalefont setfont} def /lw {setlinewidth} def
/box {m dup 0 exch d exch 0 d 0 exch neg d cl} def
/NC{systemdict begin initclip end}def/C{NC box clip newpath}def
/bl {box s} def /bf {box f} def /Y { 0 exch d} def /X { 0 d} def 
/K {{pop pop 0 moveto} exch kshow} bind def
/ita {/ang 15 def gsave [1 0 ang dup sin exch cos div 1 0 0] concat} def 
/mp {newpath /y exch def /x exch def} def
/side {[w .77 mul w .23 mul] .385 w mul sd w 0 l currentpoint t -144 r} def
/mr {mp x y w2 0 360 arc} def /m24 {mr s} def /m20 {mr f} def
/mb {mp x y w2 add m w2 neg 0 d 0 w neg d w 0 d 0 w d cl} def
/mt {mp x y w2 add m w2 neg w neg d w 0 d cl} def
/m21 {mb f} def /m25 {mb s} def /m22 {mt f} def /m26{mt s} def
/m23 {mp x y w2 sub m w2 w d w neg 0 d cl f} def
/m27 {mp x y w2 add m w3 neg w2 neg d w3 w2 neg d w3 w2 d cl s} def
/m28 {mp x w2 sub y w2 sub w3 add m w3 0 d  0 w3 neg d w3 0 d 0 w3 d w3 0 d  0 w3 d w3 neg 0 d 0 w3 d w3 neg 0 d 0 w3 neg d w3 neg 0 d cl s } def
/m29 {mp gsave x w2 sub y w2 add w3 sub m currentpoint t 4 {side} repeat cl fill gr} def
/m30 {mp gsave x w2 sub y w2 add w3 sub m currentpoint t 4 {side} repeat cl s gr} def
/m31 {mp x y w2 sub m 0 w d x w2 sub y m w 0 d x w2 sub y w2 add m w w neg d x w2 sub y w2 sub m w w d s} def
/m32 {mp x y w2 sub m w2 w d w neg 0 d cl s} def
/m33 {mp x y w2 add m w3 neg w2 neg d w3 w2 neg d w3 w2 d cl f} def
/m34 {mp x w2 sub y w2 sub w3 add m w3 0 d  0 w3 neg d w3 0 d 0 w3 d w3 0 d  0 w3 d w3 neg 0 d 0 w3 d w3 neg 0 d 0 w3 neg d w3 neg 0 d cl f } def
/m2 {mp x y w2 sub m 0 w d x w2 sub y m w 0 d s} def
/m5 {mp x w2 sub y w2 sub m w w d x w2 sub y w2 add m w w neg d s} def
/reEncode {exch findfont dup length dict begin {1 index /FID eq  {pop pop} {def} ifelse } forall /Encoding exch def currentdict end dup /FontName get exch definefont pop } def [/Times-Bold /Times-Italic /Times-BoldItalic /Helvetica /Helvetica-Oblique
 /Helvetica-Bold /Helvetica-BoldOblique /Courier /Courier-Oblique /Courier-Bold /Courier-BoldOblique /Times-Roman /AvantGarde-Book /AvantGarde-BookOblique /AvantGarde-Demi /AvantGarde-DemiOblique /Bookman-Demi /Bookman-DemiItalic /Bookman-Light
 /Bookman-LightItalic /Helvetica-Narrow /Helvetica-Narrow-Bold /Helvetica-Narrow-BoldOblique /Helvetica-Narrow-Oblique /NewCenturySchlbk-Roman /NewCenturySchlbk-Bold /NewCenturySchlbk-BoldItalic /NewCenturySchlbk-Italic /Palatino-Bold
 /Palatino-BoldItalic /Palatino-Italic /Palatino-Roman ] {ISOLatin1Encoding reEncode } forall
%%EndProlog
%%BeginSetup
%%EndSetup
newpath  gsave  .25 .25 scale  gsave  0 0 t black[  ] 0 sd 3 lw 1 1 1 c 2268 1630 0 0 bf black 1 1 1 c 1791 1287 363 261 bf black 1791 1287 363 261 bl 1 1 1 c 1791 1287 363 261 bf black 1791 1287 363 261 bl 6 lw 1 1 1 c black 409 1351 m 56 Y s 409
 1430 m 57 Y s 363 1419 m 34 X s 420 1419 m 35 X s 3 lw /w 27 def /w2 {w 2 div} def /w3 {w 3 div} def 409 1419 m20 6 lw 502 1144 m 50 Y s 502 1217 m 50 Y s 455 1205 m 35 X s 513 1205 m 35 X s 3 lw 502 1205 m20 6 lw 596 1178 m 51 Y s 596 1252 m 51 Y s
 548 1240 m 36 X s 607 1240 m 36 X s 3 lw 596 1240 m20 6 lw 692 1016 m 46 Y s 692 1085 m 46 Y s 643 1073 m 37 X s 703 1073 m 37 X s 3 lw 692 1073 m20 6 lw 789 967 m 45 Y s 789 1034 m 45 Y s 740 1023 m 38 X s 801 1023 m 37 X s 3 lw 789 1023 m20 6 lw
 888 1069 m 47 Y s 888 1139 m 48 Y s 838 1128 m 39 X s 900 1128 m 38 X s 3 lw 888 1128 m20 6 lw 989 840 m 40 Y s 989 902 m 40 Y s 938 891 m 40 X s 1000 891 m 40 X s 3 lw 989 891 m20 6 lw 1091 721 m 34 Y s 1091 778 m 35 Y s 1040 767 m 40 X s 1103 767
 m 40 X s 3 lw 1091 767 m20 6 lw 1195 606 m 29 Y s 1195 658 m 29 Y s 1143 647 m 41 X s 1207 647 m 40 X s 3 lw 1195 647 m20 6 lw 1301 500 m 23 Y s 1301 545 m 24 Y s 1247 534 m 42 X s 1312 534 m 42 X s 3 lw 1301 534 m20 6 lw 1408 401 m 17 Y s 1408 441
 m 16 Y s 1354 429 m 42 X s 1419 429 m 43 X s 3 lw 1408 429 m20 6 lw 1517 441 m 20 Y s 1517 483 m 20 Y s 1462 472 m 44 X s 1528 472 m 44 X s 3 lw 1517 472 m20 6 lw 1629 448 m 20 Y s 1629 491 m 20 Y s 1572 480 m 45 X s 1640 480 m 45 X s 3 lw 1629 480
 m20 6 lw 1742 372 m 15 Y s 1742 410 m 14 Y s 1685 398 m 46 X s 1754 398 m 45 X s 3 lw 1742 398 m20 6 lw 1857 326 m 10 Y s 1857 359 m 10 Y s 1799 348 m 47 X s 1868 348 m 47 X s 3 lw 1857 348 m20 6 lw 1974 347 m 13 Y s 1974 382 m 13 Y s 1915 371 m 48
 X s 1986 371 m 48 X s 3 lw 1974 371 m20 6 lw 2094 319 m 10 Y s 2094 351 m 10 Y s 2034 340 m 49 X s 2105 340 m 49 X s 3 lw 2094 340 m20 6 lw 3 lw 363 261 m 1791 X s
 gsave  2268 1630 0 0 C 1840.38 56.9778 t 0 r /Helvetica findfont 76.92 sf 0 0 m (mjj [GeV]) show NC gr  455 299 m -38 Y s 534 280 m -19 Y s 613 280 m -19 Y s 693 280 m -19 Y s 772 299 m -38 Y s 851 280 m -19 Y s 930 280 m -19 Y s 1010 280 m -19 Y s
 1089 299 m -38 Y s 1168 280 m -19 Y s 1247 280 m -19 Y s 1327 280 m -19 Y s 1406 299 m -38 Y s 1485 280 m -19 Y s 1565 280 m -19 Y s 1644 280 m -19 Y s 1723 299 m -38 Y s 1802 280 m -19 Y s 1882 280 m -19 Y s 1961 280 m -19 Y s 2040 299 m -38 Y s
 455 299 m -38 Y s 376 280 m -19 Y s 2040 299 m -38 Y s 2119 280 m -19 Y s
 gsave  2268 1630 0 0 C 387.449 205.12 t 0 r /Helvetica findfont 59.8267 sf 0 0 m (2600) show NC gr 
 gsave  2268 1630 0 0 C 703.676 205.12 t 0 r /Helvetica findfont 59.8267 sf 0 0 m (2800) show NC gr 
 gsave  2268 1630 0 0 C 1022.75 205.12 t 0 r /Helvetica findfont 59.8267 sf 0 0 m (3000) show NC gr 
 gsave  2268 1630 0 0 C 1338.98 205.12 t 0 r /Helvetica findfont 59.8267 sf 0 0 m (3200) show NC gr 
 gsave  2268 1630 0 0 C 1655.21 205.12 t 0 r /Helvetica findfont 59.8267 sf 0 0 m (3400) show NC gr 
 gsave  2268 1630 0 0 C 1974.28 205.12 t 0 r /Helvetica findfont 59.8267 sf 0 0 m (3600) show NC gr  363 1548 m 1791 X s 455 1509 m 39 Y s 534 1529 m 19 Y s 613 1529 m 19 Y s 693 1529 m 19 Y s 772 1509 m 39 Y s 851 1529 m 19 Y s 930 1529 m 19 Y s
 1010 1529 m 19 Y s 1089 1509 m 39 Y s 1168 1529 m 19 Y s 1247 1529 m 19 Y s 1327 1529 m 19 Y s 1406 1509 m 39 Y s 1485 1529 m 19 Y s 1565 1529 m 19 Y s 1644 1529 m 19 Y s 1723 1509 m 39 Y s 1802 1529 m 19 Y s 1882 1529 m 19 Y s 1961 1529 m 19 Y s
 2040 1509 m 39 Y s 455 1509 m 39 Y s 376 1529 m 19 Y s 2040 1509 m 39 Y s 2119 1529 m 19 Y s 363 261 m 1287 Y s 417 422 m -54 X s 390 460 m -27 X s 390 499 m -27 X s 390 538 m -27 X s 390 577 m -27 X s 417 616 m -54 X s 390 654 m -27 X s 390 693 m
 -27 X s 390 732 m -27 X s 390 771 m -27 X s 417 810 m -54 X s 390 848 m -27 X s 390 887 m -27 X s 390 926 m -27 X s 390 965 m -27 X s 417 1004 m -54 X s 390 1042 m -27 X s 390 1081 m -27 X s 390 1120 m -27 X s 390 1159 m -27 X s 417 1198 m -54 X s
 390 1236 m -27 X s 390 1275 m -27 X s 390 1314 m -27 X s 390 1353 m -27 X s 417 1392 m -54 X s 417 422 m -54 X s 390 383 m -27 X s 390 344 m -27 X s 390 305 m -27 X s 390 266 m -27 X s 417 1392 m -54 X s 390 1430 m -27 X s 390 1469 m -27 X s 390
 1508 m -27 X s 390 1547 m -27 X s
 gsave  2268 1630 0 0 C 267.796 393.147 t 0 r /Helvetica findfont 76.92 sf 0 0 m (50) show NC gr 
 gsave  2268 1630 0 0 C 225.062 589.72 t 0 r /Helvetica findfont 76.92 sf 0 0 m (100) show NC gr 
 gsave  2268 1630 0 0 C 225.062 783.445 t 0 r /Helvetica findfont 76.92 sf 0 0 m (150) show NC gr 
 gsave  2268 1630 0 0 C 225.062 977.169 t 0 r /Helvetica findfont 76.92 sf 0 0 m (200) show NC gr 
 gsave  2268 1630 0 0 C 225.062 1170.89 t 0 r /Helvetica findfont 76.92 sf 0 0 m (250) show NC gr 
 gsave  2268 1630 0 0 C 225.062 1364.62 t 0 r /Helvetica findfont 76.92 sf 0 0 m (300) show NC gr  2154 261 m 1287 Y s 2101 422 m 53 X s 2127 460 m 27 X s 2127 499 m 27 X s 2127 538 m 27 X s 2127 577 m 27 X s 2101 616 m 53 X s 2127 654 m 27 X s 2127
 693 m 27 X s 2127 732 m 27 X s 2127 771 m 27 X s 2101 810 m 53 X s 2127 848 m 27 X s 2127 887 m 27 X s 2127 926 m 27 X s 2127 965 m 27 X s 2101 1004 m 53 X s 2127 1042 m 27 X s 2127 1081 m 27 X s 2127 1120 m 27 X s 2127 1159 m 27 X s 2101 1198 m 53
 X s 2127 1236 m 27 X s 2127 1275 m 27 X s 2127 1314 m 27 X s 2127 1353 m 27 X s 2101 1392 m 53 X s 2101 422 m 53 X s 2127 383 m 27 X s 2127 344 m 27 X s 2127 305 m 27 X s 2127 266 m 27 X s 2101 1392 m 53 X s 2127 1430 m 27 X s 2127 1469 m 27 X s
 2127 1508 m 27 X s 2127 1547 m 27 X s 1 0 0 c 9 lw 0.95 0.95 0.95 c black 1 0 0 c 645 1196 m 4 -4 d 4 -3 d 4 -4 d 4 -4 d 4 -3 d 4 -4 d 4 -4 d 4 -4 d 4 -3 d 4 -4 d 4 -4 d 4 -4 d 4 -3 d 4 -4 d 4 -4 d 4 -4 d 4 -3 d 4 -4 d 4 -4 d 4 -4 d 4 -3 d 4 -4 d 4
 -4 d 4 -4 d 4 -4 d 3 -3 d 4 -4 d 4 -4 d 4 -4 d 4 -4 d 4 -3 d 4 -4 d 4 -4 d 4 -4 d 4 -4 d 4 -3 d 4 -4 d 4 -4 d 4 -4 d 4 -4 d 4 -3 d 4 -4 d 4 -4 d 4 -4 d 4 -4 d 4 -4 d 4 -3 d 4 -4 d 4 -4 d s 840 1011 m 4 -4 d 4 -4 d 4 -3 d 3 -4 d 4 -4 d 4 -4 d 4 -3 d
 4 -4 d 4 -4 d 4 -4 d 4 -4 d 4 -3 d 4 -4 d 4 -4 d 4 -4 d 4 -3 d 4 -4 d 4 -4 d 4 -4 d 4 -3 d 4 -4 d 4 -4 d 4 -3 d 4 -4 d 4 -4 d 4 -3 d 4 -4 d 4 -4 d 4 -4 d 4 -3 d 4 -4 d 3 -4 d 4 -3 d 4 -4 d 4 -3 d 4 -4 d 4 -4 d 4 -3 d 4 -4 d 4 -4 d 4 -3 d 4 -4 d 4 -3
 d 4 -4 d 4 -3 d 4 -4 d 4 -3 d 4 -4 d 4 -4 d s 1034 830 m 4 -3 d s 0.95 0.95 0.95 c black 1 0 0 c 1356 580 m 4 -3 d 5 -3 d 4 -3 d 5 -3 d 4 -3 d 5 -3 d 4 -2 d 5 -3 d 4 -3 d 4 -3 d 5 -3 d 4 -2 d 5 -3 d 4 -3 d 5 -2 d 4 -3 d 5 -3 d 4 -2 d 5 -3 d 4 -3 d 4
 -2 d 5 -3 d 4 -2 d 5 -3 d 4 -2 d 5 -3 d 4 -2 d 5 -3 d 4 -2 d 5 -3 d 4 -2 d 4 -3 d 5 -2 d 4 -2 d 5 -3 d 4 -2 d 5 -2 d 4 -3 d 5 -2 d 4 -2 d 5 -3 d 4 -2 d 4 -2 d 5 -2 d 4 -3 d 5 -2 d 4 -2 d 5 -2 d 4 -2 d s 1574 456 m 5 -2 d 4 -3 d 5 -2 d 4 -2 d 5 -2 d
 4 -2 d 4 -2 d 5 -2 d 4 -2 d 5 -2 d 4 -2 d 5 -2 d 4 -2 d 5 -2 d 4 -2 d 5 -2 d 4 -2 d 4 -2 d 5 -1 d 4 -2 d 5 -2 d 4 -2 d 5 -2 d 4 -2 d 5 -1 d 4 -2 d 5 -2 d 4 -2 d 4 -1 d 5 -2 d 4 -2 d 5 -1 d 4 -2 d 5 -2 d 4 -1 d 5 -2 d 4 -2 d 5 -1 d 4 -2 d 4 -2 d 5 -1
 d 4 -2 d 5 -1 d 4 -2 d 5 -1 d 4 -2 d 5 -1 d 4 -2 d 5 -1 d s 1793 368 m 4 -2 d s 0 1 0 c 0.95 0.95 0.95 c black 0 1 0 c 1041 824 m 4 -3 d 3 -3 d 3 -2 d 3 -3 d 3 -3 d 3 -3 d 3 -2 d 3 -3 d 4 -3 d 3 -3 d 3 -2 d 3 -3 d 3 -3 d 3 -2 d 3 -3 d 4 -3 d 3 -3 d
 3 -2 d 3 -3 d 3 -3 d 3 -2 d 3 -3 d 4 -2 d 3 -3 d 3 -3 d 3 -2 d 3 -3 d 3 -3 d 3 -2 d 4 -3 d 3 -2 d 3 -3 d 3 -3 d 3 -2 d 3 -3 d 3 -2 d 4 -3 d 3 -2 d 3 -3 d 3 -2 d 3 -3 d 3 -2 d 3 -3 d 3 -2 d 4 -3 d 3 -2 d 3 -3 d 3 -2 d 3 -3 d s 1195 695 m 3 -2 d 3 -3
 d 4 -2 d 3 -2 d 3 -3 d 3 -2 d 3 -3 d 3 -2 d 3 -3 d 4 -2 d 3 -2 d 3 -3 d 3 -2 d 3 -2 d 3 -3 d 3 -2 d 4 -2 d 3 -3 d 3 -2 d 3 -2 d 3 -3 d 3 -2 d 3 -2 d 4 -2 d 3 -3 d 3 -2 d 3 -2 d 3 -3 d 3 -2 d 3 -2 d 3 -2 d 4 -2 d 3 -3 d 3 -2 d 3 -2 d 3 -2 d 3 -2 d 3
 -3 d 4 -2 d 3 -2 d 3 -2 d 3 -2 d 3 -2 d 3 -2 d 3 -2 d 4 -3 d 3 -2 d 3 -2 d 3 -2 d s 1349 584 m 3 -2 d s black 3 lw 1 1 1 c 680 326 1361 978 bf black
 gsave  2268 1630 0 0 C 1601.08 1187.99 t 0 r /Helvetica-Bold findfont 79.7689 sf 0 0 m (/NDF = 6.13) show NC gr 
 gsave  2268 1630 0 0 C 1572.59 1213.63 t 0 r /Helvetica-Bold findfont 51.28 sf 0 0 m (2) show NC gr 
 gsave  2268 1630 0 0 C 1529.85 1187.99 t 0 r /Symbol findfont 79.7689 sf 0 0 m (c) show NC gr 
 gsave  2268 1630 0 0 C 1529.85 1022.75 t 0 r /Helvetica-Bold findfont 79.7689 sf 0 0 m (Fit status : 0) show NC gr  1 1 1 c black
 gsave  2268 1630 0 0 C 427.334 1555.49 t 0 r /Helvetica findfont 54.1289 sf 0 0 m (mjj_DataLike_QCDDiJetWithQCDDiJetWithQStar3000_1fb) show NC gr 
 gr  gr showpage
end
%%EOF
