%!PS-Adobe-2.0 EPSF-2.0
%%BoundingBox:  0 0 567 407
%%Title: /afs/cern.ch/user/g/gkoren/DijetAlgo/trunk/TLA/Plots/aux_fit_signal.eps: canvas_iter_fit
%%Creator: ROOT Version 5.34/25
%%CreationDate: Mon Oct 19 16:25:34 2015
%%EndComments
%%BeginProlog
80 dict begin
/s {stroke} def /l {lineto} def /m {moveto} def /t {translate} def
/r {rotate} def /rl {roll}  def /R {repeat} def
/d {rlineto} def /rm {rmoveto} def /gr {grestore} def /f {eofill} def
/c {setrgbcolor} def /black {0 setgray} def /sd {setdash} def
/cl {closepath} def /sf {scalefont setfont} def /lw {setlinewidth} def
/box {m dup 0 exch d exch 0 d 0 exch neg d cl} def
/NC{systemdict begin initclip end}def/C{NC box clip newpath}def
/bl {box s} def /bf {box f} def /Y { 0 exch d} def /X { 0 d} def 
/K {{pop pop 0 moveto} exch kshow} bind def
/ita {/ang 15 def gsave [1 0 ang dup sin exch cos div 1 0 0] concat} def 
/mp {newpath /y exch def /x exch def} def
/side {[w .77 mul w .23 mul] .385 w mul sd w 0 l currentpoint t -144 r} def
/mr {mp x y w2 0 360 arc} def /m24 {mr s} def /m20 {mr f} def
/mb {mp x y w2 add m w2 neg 0 d 0 w neg d w 0 d 0 w d cl} def
/mt {mp x y w2 add m w2 neg w neg d w 0 d cl} def
/m21 {mb f} def /m25 {mb s} def /m22 {mt f} def /m26{mt s} def
/m23 {mp x y w2 sub m w2 w d w neg 0 d cl f} def
/m27 {mp x y w2 add m w3 neg w2 neg d w3 w2 neg d w3 w2 d cl s} def
/m28 {mp x w2 sub y w2 sub w3 add m w3 0 d  0 w3 neg d w3 0 d 0 w3 d w3 0 d  0 w3 d w3 neg 0 d 0 w3 d w3 neg 0 d 0 w3 neg d w3 neg 0 d cl s } def
/m29 {mp gsave x w2 sub y w2 add w3 sub m currentpoint t 4 {side} repeat cl fill gr} def
/m30 {mp gsave x w2 sub y w2 add w3 sub m currentpoint t 4 {side} repeat cl s gr} def
/m31 {mp x y w2 sub m 0 w d x w2 sub y m w 0 d x w2 sub y w2 add m w w neg d x w2 sub y w2 sub m w w d s} def
/m32 {mp x y w2 sub m w2 w d w neg 0 d cl s} def
/m33 {mp x y w2 add m w3 neg w2 neg d w3 w2 neg d w3 w2 d cl f} def
/m34 {mp x w2 sub y w2 sub w3 add m w3 0 d  0 w3 neg d w3 0 d 0 w3 d w3 0 d  0 w3 d w3 neg 0 d 0 w3 d w3 neg 0 d 0 w3 neg d w3 neg 0 d cl f } def
/m2 {mp x y w2 sub m 0 w d x w2 sub y m w 0 d s} def
/m5 {mp x w2 sub y w2 sub m w w d x w2 sub y w2 add m w w neg d s} def
/reEncode {exch findfont dup length dict begin {1 index /FID eq  {pop pop} {def} ifelse } forall /Encoding exch def currentdict end dup /FontName get exch definefont pop } def [/Times-Bold /Times-Italic /Times-BoldItalic /Helvetica /Helvetica-Oblique
 /Helvetica-Bold /Helvetica-BoldOblique /Courier /Courier-Oblique /Courier-Bold /Courier-BoldOblique /Times-Roman /AvantGarde-Book /AvantGarde-BookOblique /AvantGarde-Demi /AvantGarde-DemiOblique /Bookman-Demi /Bookman-DemiItalic /Bookman-Light
 /Bookman-LightItalic /Helvetica-Narrow /Helvetica-Narrow-Bold /Helvetica-Narrow-BoldOblique /Helvetica-Narrow-Oblique /NewCenturySchlbk-Roman /NewCenturySchlbk-Bold /NewCenturySchlbk-BoldItalic /NewCenturySchlbk-Italic /Palatino-Bold
 /Palatino-BoldItalic /Palatino-Italic /Palatino-Roman ] {ISOLatin1Encoding reEncode } forall
%%EndProlog
%%BeginSetup
%%EndSetup
newpath  gsave  .25 .25 scale  gsave  0 0 t black[  ] 0 sd 3 lw 1 1 1 c 2268 1630 0 0 bf black 1 1 1 c 1791 1287 363 261 bf black 1791 1287 363 261 bl 1 1 1 c 1791 1287 363 261 bf black 1791 1287 363 261 bl 6 lw 1 1 1 c black 409 1375 m 44 Y s 409
 1442 m 45 Y s 363 1431 m 34 X s 420 1431 m 35 X s 3 lw /w 27 def /w2 {w 2 div} def /w3 {w 3 div} def 409 1431 m20 6 lw 501 1205 m 40 Y s 501 1268 m 40 Y s 455 1257 m 35 X s 513 1257 m 35 X s 3 lw 501 1257 m20 6 lw 596 1103 m 38 Y s 596 1164 m 38 Y s
 548 1153 m 36 X s 607 1153 m 36 X s 3 lw 596 1153 m20 6 lw 691 974 m 35 Y s 691 1031 m 35 Y s 643 1020 m 37 X s 703 1020 m 37 X s 3 lw 691 1020 m20 6 lw 789 836 m 30 Y s 789 888 m 30 Y s 740 877 m 38 X s 800 877 m 38 X s 3 lw 789 877 m20 6 lw 888
 858 m 31 Y s 888 912 m 30 Y s 838 900 m 39 X s 900 900 m 38 X s 3 lw 888 900 m20 6 lw 989 750 m 27 Y s 989 800 m 27 Y s 938 789 m 40 X s 1001 789 m 39 X s 3 lw 989 789 m20 6 lw 1092 718 m 25 Y s 1092 766 m 26 Y s 1040 755 m 40 X s 1103 755 m 40 X s
 3 lw 1092 755 m20 6 lw 1196 785 m 29 Y s 1196 836 m 29 Y s 1143 825 m 42 X s 1207 825 m 42 X s 3 lw 1196 825 m20 6 lw 1302 632 m 23 Y s 1302 678 m 22 Y s 1249 666 m 42 X s 1313 666 m 42 X s 3 lw 1302 666 m20 6 lw 1410 553 m 19 Y s 1410 595 m 19 Y s
 1355 583 m 43 X s 1421 583 m 43 X s 3 lw 1410 583 m20 6 lw 1519 476 m 15 Y s 1519 514 m 16 Y s 1464 503 m 43 X s 1530 503 m 44 X s 3 lw 1519 503 m20 6 lw 1630 404 m 12 Y s 1630 439 m 11 Y s 1574 427 m 44 X s 1641 427 m 45 X s 3 lw 1630 427 m20 6 lw
 1742 338 m 8 Y s 1742 369 m 7 Y s 1686 357 m 45 X s 1754 357 m 45 X s 3 lw 1742 357 m20 6 lw 1857 365 m 9 Y s 1857 397 m 9 Y s 1799 386 m 47 X s 1869 386 m 47 X s 3 lw 1857 386 m20 6 lw 1975 370 m 10 Y s 1975 402 m 10 Y s 1916 391 m 48 X s 1986 391
 m 48 X s 3 lw 1975 391 m20 6 lw 2094 319 m 6 Y s 2094 348 m 6 Y s 2034 336 m 49 X s 2106 336 m 48 X s 3 lw 2094 336 m20 6 lw 3 lw 363 261 m 1791 X s
 gsave  2268 1630 0 0 C 1840.38 56.9778 t 0 r /Helvetica findfont 76.92 sf 0 0 m (mjj [GeV]) show NC gr  406 299 m -38 Y s 490 280 m -19 Y s 573 280 m -19 Y s 656 280 m -19 Y s 740 299 m -38 Y s 823 280 m -19 Y s 907 280 m -19 Y s 990 280 m -19 Y s
 1073 299 m -38 Y s 1157 280 m -19 Y s 1240 280 m -19 Y s 1324 280 m -19 Y s 1407 299 m -38 Y s 1490 280 m -19 Y s 1574 280 m -19 Y s 1657 280 m -19 Y s 1741 299 m -38 Y s 1824 280 m -19 Y s 1907 280 m -19 Y s 1991 280 m -19 Y s 2074 299 m -38 Y s
 406 299 m -38 Y s 2074 299 m -38 Y s
 gsave  2268 1630 0 0 C 339.018 205.12 t 0 r /Helvetica findfont 59.8267 sf 0 0 m (2400) show NC gr 
 gsave  2268 1630 0 0 C 672.338 205.12 t 0 r /Helvetica findfont 59.8267 sf 0 0 m (2600) show NC gr 
 gsave  2268 1630 0 0 C 1005.66 205.12 t 0 r /Helvetica findfont 59.8267 sf 0 0 m (2800) show NC gr 
 gsave  2268 1630 0 0 C 1338.98 205.12 t 0 r /Helvetica findfont 59.8267 sf 0 0 m (3000) show NC gr 
 gsave  2268 1630 0 0 C 1672.3 205.12 t 0 r /Helvetica findfont 59.8267 sf 0 0 m (3200) show NC gr 
 gsave  2268 1630 0 0 C 2008.47 205.12 t 0 r /Helvetica findfont 59.8267 sf 0 0 m (3400) show NC gr  363 1548 m 1791 X s 406 1509 m 39 Y s 490 1529 m 19 Y s 573 1529 m 19 Y s 656 1529 m 19 Y s 740 1509 m 39 Y s 823 1529 m 19 Y s 907 1529 m 19 Y s 990
 1529 m 19 Y s 1073 1509 m 39 Y s 1157 1529 m 19 Y s 1240 1529 m 19 Y s 1324 1529 m 19 Y s 1407 1509 m 39 Y s 1490 1529 m 19 Y s 1574 1529 m 19 Y s 1657 1529 m 19 Y s 1741 1509 m 39 Y s 1824 1529 m 19 Y s 1907 1529 m 19 Y s 1991 1529 m 19 Y s 2074
 1509 m 39 Y s 406 1509 m 39 Y s 2074 1509 m 39 Y s 363 261 m 1287 Y s 417 352 m -54 X s 390 378 m -27 X s 390 404 m -27 X s 390 430 m -27 X s 390 456 m -27 X s 417 482 m -54 X s 390 508 m -27 X s 390 534 m -27 X s 390 560 m -27 X s 390 586 m -27 X s
 417 612 m -54 X s 390 638 m -27 X s 390 664 m -27 X s 390 690 m -27 X s 390 716 m -27 X s 417 742 m -54 X s 390 768 m -27 X s 390 794 m -27 X s 390 820 m -27 X s 390 846 m -27 X s 417 872 m -54 X s 390 898 m -27 X s 390 924 m -27 X s 390 950 m -27 X
 s 390 976 m -27 X s 417 1002 m -54 X s 390 1028 m -27 X s 390 1054 m -27 X s 390 1080 m -27 X s 390 1106 m -27 X s 417 1132 m -54 X s 390 1158 m -27 X s 390 1184 m -27 X s 390 1210 m -27 X s 390 1236 m -27 X s 417 1262 m -54 X s 390 1288 m -27 X s
 390 1314 m -27 X s 390 1340 m -27 X s 390 1366 m -27 X s 417 1392 m -54 X s 390 1418 m -27 X s 390 1444 m -27 X s 390 1470 m -27 X s 390 1496 m -27 X s 417 1522 m -54 X s 417 352 m -54 X s 390 326 m -27 X s 390 300 m -27 X s 390 274 m -27 X s 417
 1522 m -54 X s 390 1548 m -27 X s
 gsave  2268 1630 0 0 C 267.796 324.773 t 0 r /Helvetica findfont 76.92 sf 0 0 m (50) show NC gr 
 gsave  2268 1630 0 0 C 225.062 455.822 t 0 r /Helvetica findfont 76.92 sf 0 0 m (100) show NC gr 
 gsave  2268 1630 0 0 C 225.062 584.022 t 0 r /Helvetica findfont 76.92 sf 0 0 m (150) show NC gr 
 gsave  2268 1630 0 0 C 225.062 715.071 t 0 r /Helvetica findfont 76.92 sf 0 0 m (200) show NC gr 
 gsave  2268 1630 0 0 C 225.062 846.12 t 0 r /Helvetica findfont 76.92 sf 0 0 m (250) show NC gr 
 gsave  2268 1630 0 0 C 225.062 974.32 t 0 r /Helvetica findfont 76.92 sf 0 0 m (300) show NC gr 
 gsave  2268 1630 0 0 C 225.062 1105.37 t 0 r /Helvetica findfont 76.92 sf 0 0 m (350) show NC gr 
 gsave  2268 1630 0 0 C 225.062 1233.57 t 0 r /Helvetica findfont 76.92 sf 0 0 m (400) show NC gr 
 gsave  2268 1630 0 0 C 225.062 1364.62 t 0 r /Helvetica findfont 76.92 sf 0 0 m (450) show NC gr 
 gsave  2268 1630 0 0 C 225.062 1495.67 t 0 r /Helvetica findfont 76.92 sf 0 0 m (500) show NC gr  2154 261 m 1287 Y s 2101 352 m 53 X s 2127 378 m 27 X s 2127 404 m 27 X s 2127 430 m 27 X s 2127 456 m 27 X s 2101 482 m 53 X s 2127 508 m 27 X s 2127
 534 m 27 X s 2127 560 m 27 X s 2127 586 m 27 X s 2101 612 m 53 X s 2127 638 m 27 X s 2127 664 m 27 X s 2127 690 m 27 X s 2127 716 m 27 X s 2101 742 m 53 X s 2127 768 m 27 X s 2127 794 m 27 X s 2127 820 m 27 X s 2127 846 m 27 X s 2101 872 m 53 X s
 2127 898 m 27 X s 2127 924 m 27 X s 2127 950 m 27 X s 2127 976 m 27 X s 2101 1002 m 53 X s 2127 1028 m 27 X s 2127 1054 m 27 X s 2127 1080 m 27 X s 2127 1106 m 27 X s 2101 1132 m 53 X s 2127 1158 m 27 X s 2127 1184 m 27 X s 2127 1210 m 27 X s 2127
 1236 m 27 X s 2101 1262 m 53 X s 2127 1288 m 27 X s 2127 1314 m 27 X s 2127 1340 m 27 X s 2127 1366 m 27 X s 2101 1392 m 53 X s 2127 1418 m 27 X s 2127 1444 m 27 X s 2127 1470 m 27 X s 2127 1496 m 27 X s 2101 1522 m 53 X s 2101 352 m 53 X s 2127 326
 m 27 X s 2127 300 m 27 X s 2127 274 m 27 X s 2101 1522 m 53 X s 2127 1548 m 27 X s 1 0 0 c 9 lw 0.95 0.95 0.95 c black 1 0 0 c 645 1035 m 4 -3 d 4 -3 d 4 -2 d 4 -3 d 4 -2 d 4 -3 d 4 -3 d 4 -2 d 4 -3 d 4 -3 d 4 -2 d 4 -3 d 4 -3 d 4 -2 d 4 -3 d 4 -3 d
 4 -2 d 4 -3 d 3 -3 d 4 -2 d 4 -3 d 4 -3 d 4 -3 d 4 -2 d 4 -3 d 4 -3 d 4 -2 d 4 -3 d 4 -3 d 4 -3 d 4 -2 d 4 -3 d 4 -3 d 4 -3 d 4 -2 d 4 -3 d 4 -3 d 4 -3 d 4 -2 d 4 -3 d 4 -3 d 4 -3 d 4 -3 d 4 -2 d 4 -3 d 4 -3 d 4 -3 d 4 -2 d 4 -3 d s 840 902 m 4 -3 d
 4 -3 d 3 -3 d 4 -2 d 4 -3 d 4 -3 d 4 -3 d 4 -3 d 4 -2 d 4 -3 d 4 -3 d 4 -3 d 4 -3 d 4 -2 d 4 -3 d 4 -3 d 4 -3 d 4 -3 d 4 -2 d 4 -3 d 4 -3 d 4 -3 d 4 -2 d 4 -3 d 4 -3 d 4 -3 d 4 -3 d 4 -2 d 4 -3 d 4 -3 d 4 -3 d 4 -2 d 4 -3 d 4 -3 d 4 -3 d 4 -2 d 3 -3
 d 4 -3 d 4 -3 d 4 -2 d 4 -3 d 4 -3 d 4 -3 d 4 -2 d 4 -3 d 4 -3 d 4 -3 d 4 -2 d 4 -3 d s 1034 766 m 4 -3 d s 0.95 0.95 0.95 c black 1 0 0 c 1358 565 m 4 -3 d 4 -2 d 5 -2 d 4 -3 d 5 -2 d 4 -3 d 5 -2 d 4 -2 d 4 -3 d 5 -2 d 4 -2 d 5 -3 d 4 -2 d 5 -2 d 4
 -2 d 5 -3 d 4 -2 d 4 -2 d 5 -2 d 4 -3 d 5 -2 d 4 -2 d 5 -2 d 4 -2 d 4 -3 d 5 -2 d 4 -2 d 5 -2 d 4 -2 d 5 -2 d 4 -2 d 5 -2 d 4 -3 d 4 -2 d 5 -2 d 4 -2 d 5 -2 d 4 -2 d 5 -2 d 4 -2 d 4 -2 d 5 -2 d 4 -2 d 5 -2 d 4 -2 d 5 -2 d 4 -2 d 5 -1 d 4 -2 d s 1575
 459 m 4 -2 d 5 -2 d 4 -2 d 5 -2 d 4 -2 d 5 -2 d 4 -1 d 4 -2 d 5 -2 d 4 -2 d 5 -2 d 4 -1 d 5 -2 d 4 -2 d 5 -2 d 4 -1 d 4 -2 d 5 -2 d 4 -2 d 5 -1 d 4 -2 d 5 -2 d 4 -1 d 4 -2 d 5 -2 d 4 -1 d 5 -2 d 4 -1 d 5 -2 d 4 -2 d 5 -1 d 4 -2 d 4 -1 d 5 -2 d 4 -1
 d 5 -2 d 4 -1 d 5 -2 d 4 -1 d 4 -2 d 5 -1 d 4 -2 d 5 -1 d 4 -2 d 5 -1 d 4 -2 d 5 -1 d 4 -2 d 4 -1 d s 1792 378 m 5 -1 d s 0 1 0 c 0.95 0.95 0.95 c black 0 1 0 c 1042 761 m 3 -2 d 3 -2 d 3 -3 d 3 -2 d 3 -2 d 4 -2 d 3 -2 d 3 -2 d 3 -2 d 3 -2 d 3 -3 d
 3 -2 d 4 -2 d 3 -2 d 3 -2 d 3 -2 d 3 -2 d 3 -2 d 4 -2 d 3 -2 d 3 -3 d 3 -2 d 3 -2 d 3 -2 d 3 -2 d 4 -2 d 3 -2 d 3 -2 d 3 -2 d 3 -2 d 3 -2 d 4 -2 d 3 -2 d 3 -2 d 3 -2 d 3 -2 d 3 -2 d 3 -2 d 4 -2 d 3 -2 d 3 -2 d 3 -2 d 3 -2 d 3 -2 d 4 -2 d 3 -2 d 3 -2
 d 3 -2 d 3 -2 d s 1196 660 m 3 -2 d 3 -2 d 4 -2 d 3 -2 d 3 -2 d 3 -2 d 3 -2 d 3 -2 d 3 -2 d 4 -2 d 3 -2 d 3 -2 d 3 -2 d 3 -2 d 3 -1 d 4 -2 d 3 -2 d 3 -2 d 3 -2 d 3 -2 d 3 -2 d 3 -2 d 4 -2 d 3 -1 d 3 -2 d 3 -2 d 3 -2 d 3 -2 d 4 -2 d 3 -1 d 3 -2 d 3
 -2 d 3 -2 d 3 -2 d 3 -2 d 4 -1 d 3 -2 d 3 -2 d 3 -2 d 3 -2 d 3 -1 d 4 -2 d 3 -2 d 3 -2 d 3 -1 d 3 -2 d 3 -2 d 3 -2 d 4 -1 d s 1351 569 m 3 -2 d s black 3 lw 1 1 1 c 680 326 1361 978 bf black
 gsave  2268 1630 0 0 C 1601.08 1187.99 t 0 r /Helvetica-Bold findfont 79.7689 sf 0 0 m (/NDF = 1.96) show NC gr 
 gsave  2268 1630 0 0 C 1572.59 1213.63 t 0 r /Helvetica-Bold findfont 51.28 sf 0 0 m (2) show NC gr 
 gsave  2268 1630 0 0 C 1529.85 1187.99 t 0 r /Symbol findfont 79.7689 sf 0 0 m (c) show NC gr 
 gsave  2268 1630 0 0 C 1529.85 1022.75 t 0 r /Helvetica-Bold findfont 79.7689 sf 0 0 m (Fit status : 0) show NC gr  1 1 1 c black
 gsave  2268 1630 0 0 C 427.334 1555.49 t 0 r /Helvetica findfont 54.1289 sf 0 0 m (mjj_DataLike_QCDDiJetWithQCDDiJetWithQStar3000_1fb) show NC gr 
 gr  gr showpage
end
%%EOF
