%!PS-Adobe-2.0 EPSF-2.0
%%BoundingBox:  0 0 567 407
%%Title: Plots/Fit_QStar.eps: fit
%%Creator: ROOT Version 6.02/12
%%CreationDate: Thu Sep 17 16:01:07 2015
%%EndComments
%%BeginProlog
80 dict begin
/s {stroke} def /l {lineto} def /m {moveto} def /t {translate} def
/r {rotate} def /rl {roll}  def /R {repeat} def
/d {rlineto} def /rm {rmoveto} def /gr {grestore} def /f {eofill} def
/c {setrgbcolor} def /black {0 setgray} def /sd {setdash} def
/cl {closepath} def /sf {scalefont setfont} def /lw {setlinewidth} def
/box {m dup 0 exch d exch 0 d 0 exch neg d cl} def
/NC{systemdict begin initclip end}def/C{NC box clip newpath}def
/bl {box s} def /bf {gsave box gsave f grestore 1 lw [] 0 sd s grestore} def /Y { 0 exch d} def /X { 0 d} def 
/K {{pop pop 0 moveto} exch kshow} bind def
/ita {/ang 15 def gsave [1 0 ang dup sin exch cos div 1 0 0] concat} def 
/mp {newpath /y exch def /x exch def} def
/side {[w .77 mul w .23 mul] .385 w mul sd w 0 l currentpoint t -144 r} def
/mr {mp x y w2 0 360 arc} def /m24 {mr s} def /m20 {mr f} def
/mb {mp x y w2 add m w2 neg 0 d 0 w neg d w 0 d 0 w d cl} def
/mt {mp x y w2 add m w2 neg w neg d w 0 d cl} def
/m21 {mb f} def /m25 {mb s} def /m22 {mt f} def /m26{mt s} def
/m23 {mp x y w2 sub m w2 w d w neg 0 d cl f} def
/m27 {mp x y w2 add m w3 neg w2 neg d w3 w2 neg d w3 w2 d cl s} def
/m28 {mp x w2 sub y w2 sub w3 add m w3 0 d  0 w3 neg d w3 0 d 0 w3 d w3 0 d  0 w3 d w3 neg 0 d 0 w3 d w3 neg 0 d 0 w3 neg d w3 neg 0 d cl s } def
/m29 {mp gsave x w2 sub y w2 add w3 sub m currentpoint t 4 {side} repeat cl fill gr} def
/m30 {mp gsave x w2 sub y w2 add w3 sub m currentpoint t 4 {side} repeat cl s gr} def
/m31 {mp x y w2 sub m 0 w d x w2 sub y m w 0 d x w2 sub y w2 add m w w neg d x w2 sub y w2 sub m w w d s} def
/m32 {mp x y w2 sub m w2 w d w neg 0 d cl s} def
/m33 {mp x y w2 add m w3 neg w2 neg d w3 w2 neg d w3 w2 d cl f} def
/m34 {mp x w2 sub y w2 sub w3 add m w3 0 d  0 w3 neg d w3 0 d 0 w3 d w3 0 d  0 w3 d w3 neg 0 d 0 w3 d w3 neg 0 d 0 w3 neg d w3 neg 0 d cl f } def
/m2 {mp x y w2 sub m 0 w d x w2 sub y m w 0 d s} def
/m5 {mp x w2 sub y w2 sub m w w d x w2 sub y w2 add m w w neg d s} def
/reEncode {exch findfont dup length dict begin {1 index /FID eq  {pop pop} {def} ifelse } forall /Encoding exch def currentdict end dup /FontName get exch definefont pop } def [/Times-Bold /Times-Italic /Times-BoldItalic /Helvetica /Helvetica-Oblique
 /Helvetica-Bold /Helvetica-BoldOblique /Courier /Courier-Oblique /Courier-Bold /Courier-BoldOblique /Times-Roman /AvantGarde-Book /AvantGarde-BookOblique /AvantGarde-Demi /AvantGarde-DemiOblique /Bookman-Demi /Bookman-DemiItalic /Bookman-Light
 /Bookman-LightItalic /Helvetica-Narrow /Helvetica-Narrow-Bold /Helvetica-Narrow-BoldOblique /Helvetica-Narrow-Oblique /NewCenturySchlbk-Roman /NewCenturySchlbk-Bold /NewCenturySchlbk-BoldItalic /NewCenturySchlbk-Italic /Palatino-Bold
 /Palatino-BoldItalic /Palatino-Italic /Palatino-Roman ] {ISOLatin1Encoding reEncode } forall
%%EndProlog
%%BeginSetup
%%EndSetup
newpath  gsave  .25 .25 scale  gsave  0 0 t black[  ] 0 sd 3 lw 1 1 1 c 2268 1630 0 0 bf black 1 1 1 c 2268 1434 0 196 bf black 1 1 1 c 1791 1133 363 425 bf black 1791 1133 363 425 bl 1 1 1 c 1791 1133 363 425 bf black 1791 1133 363 425 bl 6 lw 1 0 0
 c black 3 lw 1 0 0 c 1 lw << /PatternType 1 /PaintType 2 /TilingType 1 /BBox [ 0 0 98 4 ] /XStep 98 /YStep 4 /PaintProc { begin gsave [1] 0 sd 2 4 m 99 4 l s 1 3 m 98 3 l s 2 2 m 99 2 l s 1 1 m 98 1 l s gr end } >> [ 4.0 0 0 4.0 0 0 ] makepattern
 /P01 exch def /cs {[/Pattern /DeviceRGB] setcolorspace} def /FA {f [/DeviceRGB] setcolorspace} def cs 1 0 0 P01 setcolor 556 1329 m 17 X 1 Y -17 X FA 6 lw 3 lw 1 0 0 c cs 1 0 0 P01 setcolor 573 1316 m 17 X 1 Y -17 X FA 6 lw 3 lw 1 0 0 c cs 1 0 0 P01
 setcolor 590 1304 m 17 X 1 Y -17 X FA 6 lw 3 lw 1 0 0 c cs 1 0 0 P01 setcolor 607 1290 m 18 X 2 Y -18 X FA 6 lw 3 lw 1 0 0 c cs 1 0 0 P01 setcolor 625 1278 m 18 X 2 Y -18 X FA 6 lw 3 lw 1 0 0 c cs 1 0 0 P01 setcolor 643 1267 m 18 X 1 Y -18 X FA 6 lw
 3 lw 1 0 0 c cs 1 0 0 P01 setcolor 661 1253 m 18 X 2 Y -18 X FA 6 lw 3 lw 1 0 0 c cs 1 0 0 P01 setcolor 679 1240 m 19 X 2 Y -19 X FA 6 lw 3 lw 1 0 0 c cs 1 0 0 P01 setcolor 698 1229 m 19 X 2 Y -19 X FA 6 lw 3 lw 1 0 0 c cs 1 0 0 P01 setcolor 717
 1217 m 20 X 2 Y -20 X FA 6 lw 3 lw 1 0 0 c cs 1 0 0 P01 setcolor 737 1204 m 20 X 3 Y -20 X FA 6 lw 3 lw 1 0 0 c cs 1 0 0 P01 setcolor 757 1194 m 20 X 3 Y -20 X FA 6 lw 3 lw 1 0 0 c cs 1 0 0 P01 setcolor 777 1183 m 20 X 3 Y -20 X FA 6 lw 3 lw 1 0 0 c
 cs 1 0 0 P01 setcolor 797 1171 m 21 X 3 Y -21 X FA 6 lw 3 lw 1 0 0 c cs 1 0 0 P01 setcolor 818 1157 m 22 X 4 Y -22 X FA 6 lw 3 lw 1 0 0 c cs 1 0 0 P01 setcolor 840 1144 m 21 X 4 Y -21 X FA 6 lw 3 lw 1 0 0 c cs 1 0 0 P01 setcolor 861 1134 m 23 X 4 Y
 -23 X FA 6 lw 3 lw 1 0 0 c cs 1 0 0 P01 setcolor 884 1126 m 22 X 4 Y -22 X FA 6 lw 3 lw 1 0 0 c cs 1 0 0 P01 setcolor 906 1117 m 23 X 4 Y -23 X FA 6 lw 3 lw 1 0 0 c cs 1 0 0 P01 setcolor 929 1107 m 23 X 4 Y -23 X FA 6 lw 3 lw 1 0 0 c cs 1 0 0 P01
 setcolor 952 1093 m 24 X 4 Y -24 X FA 6 lw 3 lw 1 0 0 c cs 1 0 0 P01 setcolor 976 1077 m 24 X 4 Y -24 X FA 6 lw 3 lw 1 0 0 c cs 1 0 0 P01 setcolor 1000 1059 m 24 X 5 Y -24 X FA 6 lw 3 lw 1 0 0 c cs 1 0 0 P01 setcolor 1024 1045 m 25 X 5 Y -25 X FA 6
 lw 3 lw 1 0 0 c cs 1 0 0 P01 setcolor 1049 1039 m 25 X 6 Y -25 X FA 6 lw 3 lw 1 0 0 c cs 1 0 0 P01 setcolor 1074 1028 m 26 X 6 Y -26 X FA 6 lw 3 lw 1 0 0 c cs 1 0 0 P01 setcolor 1100 1024 m 26 X 7 Y -26 X FA 6 lw 3 lw 1 0 0 c cs 1 0 0 P01 setcolor
 1126 1005 m 26 X 7 Y -26 X FA 6 lw 3 lw 1 0 0 c cs 1 0 0 P01 setcolor 1152 980 m 28 X 7 Y -28 X FA 6 lw 3 lw 1 0 0 c cs 1 0 0 P01 setcolor 1180 957 m 27 X 7 Y -27 X FA 6 lw 3 lw 1 0 0 c cs 1 0 0 P01 setcolor 1207 941 m 28 X 8 Y -28 X FA 6 lw 3 lw 1
 0 0 c cs 1 0 0 P01 setcolor 1235 933 m 28 X 10 Y -28 X FA 6 lw 3 lw 1 0 0 c cs 1 0 0 P01 setcolor 1263 919 m 30 X 12 Y -30 X FA 6 lw 3 lw 1 0 0 c cs 1 0 0 P01 setcolor 1293 904 m 29 X 11 Y -29 X FA 6 lw 3 lw 1 0 0 c cs 1 0 0 P01 setcolor 1322 889 m
 30 X 14 Y -30 X FA 6 lw 3 lw 1 0 0 c cs 1 0 0 P01 setcolor 1352 874 m 30 X 13 Y -30 X FA 6 lw 3 lw 1 0 0 c cs 1 0 0 P01 setcolor 1382 861 m 31 X 16 Y -31 X FA 6 lw 3 lw 1 0 0 c cs 1 0 0 P01 setcolor 1413 845 m 32 X 18 Y -32 X FA 6 lw 3 lw 1 0 0 c cs
 1 0 0 P01 setcolor 1445 839 m 31 X 16 Y -31 X FA 6 lw 3 lw 1 0 0 c cs 1 0 0 P01 setcolor 1476 812 m 33 X 18 Y -33 X FA 6 lw 3 lw 1 0 0 c cs 1 0 0 P01 setcolor 1509 788 m 33 X 24 Y -33 X FA 6 lw 3 lw 1 0 0 c cs 1 0 0 P01 setcolor 1542 752 m 34 X 22 Y
 -34 X FA 6 lw 3 lw 1 0 0 c cs 1 0 0 P01 setcolor 1576 732 m 34 X 30 Y -34 X FA 6 lw 3 lw 1 0 0 c cs 1 0 0 P01 setcolor 1610 716 m 35 X 26 Y -35 X FA 6 lw 3 lw 1 0 0 c cs 1 0 0 P01 setcolor 1645 734 m 35 X 27 Y -35 X FA 6 lw 3 lw 1 0 0 c cs 1 0 0 P01
 setcolor 1680 703 m 36 X 29 Y -36 X FA 6 lw 3 lw 1 0 0 c cs 1 0 0 P01 setcolor 1716 663 m 37 X 35 Y -37 X FA 6 lw 3 lw 1 0 0 c cs 1 0 0 P01 setcolor 1753 651 m 37 X 38 Y -37 X FA 6 lw 3 lw 1 0 0 c cs 1 0 0 P01 setcolor 1790 613 m 38 X 48 Y -38 X FA
 6 lw 3 lw 1 0 0 c cs 1 0 0 P01 setcolor 1828 613 m 38 X 52 Y -38 X FA 6 lw 3 lw 1 0 0 c cs 1 0 0 P01 setcolor 1866 602 m 39 X 50 Y -39 X FA 6 lw 3 lw 1 0 0 c cs 1 0 0 P01 setcolor 1905 552 m 40 X 52 Y -40 X FA 6 lw black 3 lw 363 425 m 1791 X s 479
 459 m -34 Y s 518 442 m -17 Y s 557 442 m -17 Y s 596 442 m -17 Y s 634 442 m -17 Y s 673 459 m -34 Y s 712 442 m -17 Y s 751 442 m -17 Y s 790 442 m -17 Y s 828 442 m -17 Y s 867 459 m -34 Y s 906 442 m -17 Y s 945 442 m -17 Y s 984 442 m -17 Y s
 1022 442 m -17 Y s 1061 459 m -34 Y s 1100 442 m -17 Y s 1139 442 m -17 Y s 1178 442 m -17 Y s 1216 442 m -17 Y s 1255 459 m -34 Y s 1294 442 m -17 Y s 1333 442 m -17 Y s 1372 442 m -17 Y s 1410 442 m -17 Y s 1449 459 m -34 Y s 1488 442 m -17 Y s
 1527 442 m -17 Y s 1566 442 m -17 Y s 1605 442 m -17 Y s 1643 459 m -34 Y s 1682 442 m -17 Y s 1721 442 m -17 Y s 1760 442 m -17 Y s 1799 442 m -17 Y s 1837 459 m -34 Y s 1876 442 m -17 Y s 1915 442 m -17 Y s 1954 442 m -17 Y s 1993 442 m -17 Y s
 2031 459 m -34 Y s 479 459 m -34 Y s 440 442 m -17 Y s 402 442 m -17 Y s 363 442 m -17 Y s 2031 459 m -34 Y s 2070 442 m -17 Y s 2109 442 m -17 Y s 2148 442 m -17 Y s
 gsave  2268 1434 0 196 C 404.542 364.658 t 0 r /Helvetica findfont 65.5714 sf 0 0 m (1500) show NC gr 
 gsave  2268 1434 0 196 C 598.267 364.658 t 0 r /Helvetica findfont 65.5714 sf 0 0 m (2000) show NC gr 
 gsave  2268 1434 0 196 C 791.991 364.658 t 0 r /Helvetica findfont 65.5714 sf 0 0 m (2500) show NC gr 
 gsave  2268 1434 0 196 C 985.716 364.658 t 0 r /Helvetica findfont 65.5714 sf 0 0 m (3000) show NC gr 
 gsave  2268 1434 0 196 C 1179.44 364.658 t 0 r /Helvetica findfont 65.5714 sf 0 0 m (3500) show NC gr 
 gsave  2268 1434 0 196 C 1373.17 364.658 t 0 r /Helvetica findfont 65.5714 sf 0 0 m (4000) show NC gr 
 gsave  2268 1434 0 196 C 1566.89 364.658 t 0 r /Helvetica findfont 65.5714 sf 0 0 m (4500) show NC gr 
 gsave  2268 1434 0 196 C 1760.61 364.658 t 0 r /Helvetica findfont 65.5714 sf 0 0 m (5000) show NC gr 
 gsave  2268 1434 0 196 C 1957.19 364.658 t 0 r /Helvetica findfont 65.5714 sf 0 0 m (5500) show NC gr  363 1558 m 1791 X s 479 1524 m 34 Y s 518 1541 m 17 Y s 557 1541 m 17 Y s 596 1541 m 17 Y s 634 1541 m 17 Y s 673 1524 m 34 Y s 712 1541 m 17 Y s
 751 1541 m 17 Y s 790 1541 m 17 Y s 828 1541 m 17 Y s 867 1524 m 34 Y s 906 1541 m 17 Y s 945 1541 m 17 Y s 984 1541 m 17 Y s 1022 1541 m 17 Y s 1061 1524 m 34 Y s 1100 1541 m 17 Y s 1139 1541 m 17 Y s 1178 1541 m 17 Y s 1216 1541 m 17 Y s 1255 1524
 m 34 Y s 1294 1541 m 17 Y s 1333 1541 m 17 Y s 1372 1541 m 17 Y s 1410 1541 m 17 Y s 1449 1524 m 34 Y s 1488 1541 m 17 Y s 1527 1541 m 17 Y s 1566 1541 m 17 Y s 1605 1541 m 17 Y s 1643 1524 m 34 Y s 1682 1541 m 17 Y s 1721 1541 m 17 Y s 1760 1541 m
 17 Y s 1799 1541 m 17 Y s 1837 1524 m 34 Y s 1876 1541 m 17 Y s 1915 1541 m 17 Y s 1954 1541 m 17 Y s 1993 1541 m 17 Y s 2031 1524 m 34 Y s 479 1524 m 34 Y s 440 1541 m 17 Y s 402 1541 m 17 Y s 363 1541 m 17 Y s 2031 1524 m 34 Y s 2070 1541 m 17 Y s
 2109 1541 m 17 Y s 2148 1541 m 17 Y s 363 425 m 1133 Y s
 gsave  2268 1434 0 196 C 205.12 1358.92 t 90 r /Helvetica findfont 65.5714 sf 0 0 m (Events) show NC gr  390 486 m -27 X s 390 521 m -27 X s 390 546 m -27 X s 390 566 m -27 X s 390 582 m -27 X s 390 595 m -27 X s 390 607 m -27 X s 390 617 m -27 X s
 417 626 m -54 X s
 gsave  2268 1434 0 196 C 342.425 597.784 t 0 r  -37 0 t /Helvetica findfont 65.5714 sf 0 0 m (1) show NC gr  390 687 m -27 X s 390 722 m -27 X s 390 747 m -27 X s 390 767 m -27 X s 390 783 m -27 X s 390 796 m -27 X s 390 808 m -27 X s 390 818 m -27
 X s 417 828 m -54 X s
 gsave  2268 1434 0 196 C 342.425 799.067 t 0 r  -74 0 t /Helvetica findfont 65.5714 sf 0 0 m (10) show NC gr  390 888 m -27 X s 390 924 m -27 X s 390 949 m -27 X s 390 968 m -27 X s 390 984 m -27 X s 390 998 m -27 X s 390 1009 m -27 X s 390 1020 m
 -27 X s 417 1029 m -54 X s
 gsave  2268 1434 0 196 C 316.227 1028.45 t 0 r /Helvetica findfont 45.6149 sf 0 0 m (2) show NC gr 
 gsave  2268 1434 0 196 C 245.005 999.96 t 0 r /Helvetica findfont 65.5714 sf 0 0 m (10) show NC gr  390 1089 m -27 X s 390 1125 m -27 X s 390 1150 m -27 X s 390 1170 m -27 X s 390 1185 m -27 X s 390 1199 m -27 X s 390 1211 m -27 X s 390 1221 m -27 X
 s 417 1230 m -54 X s
 gsave  2268 1434 0 196 C 316.227 1230.72 t 0 r /Helvetica findfont 45.6149 sf 0 0 m (3) show NC gr 
 gsave  2268 1434 0 196 C 245.005 1199.38 t 0 r /Helvetica findfont 65.5714 sf 0 0 m (10) show NC gr  390 1291 m -27 X s 390 1326 m -27 X s 390 1351 m -27 X s 390 1371 m -27 X s 390 1387 m -27 X s 390 1400 m -27 X s 390 1412 m -27 X s 390 1422 m -27
 X s 417 1431 m -54 X s
 gsave  2268 1434 0 196 C 316.227 1430.14 t 0 r /Helvetica findfont 45.6149 sf 0 0 m (4) show NC gr 
 gsave  2268 1434 0 196 C 245.005 1401.65 t 0 r /Helvetica findfont 65.5714 sf 0 0 m (10) show NC gr  390 1492 m -27 X s 390 1527 m -27 X s 390 1553 m -27 X s 2154 425 m 1133 Y s 2127 486 m 27 X s 2127 521 m 27 X s 2127 546 m 27 X s 2127 566 m 27 X s
 2127 582 m 27 X s 2127 595 m 27 X s 2127 607 m 27 X s 2127 617 m 27 X s 2101 626 m 53 X s 2127 687 m 27 X s 2127 722 m 27 X s 2127 747 m 27 X s 2127 767 m 27 X s 2127 783 m 27 X s 2127 796 m 27 X s 2127 808 m 27 X s 2127 818 m 27 X s 2101 828 m 53 X
 s 2127 888 m 27 X s 2127 924 m 27 X s 2127 949 m 27 X s 2127 968 m 27 X s 2127 984 m 27 X s 2127 998 m 27 X s 2127 1009 m 27 X s 2127 1020 m 27 X s 2101 1029 m 53 X s 2127 1089 m 27 X s 2127 1125 m 27 X s 2127 1150 m 27 X s 2127 1170 m 27 X s 2127
 1185 m 27 X s 2127 1199 m 27 X s 2127 1211 m 27 X s 2127 1221 m 27 X s 2101 1230 m 53 X s 2127 1291 m 27 X s 2127 1326 m 27 X s 2127 1351 m 27 X s 2127 1371 m 27 X s 2127 1387 m 27 X s 2127 1400 m 27 X s 2127 1412 m 27 X s 2127 1422 m 27 X s 2101
 1431 m 53 X s 2127 1492 m 27 X s 2127 1527 m 27 X s 2127 1553 m 27 X s 1 1 1 c black
 gsave  2268 1434 0 196 C 427.334 1561.19 t 0 r /Helvetica findfont 54.1677 sf 0 0 m (mjj_DataLike_QCDDiJetWithQCDDiJetWithQStar3000_1fb) show NC gr  1 0 0 c 6 lw 1 1 1 c black 1 0 0 c 363 425 m 193 X 904 Y 17 X -12 Y 17 X -13 Y 17 X -13 Y 18 X -12 Y
 18 X -12 Y 18 X -13 Y 18 X -13 Y 19 X -11 Y 19 X -12 Y 20 X -13 Y 20 X -10 Y 20 X -10 Y 20 X -12 Y 21 X -14 Y 22 X -13 Y 21 X -10 Y 23 X -8 Y 22 X -9 Y 23 X -10 Y 23 X -14 Y 24 X -16 Y 24 X -18 Y 24 X -13 Y 25 X -6 Y 25 X -11 Y 26 X -4 Y 26 X -18 Y
 26 X -25 Y 28 X -23 Y 27 X -16 Y 28 X -7 Y 28 X -13 Y 30 X -15 Y 29 X -14 Y 30 X -16 Y 30 X -10 Y 31 X -16 Y 32 X -7 Y 31 X -26 Y 33 X -20 Y 33 X -37 Y 34 X -15 Y 34 X -19 Y 35 X 18 Y 35 X -30 Y 36 X -36 Y 37 X -10 Y 37 X -32 Y 38 X 3 Y 38 X -13 Y
 39 X -48 Y 40 X -157 Y 209 X s 0 0 1 c 1 1 1 c black 0 0 1 c 363 425 m 193 X 904 Y 17 X -12 Y 17 X -13 Y 17 X -13 Y 18 X -12 Y 18 X -12 Y 18 X -13 Y 18 X -13 Y 19 X -11 Y 19 X -12 Y 20 X -13 Y 20 X -10 Y 20 X -10 Y 20 X -12 Y 21 X -14 Y 22 X -13 Y
 21 X -10 Y 23 X -8 Y 22 X -9 Y 23 X -10 Y 23 X -14 Y 24 X -12 Y 24 X -11 Y 24 X -12 Y 25 X -14 Y 25 X -14 Y 26 X -13 Y 26 X -15 Y 26 X -14 Y 28 X -16 Y 27 X -15 Y 28 X -16 Y 28 X -18 Y 30 X -15 Y 29 X -14 Y 30 X -16 Y 30 X -14 Y 31 X -14 Y 32 X -19
 Y 31 X -19 Y 33 X -15 Y 33 X -18 Y 34 X -16 Y 34 X -18 Y 35 X -17 Y 35 X -18 Y 36 X -16 Y 37 X -21 Y 37 X -13 Y 38 X -16 Y 38 X -28 Y 39 X -36 Y 40 X -157 Y 209 X s 0 1 0 c 9 lw 0.95 0.95 0.95 c black 0 1 0 c 488 1389 m 16 -13 d 17 -13 d 17 -13 d 17
 -12 d 16 -13 d 17 -12 d 17 -11 d 17 -12 d 16 -11 d 17 -11 d 17 -12 d 17 -10 d 16 -11 d 17 -10 d 17 -11 d 17 -10 d 16 -10 d 17 -10 d 17 -10 d 17 -9 d 16 -10 d 17 -9 d 17 -10 d 17 -8 d 16 -10 d 17 -8 d 17 -10 d 17 -8 d 16 -9 d 17 -8 d 17 -9 d 17 -8 d
 16 -9 d 17 -8 d 17 -9 d 17 -7 d 16 -9 d 17 -7 d 17 -9 d 17 -7 d 16 -8 d 17 -8 d 17 -8 d 17 -7 d 16 -8 d 17 -7 d 17 -8 d 17 -7 d 16 -8 d s 1308 924 m 17 -7 d 17 -7 d 17 -8 d 16 -7 d 17 -7 d 17 -7 d 17 -7 d 16 -8 d 17 -7 d 17 -7 d 17 -7 d 16 -7 d 17
 -6 d 17 -7 d 17 -7 d 16 -7 d 17 -7 d 17 -7 d 17 -7 d 16 -6 d 17 -7 d 17 -7 d 17 -6 d 16 -7 d 17 -7 d 17 -6 d 17 -7 d 16 -7 d 17 -6 d 17 -7 d 17 -6 d 16 -7 d 17 -7 d 17 -6 d 17 -7 d 16 -6 d 17 -7 d 17 -6 d 17 -7 d 16 -6 d 17 -6 d 17 -7 d 17 -6 d 16
 -7 d 17 -6 d 17 -6 d 17 -7 d 16 -6 d 17 -7 d s 2129 594 m 17 -6 d s black 6 lw 1 1 1 c black 3 lw /w 27 def /w2 {w 2 div} def /w3 {w 3 div} def 369 1497 m20 6 lw 3 lw 383 1485 m20 6 lw 3 lw 397 1472 m20 6 lw 3 lw 411 1457 m20 6 lw 3 lw 425 1446 m20
 6 lw 3 lw 439 1431 m20 6 lw 3 lw 454 1416 m20 6 lw 3 lw 469 1406 m20 6 lw 3 lw 484 1393 m20 6 lw 3 lw 500 1379 m20 6 lw 3 lw 516 1366 m20 6 lw 3 lw 532 1355 m20 6 lw 3 lw 548 1343 m20 6 lw 3 lw 564 1329 m20 6 lw 3 lw 581 1316 m20 6 lw 3 lw 599 1306
 m20 6 lw 3 lw 616 1291 m20 6 lw 3 lw 634 1276 m20 6 lw 3 lw 652 1268 m20 6 lw 3 lw 670 1254 m20 6 lw 3 lw 689 1241 m20 6 lw 3 lw 708 1232 m20 6 lw 3 lw 727 1220 m20 6 lw 3 lw 747 1205 m20 6 lw 3 lw 767 1196 m20 6 lw 3 lw 787 1181 m20 6 lw 3 lw 808
 1167 m20 6 lw 3 lw 829 1163 m20 6 lw 3 lw 851 1150 m20 6 lw 3 lw 873 1140 m20 6 lw 3 lw 895 1127 m20 6 lw 906 1110 m s 929 1110 m s 3 lw 918 1110 m20 6 lw 929 1113 m s 952 1113 m s 3 lw 941 1113 m20 6 lw 952 1097 m 1 X s 975 1097 m 1 X s 3 lw 964
 1097 m20 6 lw 976 1092 m 1 X s 999 1092 m 1 X s 3 lw 988 1092 m20 6 lw 1000 1102 m 1 X s 1024 1102 m s 3 lw 1012 1102 m20 6 lw 1024 1076 m 1 X s 1048 1076 m 1 X s 3 lw 1037 1076 m20 6 lw 1049 1058 m 1 X s 1073 1058 m 1 X s 3 lw 1062 1058 m20 6 lw
 1074 1036 m 2 X s 1099 1036 m 1 X s 3 lw 1087 1036 m20 6 lw 1100 1008 m 2 X s 1124 1008 m 2 X s 3 lw 1113 1008 m20 6 lw 1139 959 m 1 Y s 1126 972 m 2 X s 1151 972 m 1 X s 3 lw 1139 972 m20 6 lw 1166 977 m s 1152 988 m 3 X s 1177 988 m 3 X s 3 lw
 1166 988 m20 6 lw 1193 980 m s 1180 991 m 2 X s 1205 991 m 2 X s 3 lw 1193 991 m20 6 lw 1221 943 m 3 Y s 1221 968 m 1 Y s 1207 957 m 3 X s 1233 957 m 2 X s 3 lw 1221 957 m20 6 lw 1249 909 m 6 Y s 1249 938 m 3 Y s 1235 926 m 3 X s 1261 926 m 2 X s 3
 lw 1249 926 m20 6 lw 1278 926 m 5 Y s 1278 953 m 2 Y s 1263 942 m 4 X s 1289 942 m 4 X s 3 lw 1278 942 m20 6 lw 1307 903 m 6 Y s 1307 932 m 4 Y s 1293 921 m 3 X s 1319 921 m 3 X s 3 lw 1307 921 m20 6 lw 1337 866 m 11 Y s 1337 900 m 6 Y s 1322 888 m
 4 X s 1348 888 m 4 X s 3 lw 1337 888 m20 6 lw 1367 837 m 15 Y s 1367 874 m 9 Y s 1352 863 m 4 X s 1378 863 m 4 X s 3 lw 1367 863 m20 6 lw 1398 884 m 9 Y s 1398 915 m 5 Y s 1382 904 m 4 X s 1409 904 m 4 X s 3 lw 1398 904 m20 6 lw 1429 822 m 17 Y s
 1429 862 m 10 Y s 1413 850 m 5 X s 1440 850 m 5 X s 3 lw 1429 850 m20 6 lw 1461 822 m 17 Y s 1461 862 m 10 Y s 1445 850 m 4 X s 1472 850 m 4 X s 3 lw 1461 850 m20 6 lw 1493 715 m 41 Y s 1493 778 m 21 Y s 1476 767 m 5 X s 1504 767 m 5 X s 3 lw 1493
 767 m20 6 lw 1526 794 m 22 Y s 1526 839 m 13 Y s 1509 828 m 5 X s 1537 828 m 5 X s 3 lw 1526 828 m20 6 lw 1559 770 m 27 Y s 1559 819 m 16 Y s 1542 808 m 6 X s 1570 808 m 6 X s 3 lw 1559 808 m20 6 lw 1593 794 m 22 Y s 1593 839 m 13 Y s 1576 828 m 5 X
 s 1604 828 m 6 X s 3 lw 1593 828 m20 6 lw 1627 687 m 49 Y s 1627 759 m 24 Y s 1610 747 m 6 X s 1639 747 m 6 X s 3 lw 1627 747 m20 6 lw 1698 580 m 95 Y s 1698 698 m 36 Y s 1680 687 m 7 X s 1710 687 m 6 X s 3 lw 1698 687 m20 6 lw 1734 715 m 41 Y s
 1734 778 m 21 Y s 1716 767 m 7 X s 1746 767 m 7 X s 3 lw 1734 767 m20 6 lw 1771 580 m 95 Y s 1771 698 m 36 Y s 1753 687 m 7 X s 1783 687 m 7 X s 3 lw 1771 687 m20 6 lw 1809 425 m 190 Y s 1809 638 m 49 Y s 1790 626 m 7 X s 1820 626 m 8 X s 3 lw 1809
 626 m20 6 lw 1847 647 m 64 Y s 1847 734 m 28 Y s 1828 722 m 7 X s 1858 722 m 8 X s 3 lw 1847 722 m20 6 lw 1925 425 m 190 Y s 1925 638 m 49 Y s 1905 626 m 9 X s 1936 626 m 9 X s 3 lw 1925 626 m20 6 lw 1965 580 m 95 Y s 1965 698 m 36 Y s 1945 687 m 9
 X s 1976 687 m 9 X s 3 lw 1965 687 m20 6 lw 2047 425 m 190 Y s 2047 638 m 49 Y s 2026 626 m 10 X s 2059 626 m 9 X s 3 lw 2047 626 m20 6 lw 3 lw 1 1 1 c 680 287 1361 1056 bf black
 gsave  2268 1434 0 196 C 1529.85 1293.4 t 0 r /Helvetica-Bold findfont 39.913 sf 0 0 m (Data) show NC gr  6 lw 1386 1307 m 119 X s 1446 1285 m 43 Y s 3 lw 1446 1307 m20 6 lw
 gsave  2268 1434 0 196 C 1529.85 1219.32 t 0 r /Helvetica-Bold findfont 39.913 sf 0 0 m (Sideband) show NC gr  1 1 1 c 3 lw 1386 1210 m 119 X 50 Y -119 X f 6 lw 1 0 0 c 1386 1235 m 119 X s black
 gsave  2268 1434 0 196 C 1529.85 1148.1 t 0 r /Helvetica-Bold findfont 39.913 sf 0 0 m (Smoothed Sideband) show NC gr  0 0 1 c 1386 1164 m 119 X s black
 gsave  2268 1434 0 196 C 1529.85 1076.88 t 0 r /Helvetica-Bold findfont 39.913 sf 0 0 m (Global Fit) show NC gr  0 1 0 c 9 lw 1386 1092 m 119 X s 1 1 1 c black
 gsave  2268 1434 0 196 C 427.334 1561.19 t 0 r /Helvetica findfont 54.1677 sf 0 0 m (mjj_DataLike_QCDDiJetWithQCDDiJetWithQStar3000_1fb) show NC gr  3 lw 1 1 1 c 2268 421 0 0 bf black 1 1 1 c 1793 266 361 151 bf black 1793 266 361 151 bl 1 1 1 c
 1793 266 361 151 bf black 1793 266 361 151 bl 1 0 0 c black 1 0 0 c 361 260 m 193 X -3 Y 17 X -5 Y 17 X 32 Y 18 X -32 Y 17 X -27 Y 18 X 39 Y 18 X -4 Y 19 X -2 Y 19 X 11 Y 19 X 6 Y 19 X -15 Y 20 X 6 Y 20 X -32 Y 21 X -13 Y 21 X 64 Y 21 X -5 Y 22 X 3
 Y 22 X -30 Y 23 X -39 Y 23 X 65 Y 23 X -12 Y 24 X 41 Y 24 X 96 Y 24 X -54 Y 25 X -41 Y 25 X -37 Y 26 X -67 Y 26 X -42 Y 26 X 108 Y 28 X 49 Y 27 X -39 Y 28 X -42 Y 28 X 48 Y 30 X -11 Y 29 X -27 Y 30 X -11 Y 30 X 62 Y 31 X -44 Y 32 X 7 Y 32 X -52 Y 32
 X 70 Y 33 X 7 Y 34 X 20 Y 34 X -39 Y 35 X -9 Y 36 X -16 Y 36 X 51 Y 36 X -30 Y 37 X -10 Y 38 X 31 Y 39 X -26 Y 39 X 10 Y 39 X -10 Y 210 X f black 1 0 0 c black 361 260 m 193 X -3 Y 17 X -5 Y 17 X 32 Y 18 X -32 Y 17 X -27 Y 18 X 39 Y 18 X -4 Y 19 X
 -2 Y 19 X 11 Y 19 X 6 Y 19 X -15 Y 20 X 6 Y 20 X -32 Y 21 X -13 Y 21 X 64 Y 21 X -5 Y 22 X 3 Y 22 X -30 Y 23 X -39 Y 23 X 65 Y 23 X -12 Y 24 X 41 Y 24 X 96 Y 24 X -54 Y 25 X -41 Y 25 X -37 Y 26 X -67 Y 26 X -42 Y 26 X 108 Y 28 X 49 Y 27 X -39 Y 28 X
 -42 Y 28 X 48 Y 30 X -11 Y 29 X -27 Y 30 X -11 Y 30 X 62 Y 31 X -44 Y 32 X 7 Y 32 X -52 Y 32 X 70 Y 33 X 7 Y 34 X 20 Y 34 X -39 Y 35 X -9 Y 36 X -16 Y 36 X 51 Y 36 X -30 Y 37 X -10 Y 38 X 31 Y 39 X -26 Y 39 X 10 Y 39 X -10 Y 210 X s 361 151 m 1793 X
 s
 gsave  2268 421 0 0 C 1888.81 28.4889 t 0 r /Helvetica findfont 65.9455 sf 0 0 m (mjj [GeV]) show NC gr  477 161 m -10 Y s 516 156 m -5 Y s 555 156 m -5 Y s 594 156 m -5 Y s 633 156 m -5 Y s 672 161 m -10 Y s 711 156 m -5 Y s 749 156 m -5 Y s 788
 156 m -5 Y s 827 156 m -5 Y s 866 161 m -10 Y s 905 156 m -5 Y s 944 156 m -5 Y s 982 156 m -5 Y s 1021 156 m -5 Y s 1060 161 m -10 Y s 1099 156 m -5 Y s 1138 156 m -5 Y s 1177 156 m -5 Y s 1215 156 m -5 Y s 1254 161 m -10 Y s 1293 156 m -5 Y s 1332
 156 m -5 Y s 1371 156 m -5 Y s 1410 156 m -5 Y s 1448 161 m -10 Y s 1487 156 m -5 Y s 1526 156 m -5 Y s 1565 156 m -5 Y s 1604 156 m -5 Y s 1643 161 m -10 Y s 1682 156 m -5 Y s 1720 156 m -5 Y s 1759 156 m -5 Y s 1798 156 m -5 Y s 1837 161 m -10 Y s
 1876 156 m -5 Y s 1915 156 m -5 Y s 1953 156 m -5 Y s 1992 156 m -5 Y s 2031 161 m -10 Y s 477 161 m -10 Y s 439 156 m -5 Y s 400 156 m -5 Y s 2031 161 m -10 Y s 2070 156 m -5 Y s 2109 156 m -5 Y s 2148 156 m -5 Y s
 gsave  2268 421 0 0 C 410.24 99.7112 t 0 r /Helvetica findfont 60.2112 sf 0 0 m (1500) show NC gr 
 gsave  2268 421 0 0 C 603.965 99.7112 t 0 r /Helvetica findfont 60.2112 sf 0 0 m (2000) show NC gr 
 gsave  2268 421 0 0 C 797.689 99.7112 t 0 r /Helvetica findfont 60.2112 sf 0 0 m (2500) show NC gr 
 gsave  2268 421 0 0 C 994.263 99.7112 t 0 r /Helvetica findfont 60.2112 sf 0 0 m (3000) show NC gr 
 gsave  2268 421 0 0 C 1187.99 99.7112 t 0 r /Helvetica findfont 60.2112 sf 0 0 m (3500) show NC gr 
 gsave  2268 421 0 0 C 1381.71 99.7112 t 0 r /Helvetica findfont 60.2112 sf 0 0 m (4000) show NC gr 
 gsave  2268 421 0 0 C 1575.44 99.7112 t 0 r /Helvetica findfont 60.2112 sf 0 0 m (4500) show NC gr 
 gsave  2268 421 0 0 C 1769.16 99.7112 t 0 r /Helvetica findfont 60.2112 sf 0 0 m (5000) show NC gr 
 gsave  2268 421 0 0 C 1962.89 99.7112 t 0 r /Helvetica findfont 60.2112 sf 0 0 m (5500) show NC gr  361 417 m 1793 X s 477 407 m 10 Y s 516 412 m 5 Y s 555 412 m 5 Y s 594 412 m 5 Y s 633 412 m 5 Y s 672 407 m 10 Y s 711 412 m 5 Y s 749 412 m 5 Y s
 788 412 m 5 Y s 827 412 m 5 Y s 866 407 m 10 Y s 905 412 m 5 Y s 944 412 m 5 Y s 982 412 m 5 Y s 1021 412 m 5 Y s 1060 407 m 10 Y s 1099 412 m 5 Y s 1138 412 m 5 Y s 1177 412 m 5 Y s 1215 412 m 5 Y s 1254 407 m 10 Y s 1293 412 m 5 Y s 1332 412 m 5 Y
 s 1371 412 m 5 Y s 1410 412 m 5 Y s 1448 407 m 10 Y s 1487 412 m 5 Y s 1526 412 m 5 Y s 1565 412 m 5 Y s 1604 412 m 5 Y s 1643 407 m 10 Y s 1682 412 m 5 Y s 1720 412 m 5 Y s 1759 412 m 5 Y s 1798 412 m 5 Y s 1837 407 m 10 Y s 1876 412 m 5 Y s 1915
 412 m 5 Y s 1953 412 m 5 Y s 1992 412 m 5 Y s 2031 407 m 10 Y s 477 407 m 10 Y s 439 412 m 5 Y s 400 412 m 5 Y s 2031 407 m 10 Y s 2070 412 m 5 Y s 2109 412 m 5 Y s 2148 412 m 5 Y s 361 151 m 266 Y s
 gsave  2268 421 0 0 C 159.538 96.8623 t 90 r /Helvetica findfont 60.2112 sf 0 0 m (Significance) show NC gr  404 158 m -43 X s 382 171 m -21 X s 382 184 m -21 X s 382 196 m -21 X s 404 209 m -43 X s 382 222 m -21 X s 382 234 m -21 X s 382 247 m -21
 X s 404 260 m -43 X s 382 272 m -21 X s 382 285 m -21 X s 382 298 m -21 X s 404 311 m -43 X s 382 323 m -21 X s 382 336 m -21 X s 382 349 m -21 X s 404 361 m -43 X s 382 374 m -21 X s 382 387 m -21 X s 382 399 m -21 X s 404 412 m -43 X s 404 158 m
 -43 X s 404 412 m -43 X s
 gsave  2268 421 0 0 C 330.471 145.293 t 0 r /Helvetica findfont 28.672 sf 0 0 m (4) show NC gr 
 gsave  2268 421 0 0 C 313.378 145.293 t 0 r /Symbol findfont 28.672 sf 0 0 m (-) show NC gr 
 gsave  2268 421 0 0 C 330.471 196.573 t 0 r /Helvetica findfont 28.672 sf 0 0 m (2) show NC gr 
 gsave  2268 421 0 0 C 313.378 196.573 t 0 r /Symbol findfont 28.672 sf 0 0 m (-) show NC gr 
 gsave  2268 421 0 0 C 330.471 250.702 t 0 r /Helvetica findfont 28.672 sf 0 0 m (0) show NC gr 
 gsave  2268 421 0 0 C 330.471 296.285 t 0 r /Helvetica findfont 28.672 sf 0 0 m (2) show NC gr 
 gsave  2268 421 0 0 C 330.471 347.565 t 0 r /Helvetica findfont 28.672 sf 0 0 m (4) show NC gr 
 gsave  2268 421 0 0 C 330.471 401.694 t 0 r /Helvetica findfont 28.672 sf 0 0 m (6) show NC gr  2154 151 m 266 Y s 2111 158 m 43 X s 2133 171 m 21 X s 2133 184 m 21 X s 2133 196 m 21 X s 2111 209 m 43 X s 2133 222 m 21 X s 2133 234 m 21 X s 2133 247
 m 21 X s 2111 260 m 43 X s 2133 272 m 21 X s 2133 285 m 21 X s 2133 298 m 21 X s 2111 311 m 43 X s 2133 323 m 21 X s 2133 336 m 21 X s 2133 349 m 21 X s 2111 361 m 43 X s 2133 374 m 21 X s 2133 387 m 21 X s 2133 399 m 21 X s 2111 412 m 43 X s 2111
 158 m 43 X s 2111 412 m 43 X s 0 0 1 c 1 1 1 c black 0 0 1 c 361 260 m 193 X -3 Y 17 X -5 Y 17 X 32 Y 18 X -32 Y 17 X -27 Y 18 X 39 Y 18 X -4 Y 19 X -2 Y 19 X 11 Y 19 X 6 Y 19 X -15 Y 20 X 6 Y 20 X -32 Y 21 X -13 Y 21 X 64 Y 21 X -5 Y 22 X 3 Y 22 X
 -30 Y 23 X -39 Y 23 X 65 Y 23 X -12 Y 24 X 27 Y 24 X 81 Y 24 X -59 Y 25 X -20 Y 25 X -26 Y 26 X -39 Y 26 X -53 Y 26 X 79 Y 28 X 39 Y 27 X -40 Y 28 X -26 Y 28 X 57 Y 30 X -11 Y 29 X -27 Y 30 X -11 Y 30 X 65 Y 31 X -45 Y 32 X 18 Y 32 X -57 Y 32 X 63 Y
 33 X -3 Y 34 X 22 Y 34 X -41 Y 71 X -12 Y 36 X 43 Y 36 X -27 Y 37 X -17 Y 38 X 38 Y 39 X -25 Y 39 X 10 Y 39 X -10 Y 210 X s 0 1 0 c 1 1 1 c black 0 1 0 c 361 260 m 193 X -13 Y 17 X -8 Y 17 X 29 Y 18 X -43 Y 17 X -26 Y 18 X 44 Y 18 X -18 Y 19 X -3 Y
 19 X 24 Y 19 X 6 Y 19 X -22 Y 20 X 22 Y 20 X -19 Y 21 X -15 Y 21 X 56 Y 21 X -9 Y 22 X 15 Y 22 X -8 Y 23 X -24 Y 23 X 67 Y 23 X -17 Y 24 X 23 Y 24 X 79 Y 24 X -58 Y 25 X -23 Y 25 X -32 Y 26 X -42 Y 26 X -59 Y 26 X 73 Y 28 X 34 Y 27 X -45 Y 28 X -33
 Y 28 X 52 Y 30 X -14 Y 29 X -28 Y 30 X -15 Y 30 X 74 Y 31 X -50 Y 32 X 17 Y 32 X -73 Y 32 X 78 Y 33 X -5 Y 34 X 28 Y 34 X -51 Y 35 X 32 Y 36 X -49 Y 36 X 60 Y 36 X -36 Y 37 X -22 Y 38 X 55 Y 39 X -8 Y 39 X -18 Y 39 X 18 Y 210 X s
 gr  gr showpage
end
%%EOF
