%!PS-Adobe-2.0 EPSF-2.0
%%BoundingBox:  0 0 567 407
%%Title: /afs/cern.ch/user/g/gkoren/SideBand/global.eps: Negative Log-Likelihood
%%Creator: ROOT Version 5.34/25
%%CreationDate: Thu Sep 24 16:33:45 2015
%%EndComments
%%BeginProlog
80 dict begin
/s {stroke} def /l {lineto} def /m {moveto} def /t {translate} def
/r {rotate} def /rl {roll}  def /R {repeat} def
/d {rlineto} def /rm {rmoveto} def /gr {grestore} def /f {eofill} def
/c {setrgbcolor} def /black {0 setgray} def /sd {setdash} def
/cl {closepath} def /sf {scalefont setfont} def /lw {setlinewidth} def
/box {m dup 0 exch d exch 0 d 0 exch neg d cl} def
/NC{systemdict begin initclip end}def/C{NC box clip newpath}def
/bl {box s} def /bf {box f} def /Y { 0 exch d} def /X { 0 d} def 
/K {{pop pop 0 moveto} exch kshow} bind def
/ita {/ang 15 def gsave [1 0 ang dup sin exch cos div 1 0 0] concat} def 
/mp {newpath /y exch def /x exch def} def
/side {[w .77 mul w .23 mul] .385 w mul sd w 0 l currentpoint t -144 r} def
/mr {mp x y w2 0 360 arc} def /m24 {mr s} def /m20 {mr f} def
/mb {mp x y w2 add m w2 neg 0 d 0 w neg d w 0 d 0 w d cl} def
/mt {mp x y w2 add m w2 neg w neg d w 0 d cl} def
/m21 {mb f} def /m25 {mb s} def /m22 {mt f} def /m26{mt s} def
/m23 {mp x y w2 sub m w2 w d w neg 0 d cl f} def
/m27 {mp x y w2 add m w3 neg w2 neg d w3 w2 neg d w3 w2 d cl s} def
/m28 {mp x w2 sub y w2 sub w3 add m w3 0 d  0 w3 neg d w3 0 d 0 w3 d w3 0 d  0 w3 d w3 neg 0 d 0 w3 d w3 neg 0 d 0 w3 neg d w3 neg 0 d cl s } def
/m29 {mp gsave x w2 sub y w2 add w3 sub m currentpoint t 4 {side} repeat cl fill gr} def
/m30 {mp gsave x w2 sub y w2 add w3 sub m currentpoint t 4 {side} repeat cl s gr} def
/m31 {mp x y w2 sub m 0 w d x w2 sub y m w 0 d x w2 sub y w2 add m w w neg d x w2 sub y w2 sub m w w d s} def
/m32 {mp x y w2 sub m w2 w d w neg 0 d cl s} def
/m33 {mp x y w2 add m w3 neg w2 neg d w3 w2 neg d w3 w2 d cl f} def
/m34 {mp x w2 sub y w2 sub w3 add m w3 0 d  0 w3 neg d w3 0 d 0 w3 d w3 0 d  0 w3 d w3 neg 0 d 0 w3 d w3 neg 0 d 0 w3 neg d w3 neg 0 d cl f } def
/m2 {mp x y w2 sub m 0 w d x w2 sub y m w 0 d s} def
/m5 {mp x w2 sub y w2 sub m w w d x w2 sub y w2 add m w w neg d s} def
/reEncode {exch findfont dup length dict begin {1 index /FID eq  {pop pop} {def} ifelse } forall /Encoding exch def currentdict end dup /FontName get exch definefont pop } def [/Times-Bold /Times-Italic /Times-BoldItalic /Helvetica /Helvetica-Oblique
 /Helvetica-Bold /Helvetica-BoldOblique /Courier /Courier-Oblique /Courier-Bold /Courier-BoldOblique /Times-Roman /AvantGarde-Book /AvantGarde-BookOblique /AvantGarde-Demi /AvantGarde-DemiOblique /Bookman-Demi /Bookman-DemiItalic /Bookman-Light
 /Bookman-LightItalic /Helvetica-Narrow /Helvetica-Narrow-Bold /Helvetica-Narrow-BoldOblique /Helvetica-Narrow-Oblique /NewCenturySchlbk-Roman /NewCenturySchlbk-Bold /NewCenturySchlbk-BoldItalic /NewCenturySchlbk-Italic /Palatino-Bold
 /Palatino-BoldItalic /Palatino-Italic /Palatino-Roman ] {ISOLatin1Encoding reEncode } forall
%%EndProlog
%%BeginSetup
%%EndSetup
newpath  gsave  .25 .25 scale  gsave  0 0 t black[  ] 0 sd 3 lw 1 1 1 c 2268 1630 0 0 bf black 1 1 1 c 1791 1287 363 261 bf black 1791 1287 363 261 bl 1 1 1 c 1791 1287 363 261 bf black 1791 1287 363 261 bl 6 lw 1 1 0 c black 3 lw 1 1 0 c 363 261 m
 407 X 11 Y 5 X -11 Y 13 X 6 Y 5 X -6 Y 4 X 6 Y 5 X -6 Y 9 X 6 Y 4 X 5 Y 5 X -11 Y 9 X 6 Y 4 X 17 Y 5 X -12 Y 9 X -5 Y 8 X -6 Y 5 X 11 Y 9 X -11 Y 4 X 11 Y 9 X -11 Y 5 X 17 Y 4 X 6 Y 5 X 6 Y 4 X -6 Y 5 X -6 Y 4 X 35 Y 5 X -41 Y 4 X -5 Y 5 X 23 Y 4 X
 17 Y 5 X -6 Y 4 X -11 Y 5 X -6 Y 4 X 17 Y 9 X 35 Y 9 X -40 Y 4 X 17 Y 5 X 17 Y 4 X 53 Y 5 X 11 Y 4 X -11 Y 5 X 35 Y 4 X 11 Y 5 X -23 Y 4 X 12 Y 5 X 34 Y 4 X -40 Y 5 X 23 Y 4 X 52 Y 14 X 47 Y 4 X -23 Y 5 X 58 Y 4 X -47 Y 5 X 82 Y 4 X 34 Y 5 X 12 Y 4
 X -105 Y 4 X 111 Y 5 X 168 Y 4 X -75 Y 5 X 17 Y 4 X 53 Y 5 X -18 Y 4 X 35 Y 5 X 6 Y 4 X -82 Y 5 X 181 Y 4 X -29 Y 5 X 122 Y 4 X -76 Y 5 X 64 Y 4 X -23 Y 5 X 162 Y 4 X -81 Y 5 X 99 Y 4 X -29 Y 5 X 192 Y 4 X -123 Y 5 X 6 Y 4 X 180 Y 4 X -17 Y 5 X -99
 Y 4 X 53 Y 5 X 5 Y 4 X 93 Y 5 X -17 Y 4 X -12 Y 5 X -35 Y 4 X -46 Y 5 X 81 Y 4 X -29 Y 5 X 105 Y 4 X -53 Y 5 X 6 Y 4 X -52 Y 5 X -58 Y 4 X 134 Y 5 X -12 Y 4 X -308 Y 5 X 244 Y 4 X -267 Y 5 X -58 Y 4 X 40 Y 4 X -35 Y 5 X 47 Y 4 X -128 Y 5 X -12 Y 4 X
 -17 Y 5 X -35 Y 4 X 29 Y 5 X -133 Y 4 X 11 Y 5 X -151 Y 4 X 35 Y 5 X 23 Y 4 X -87 Y 5 X -116 Y 4 X -29 Y 5 X 52 Y 4 X -23 Y 5 X 11 Y 4 X -46 Y 5 X -81 Y 4 X 17 Y 5 X -23 Y 4 X -12 Y 5 X -23 Y 4 X -35 Y 4 X -12 Y 5 X -5 Y 4 X -24 Y 5 X 12 Y 4 X 12 Y
 5 X -12 Y 4 X -41 Y 14 X -5 Y 13 X 11 Y 5 X -17 Y 4 X 6 Y 23 X -6 Y 680 X f 6 lw black 1 1 0 c black 363 261 m 407 X 11 Y 5 X -11 Y 13 X 6 Y 5 X -6 Y 4 X 6 Y 5 X -6 Y 9 X 6 Y 4 X 5 Y 5 X -11 Y 9 X 6 Y 4 X 17 Y 5 X -12 Y 9 X -5 Y 8 X -6 Y 5 X 11 Y 9
 X -11 Y 4 X 11 Y 9 X -11 Y 5 X 17 Y 4 X 6 Y 5 X 6 Y 4 X -6 Y 5 X -6 Y 4 X 35 Y 5 X -41 Y 4 X -5 Y 5 X 23 Y 4 X 17 Y 5 X -6 Y 4 X -11 Y 5 X -6 Y 4 X 17 Y 9 X 35 Y 9 X -40 Y 4 X 17 Y 5 X 17 Y 4 X 53 Y 5 X 11 Y 4 X -11 Y 5 X 35 Y 4 X 11 Y 5 X -23 Y 4 X
 12 Y 5 X 34 Y 4 X -40 Y 5 X 23 Y 4 X 52 Y 14 X 47 Y 4 X -23 Y 5 X 58 Y 4 X -47 Y 5 X 82 Y 4 X 34 Y 5 X 12 Y 4 X -105 Y 4 X 111 Y 5 X 168 Y 4 X -75 Y 5 X 17 Y 4 X 53 Y 5 X -18 Y 4 X 35 Y 5 X 6 Y 4 X -82 Y 5 X 181 Y 4 X -29 Y 5 X 122 Y 4 X -76 Y 5 X
 64 Y 4 X -23 Y 5 X 162 Y 4 X -81 Y 5 X 99 Y 4 X -29 Y 5 X 192 Y 4 X -123 Y 5 X 6 Y 4 X 180 Y 4 X -17 Y 5 X -99 Y 4 X 53 Y 5 X 5 Y 4 X 93 Y 5 X -17 Y 4 X -12 Y 5 X -35 Y 4 X -46 Y 5 X 81 Y 4 X -29 Y 5 X 105 Y 4 X -53 Y 5 X 6 Y 4 X -52 Y 5 X -58 Y 4 X
 134 Y 5 X -12 Y 4 X -308 Y 5 X 244 Y 4 X -267 Y 5 X -58 Y 4 X 40 Y 4 X -35 Y 5 X 47 Y 4 X -128 Y 5 X -12 Y 4 X -17 Y 5 X -35 Y 4 X 29 Y 5 X -133 Y 4 X 11 Y 5 X -151 Y 4 X 35 Y 5 X 23 Y 4 X -87 Y 5 X -116 Y 4 X -29 Y 5 X 52 Y 4 X -23 Y 5 X 11 Y 4 X
 -46 Y 5 X -81 Y 4 X 17 Y 5 X -23 Y 4 X -12 Y 5 X -23 Y 4 X -35 Y 4 X -12 Y 5 X -5 Y 4 X -24 Y 5 X 12 Y 4 X 12 Y 5 X -12 Y 4 X -41 Y 14 X -5 Y 13 X 11 Y 5 X -17 Y 4 X 6 Y 23 X -6 Y 680 X s 3 lw 363 261 m 1791 X s 528 299 m -38 Y s 564 280 m -19 Y s
 600 280 m -19 Y s 636 280 m -19 Y s 672 280 m -19 Y s 708 299 m -38 Y s 743 280 m -19 Y s 779 280 m -19 Y s 815 280 m -19 Y s 851 280 m -19 Y s 887 299 m -38 Y s 923 280 m -19 Y s 958 280 m -19 Y s 994 280 m -19 Y s 1030 280 m -19 Y s 1066 299 m -38
 Y s 1102 280 m -19 Y s 1138 280 m -19 Y s 1173 280 m -19 Y s 1209 280 m -19 Y s 1245 299 m -38 Y s 1281 280 m -19 Y s 1317 280 m -19 Y s 1353 280 m -19 Y s 1388 280 m -19 Y s 1424 299 m -38 Y s 1460 280 m -19 Y s 1496 280 m -19 Y s 1532 280 m -19 Y
 s 1568 280 m -19 Y s 1603 299 m -38 Y s 1639 280 m -19 Y s 1675 280 m -19 Y s 1711 280 m -19 Y s 1747 280 m -19 Y s 1782 299 m -38 Y s 1818 280 m -19 Y s 1854 280 m -19 Y s 1890 280 m -19 Y s 1926 280 m -19 Y s 1962 299 m -38 Y s 1997 280 m -19 Y s
 2033 280 m -19 Y s 2069 280 m -19 Y s 2105 280 m -19 Y s 2141 299 m -38 Y s 528 299 m -38 Y s 493 280 m -19 Y s 457 280 m -19 Y s 421 280 m -19 Y s 385 280 m -19 Y s 2141 299 m -38 Y s
 gsave  2268 1630 0 0 C 484.311 188.027 t 0 r /Helvetica findfont 76.92 sf 0 0 m (220) show NC gr 
 gsave  2268 1630 0 0 C 441.578 188.027 t 0 r /Symbol findfont 76.92 sf 0 0 m (-) show NC gr 
 gsave  2268 1630 0 0 C 663.791 188.027 t 0 r /Helvetica findfont 76.92 sf 0 0 m (210) show NC gr 
 gsave  2268 1630 0 0 C 621.058 188.027 t 0 r /Symbol findfont 76.92 sf 0 0 m (-) show NC gr 
 gsave  2268 1630 0 0 C 843.271 188.027 t 0 r /Helvetica findfont 76.92 sf 0 0 m (200) show NC gr 
 gsave  2268 1630 0 0 C 800.538 188.027 t 0 r /Symbol findfont 76.92 sf 0 0 m (-) show NC gr 
 gsave  2268 1630 0 0 C 1022.75 188.027 t 0 r /Helvetica findfont 76.92 sf 0 0 m (190) show NC gr 
 gsave  2268 1630 0 0 C 980.018 188.027 t 0 r /Symbol findfont 76.92 sf 0 0 m (-) show NC gr 
 gsave  2268 1630 0 0 C 1202.23 188.027 t 0 r /Helvetica findfont 76.92 sf 0 0 m (180) show NC gr 
 gsave  2268 1630 0 0 C 1159.5 188.027 t 0 r /Symbol findfont 76.92 sf 0 0 m (-) show NC gr 
 gsave  2268 1630 0 0 C 1378.86 188.027 t 0 r /Helvetica findfont 76.92 sf 0 0 m (170) show NC gr 
 gsave  2268 1630 0 0 C 1336.13 188.027 t 0 r /Symbol findfont 76.92 sf 0 0 m (-) show NC gr 
 gsave  2268 1630 0 0 C 1558.34 188.027 t 0 r /Helvetica findfont 76.92 sf 0 0 m (160) show NC gr 
 gsave  2268 1630 0 0 C 1515.61 188.027 t 0 r /Symbol findfont 76.92 sf 0 0 m (-) show NC gr 
 gsave  2268 1630 0 0 C 1737.82 188.027 t 0 r /Helvetica findfont 76.92 sf 0 0 m (150) show NC gr 
 gsave  2268 1630 0 0 C 1695.09 188.027 t 0 r /Symbol findfont 76.92 sf 0 0 m (-) show NC gr 
 gsave  2268 1630 0 0 C 1917.3 188.027 t 0 r /Helvetica findfont 76.92 sf 0 0 m (140) show NC gr 
 gsave  2268 1630 0 0 C 1874.57 188.027 t 0 r /Symbol findfont 76.92 sf 0 0 m (-) show NC gr 
 gsave  2268 1630 0 0 C 2096.78 188.027 t 0 r /Helvetica findfont 76.92 sf 0 0 m (130) show NC gr 
 gsave  2268 1630 0 0 C 2054.05 188.027 t 0 r /Symbol findfont 76.92 sf 0 0 m (-) show NC gr  363 1548 m 1791 X s 528 1509 m 39 Y s 564 1529 m 19 Y s 600 1529 m 19 Y s 636 1529 m 19 Y s 672 1529 m 19 Y s 708 1509 m 39 Y s 743 1529 m 19 Y s 779 1529 m
 19 Y s 815 1529 m 19 Y s 851 1529 m 19 Y s 887 1509 m 39 Y s 923 1529 m 19 Y s 958 1529 m 19 Y s 994 1529 m 19 Y s 1030 1529 m 19 Y s 1066 1509 m 39 Y s 1102 1529 m 19 Y s 1138 1529 m 19 Y s 1173 1529 m 19 Y s 1209 1529 m 19 Y s 1245 1509 m 39 Y s
 1281 1529 m 19 Y s 1317 1529 m 19 Y s 1353 1529 m 19 Y s 1388 1529 m 19 Y s 1424 1509 m 39 Y s 1460 1529 m 19 Y s 1496 1529 m 19 Y s 1532 1529 m 19 Y s 1568 1529 m 19 Y s 1603 1509 m 39 Y s 1639 1529 m 19 Y s 1675 1529 m 19 Y s 1711 1529 m 19 Y s
 1747 1529 m 19 Y s 1782 1509 m 39 Y s 1818 1529 m 19 Y s 1854 1529 m 19 Y s 1890 1529 m 19 Y s 1926 1529 m 19 Y s 1962 1509 m 39 Y s 1997 1529 m 19 Y s 2033 1529 m 19 Y s 2069 1529 m 19 Y s 2105 1529 m 19 Y s 2141 1509 m 39 Y s 528 1509 m 39 Y s 493
 1529 m 19 Y s 457 1529 m 19 Y s 421 1529 m 19 Y s 385 1529 m 19 Y s 2141 1509 m 39 Y s 363 261 m 1287 Y s 417 261 m -54 X s 390 290 m -27 X s 390 319 m -27 X s 390 348 m -27 X s 417 377 m -54 X s 390 406 m -27 X s 390 435 m -27 X s 390 464 m -27 X s
 417 493 m -54 X s 390 522 m -27 X s 390 551 m -27 X s 390 580 m -27 X s 417 609 m -54 X s 390 638 m -27 X s 390 667 m -27 X s 390 697 m -27 X s 417 726 m -54 X s 390 755 m -27 X s 390 784 m -27 X s 390 813 m -27 X s 417 842 m -54 X s 390 871 m -27 X
 s 390 900 m -27 X s 390 929 m -27 X s 417 958 m -54 X s 390 987 m -27 X s 390 1016 m -27 X s 390 1045 m -27 X s 417 1074 m -54 X s 390 1103 m -27 X s 390 1132 m -27 X s 390 1161 m -27 X s 417 1190 m -54 X s 390 1219 m -27 X s 390 1249 m -27 X s 390
 1278 m -27 X s 417 1307 m -54 X s 390 1336 m -27 X s 390 1365 m -27 X s 390 1394 m -27 X s 417 1423 m -54 X s 390 1452 m -27 X s 390 1481 m -27 X s 390 1510 m -27 X s 417 1539 m -54 X s 417 1539 m -54 X s
 gsave  2268 1630 0 0 C 310.529 233.609 t 0 r /Helvetica findfont 76.92 sf 0 0 m (0) show NC gr 
 gsave  2268 1630 0 0 C 267.796 350.413 t 0 r /Helvetica findfont 76.92 sf 0 0 m (20) show NC gr 
 gsave  2268 1630 0 0 C 267.796 467.218 t 0 r /Helvetica findfont 76.92 sf 0 0 m (40) show NC gr 
 gsave  2268 1630 0 0 C 267.796 581.174 t 0 r /Helvetica findfont 76.92 sf 0 0 m (60) show NC gr 
 gsave  2268 1630 0 0 C 267.796 697.978 t 0 r /Helvetica findfont 76.92 sf 0 0 m (80) show NC gr 
 gsave  2268 1630 0 0 C 225.062 814.783 t 0 r /Helvetica findfont 76.92 sf 0 0 m (100) show NC gr 
 gsave  2268 1630 0 0 C 225.062 931.587 t 0 r /Helvetica findfont 76.92 sf 0 0 m (120) show NC gr 
 gsave  2268 1630 0 0 C 225.062 1048.39 t 0 r /Helvetica findfont 76.92 sf 0 0 m (140) show NC gr 
 gsave  2268 1630 0 0 C 225.062 1162.35 t 0 r /Helvetica findfont 76.92 sf 0 0 m (160) show NC gr 
 gsave  2268 1630 0 0 C 225.062 1279.15 t 0 r /Helvetica findfont 76.92 sf 0 0 m (180) show NC gr 
 gsave  2268 1630 0 0 C 225.062 1395.96 t 0 r /Helvetica findfont 76.92 sf 0 0 m (200) show NC gr 
 gsave  2268 1630 0 0 C 225.062 1512.76 t 0 r /Helvetica findfont 76.92 sf 0 0 m (220) show NC gr  2154 261 m 1287 Y s 2101 261 m 53 X s 2127 290 m 27 X s 2127 319 m 27 X s 2127 348 m 27 X s 2101 377 m 53 X s 2127 406 m 27 X s 2127 435 m 27 X s 2127
 464 m 27 X s 2101 493 m 53 X s 2127 522 m 27 X s 2127 551 m 27 X s 2127 580 m 27 X s 2101 609 m 53 X s 2127 638 m 27 X s 2127 667 m 27 X s 2127 697 m 27 X s 2101 726 m 53 X s 2127 755 m 27 X s 2127 784 m 27 X s 2127 813 m 27 X s 2101 842 m 53 X s
 2127 871 m 27 X s 2127 900 m 27 X s 2127 929 m 27 X s 2101 958 m 53 X s 2127 987 m 27 X s 2127 1016 m 27 X s 2127 1045 m 27 X s 2101 1074 m 53 X s 2127 1103 m 27 X s 2127 1132 m 27 X s 2127 1161 m 27 X s 2101 1190 m 53 X s 2127 1219 m 27 X s 2127
 1249 m 27 X s 2127 1278 m 27 X s 2101 1307 m 53 X s 2127 1336 m 27 X s 2127 1365 m 27 X s 2127 1394 m 27 X s 2101 1423 m 53 X s 2127 1452 m 27 X s 2127 1481 m 27 X s 2127 1510 m 27 X s 2101 1539 m 53 X s 2101 1539 m 53 X s 1 0 0 c 1158 261 m 331 Y s
 1 1 1 c black
 gsave  2268 1630 0 0 C 706.525 1549.8 t 0 r /Helvetica findfont 79.7689 sf 0 0 m (Negative Log\255Likelihood) show NC gr 
 gr  gr showpage
end
%%EOF
