%!PS-Adobe-2.0 EPSF-2.0
%%BoundingBox:  0 0 567 407
%%Title: Plots/NLL_Global_QStar.eps: Negative Log-Likelihood
%%Creator: ROOT Version 6.02/12
%%CreationDate: Thu Sep 17 16:00:20 2015
%%EndComments
%%BeginProlog
80 dict begin
/s {stroke} def /l {lineto} def /m {moveto} def /t {translate} def
/r {rotate} def /rl {roll}  def /R {repeat} def
/d {rlineto} def /rm {rmoveto} def /gr {grestore} def /f {eofill} def
/c {setrgbcolor} def /black {0 setgray} def /sd {setdash} def
/cl {closepath} def /sf {scalefont setfont} def /lw {setlinewidth} def
/box {m dup 0 exch d exch 0 d 0 exch neg d cl} def
/NC{systemdict begin initclip end}def/C{NC box clip newpath}def
/bl {box s} def /bf {gsave box gsave f grestore 1 lw [] 0 sd s grestore} def /Y { 0 exch d} def /X { 0 d} def 
/K {{pop pop 0 moveto} exch kshow} bind def
/ita {/ang 15 def gsave [1 0 ang dup sin exch cos div 1 0 0] concat} def 
/mp {newpath /y exch def /x exch def} def
/side {[w .77 mul w .23 mul] .385 w mul sd w 0 l currentpoint t -144 r} def
/mr {mp x y w2 0 360 arc} def /m24 {mr s} def /m20 {mr f} def
/mb {mp x y w2 add m w2 neg 0 d 0 w neg d w 0 d 0 w d cl} def
/mt {mp x y w2 add m w2 neg w neg d w 0 d cl} def
/m21 {mb f} def /m25 {mb s} def /m22 {mt f} def /m26{mt s} def
/m23 {mp x y w2 sub m w2 w d w neg 0 d cl f} def
/m27 {mp x y w2 add m w3 neg w2 neg d w3 w2 neg d w3 w2 d cl s} def
/m28 {mp x w2 sub y w2 sub w3 add m w3 0 d  0 w3 neg d w3 0 d 0 w3 d w3 0 d  0 w3 d w3 neg 0 d 0 w3 d w3 neg 0 d 0 w3 neg d w3 neg 0 d cl s } def
/m29 {mp gsave x w2 sub y w2 add w3 sub m currentpoint t 4 {side} repeat cl fill gr} def
/m30 {mp gsave x w2 sub y w2 add w3 sub m currentpoint t 4 {side} repeat cl s gr} def
/m31 {mp x y w2 sub m 0 w d x w2 sub y m w 0 d x w2 sub y w2 add m w w neg d x w2 sub y w2 sub m w w d s} def
/m32 {mp x y w2 sub m w2 w d w neg 0 d cl s} def
/m33 {mp x y w2 add m w3 neg w2 neg d w3 w2 neg d w3 w2 d cl f} def
/m34 {mp x w2 sub y w2 sub w3 add m w3 0 d  0 w3 neg d w3 0 d 0 w3 d w3 0 d  0 w3 d w3 neg 0 d 0 w3 d w3 neg 0 d 0 w3 neg d w3 neg 0 d cl f } def
/m2 {mp x y w2 sub m 0 w d x w2 sub y m w 0 d s} def
/m5 {mp x w2 sub y w2 sub m w w d x w2 sub y w2 add m w w neg d s} def
/reEncode {exch findfont dup length dict begin {1 index /FID eq  {pop pop} {def} ifelse } forall /Encoding exch def currentdict end dup /FontName get exch definefont pop } def [/Times-Bold /Times-Italic /Times-BoldItalic /Helvetica /Helvetica-Oblique
 /Helvetica-Bold /Helvetica-BoldOblique /Courier /Courier-Oblique /Courier-Bold /Courier-BoldOblique /Times-Roman /AvantGarde-Book /AvantGarde-BookOblique /AvantGarde-Demi /AvantGarde-DemiOblique /Bookman-Demi /Bookman-DemiItalic /Bookman-Light
 /Bookman-LightItalic /Helvetica-Narrow /Helvetica-Narrow-Bold /Helvetica-Narrow-BoldOblique /Helvetica-Narrow-Oblique /NewCenturySchlbk-Roman /NewCenturySchlbk-Bold /NewCenturySchlbk-BoldItalic /NewCenturySchlbk-Italic /Palatino-Bold
 /Palatino-BoldItalic /Palatino-Italic /Palatino-Roman ] {ISOLatin1Encoding reEncode } forall
%%EndProlog
%%BeginSetup
%%EndSetup
newpath  gsave  .25 .25 scale  gsave  0 0 t black[  ] 0 sd 3 lw 1 1 1 c 2268 1630 0 0 bf black 1 1 1 c 1791 1287 363 261 bf black 1791 1287 363 261 bl 1 1 1 c 1791 1287 363 261 bf black 1791 1287 363 261 bl 6 lw 1 1 0 c black 3 lw 1 1 0 c 363 261 m
 322 X 5 Y 5 X -5 Y 9 X 5 Y 4 X -5 Y 18 X 5 Y 5 X -5 Y 4 X 11 Y 5 X -6 Y 4 X -5 Y 5 X 22 Y 4 X -17 Y 13 X 6 Y 5 X -11 Y 4 X 11 Y 9 X -6 Y 9 X -5 Y 5 X 5 Y 9 X 6 Y 4 X -6 Y 5 X 17 Y 4 X -17 Y 9 X 12 Y 5 X -12 Y 4 X 6 Y 5 X 11 Y 9 X 6 Y 4 X 6 Y 4 X 5 Y
 5 X 6 Y 4 X -6 Y 5 X -5 Y 4 X -12 Y 5 X -5 Y 4 X 39 Y 5 X -22 Y 4 X 28 Y 5 X 17 Y 4 X -17 Y 5 X 62 Y 4 X -40 Y 9 X 68 Y 5 X -56 Y 4 X 28 Y 5 X -6 Y 4 X 51 Y 5 X 6 Y 4 X -17 Y 9 X -34 Y 5 X 192 Y 4 X -17 Y 4 X -28 Y 5 X 56 Y 4 X 23 Y 5 X -6 Y 4 X -34
 Y 5 X 6 Y 4 X 91 Y 5 X -40 Y 4 X 130 Y 5 X 56 Y 4 X -84 Y 5 X 39 Y 4 X 102 Y 5 X -74 Y 4 X -107 Y 5 X 136 Y 4 X 118 Y 5 X 12 Y 4 X 107 Y 5 X -158 Y 4 X 17 Y 5 X 90 Y 4 X 232 Y 4 X -136 Y 5 X 28 Y 4 X 29 Y 5 X -17 Y 4 X -45 Y 5 X 158 Y 4 X 107 Y 5 X
 -90 Y 4 X 5 Y 9 X 170 Y 5 X -74 Y 4 X -33 Y 5 X -97 Y 4 X 119 Y 5 X -28 Y 4 X -45 Y 5 X 192 Y 4 X -125 Y 5 X -67 Y 4 X 67 Y 5 X -79 Y 4 X 40 Y 4 X 51 Y 5 X -147 Y 4 X 147 Y 5 X -12 Y 4 X -220 Y 5 X -90 Y 4 X 51 Y 5 X -46 Y 4 X -73 Y 5 X -34 Y 4 X
 164 Y 5 X -6 Y 4 X -231 Y 5 X -23 Y 4 X 62 Y 5 X -164 Y 4 X 23 Y 5 X -74 Y 4 X 68 Y 5 X -147 Y 4 X 6 Y 5 X -51 Y 4 X -85 Y 4 X 6 Y 9 X -62 Y 5 X 51 Y 4 X -91 Y 5 X 6 Y 4 X -11 Y 5 X -34 Y 4 X 11 Y 5 X -51 Y 4 X -11 Y 5 X 11 Y 4 X 12 Y 5 X -51 Y 4 X
 17 Y 5 X -6 Y 9 X -11 Y 4 X -12 Y 5 X 6 Y 9 X -6 Y 4 X 12 Y 5 X -6 Y 4 X -11 Y 4 X 5 Y 5 X 6 Y 4 X -11 Y 5 X 5 Y 4 X -5 Y 748 X f 6 lw black 1 1 0 c black 363 261 m 322 X 5 Y 5 X -5 Y 9 X 5 Y 4 X -5 Y 18 X 5 Y 5 X -5 Y 4 X 11 Y 5 X -6 Y 4 X -5 Y 5 X
 22 Y 4 X -17 Y 13 X 6 Y 5 X -11 Y 4 X 11 Y 9 X -6 Y 9 X -5 Y 5 X 5 Y 9 X 6 Y 4 X -6 Y 5 X 17 Y 4 X -17 Y 9 X 12 Y 5 X -12 Y 4 X 6 Y 5 X 11 Y 9 X 6 Y 4 X 6 Y 4 X 5 Y 5 X 6 Y 4 X -6 Y 5 X -5 Y 4 X -12 Y 5 X -5 Y 4 X 39 Y 5 X -22 Y 4 X 28 Y 5 X 17 Y 4
 X -17 Y 5 X 62 Y 4 X -40 Y 9 X 68 Y 5 X -56 Y 4 X 28 Y 5 X -6 Y 4 X 51 Y 5 X 6 Y 4 X -17 Y 9 X -34 Y 5 X 192 Y 4 X -17 Y 4 X -28 Y 5 X 56 Y 4 X 23 Y 5 X -6 Y 4 X -34 Y 5 X 6 Y 4 X 91 Y 5 X -40 Y 4 X 130 Y 5 X 56 Y 4 X -84 Y 5 X 39 Y 4 X 102 Y 5 X
 -74 Y 4 X -107 Y 5 X 136 Y 4 X 118 Y 5 X 12 Y 4 X 107 Y 5 X -158 Y 4 X 17 Y 5 X 90 Y 4 X 232 Y 4 X -136 Y 5 X 28 Y 4 X 29 Y 5 X -17 Y 4 X -45 Y 5 X 158 Y 4 X 107 Y 5 X -90 Y 4 X 5 Y 9 X 170 Y 5 X -74 Y 4 X -33 Y 5 X -97 Y 4 X 119 Y 5 X -28 Y 4 X -45
 Y 5 X 192 Y 4 X -125 Y 5 X -67 Y 4 X 67 Y 5 X -79 Y 4 X 40 Y 4 X 51 Y 5 X -147 Y 4 X 147 Y 5 X -12 Y 4 X -220 Y 5 X -90 Y 4 X 51 Y 5 X -46 Y 4 X -73 Y 5 X -34 Y 4 X 164 Y 5 X -6 Y 4 X -231 Y 5 X -23 Y 4 X 62 Y 5 X -164 Y 4 X 23 Y 5 X -74 Y 4 X 68 Y
 5 X -147 Y 4 X 6 Y 5 X -51 Y 4 X -85 Y 4 X 6 Y 9 X -62 Y 5 X 51 Y 4 X -91 Y 5 X 6 Y 4 X -11 Y 5 X -34 Y 4 X 11 Y 5 X -51 Y 4 X -11 Y 5 X 11 Y 4 X 12 Y 5 X -51 Y 4 X 17 Y 5 X -6 Y 9 X -11 Y 4 X -12 Y 5 X 6 Y 9 X -6 Y 4 X 12 Y 5 X -6 Y 4 X -11 Y 4 X 5
 Y 5 X 6 Y 4 X -11 Y 5 X 5 Y 4 X -5 Y 748 X s 3 lw 363 261 m 1791 X s 542 299 m -38 Y s 578 280 m -19 Y s 614 280 m -19 Y s 649 280 m -19 Y s 685 280 m -19 Y s 721 299 m -38 Y s 757 280 m -19 Y s 793 280 m -19 Y s 829 280 m -19 Y s 864 280 m -19 Y s
 900 299 m -38 Y s 936 280 m -19 Y s 972 280 m -19 Y s 1008 280 m -19 Y s 1043 280 m -19 Y s 1079 299 m -38 Y s 1115 280 m -19 Y s 1151 280 m -19 Y s 1187 280 m -19 Y s 1223 280 m -19 Y s 1258 299 m -38 Y s 1294 280 m -19 Y s 1330 280 m -19 Y s 1366
 280 m -19 Y s 1402 280 m -19 Y s 1438 299 m -38 Y s 1473 280 m -19 Y s 1509 280 m -19 Y s 1545 280 m -19 Y s 1581 280 m -19 Y s 1617 299 m -38 Y s 1653 280 m -19 Y s 1688 280 m -19 Y s 1724 280 m -19 Y s 1760 280 m -19 Y s 1796 299 m -38 Y s 1832
 280 m -19 Y s 1868 280 m -19 Y s 1903 280 m -19 Y s 1939 280 m -19 Y s 1975 299 m -38 Y s 2011 280 m -19 Y s 2047 280 m -19 Y s 2083 280 m -19 Y s 2118 280 m -19 Y s 2154 299 m -38 Y s 542 299 m -38 Y s 506 280 m -19 Y s 470 280 m -19 Y s 434 280 m
 -19 Y s 399 280 m -19 Y s 2154 299 m -38 Y s
 gsave  2268 1630 0 0 C 498.556 188.027 t 0 r /Helvetica findfont 76.92 sf 0 0 m (220) show NC gr 
 gsave  2268 1630 0 0 C 455.822 188.027 t 0 r /Symbol findfont 76.92 sf 0 0 m (-) show NC gr 
 gsave  2268 1630 0 0 C 678.036 188.027 t 0 r /Helvetica findfont 76.92 sf 0 0 m (210) show NC gr 
 gsave  2268 1630 0 0 C 635.302 188.027 t 0 r /Symbol findfont 76.92 sf 0 0 m (-) show NC gr 
 gsave  2268 1630 0 0 C 854.667 188.027 t 0 r /Helvetica findfont 76.92 sf 0 0 m (200) show NC gr 
 gsave  2268 1630 0 0 C 811.934 188.027 t 0 r /Symbol findfont 76.92 sf 0 0 m (-) show NC gr 
 gsave  2268 1630 0 0 C 1034.15 188.027 t 0 r /Helvetica findfont 76.92 sf 0 0 m (190) show NC gr 
 gsave  2268 1630 0 0 C 991.414 188.027 t 0 r /Symbol findfont 76.92 sf 0 0 m (-) show NC gr 
 gsave  2268 1630 0 0 C 1213.63 188.027 t 0 r /Helvetica findfont 76.92 sf 0 0 m (180) show NC gr 
 gsave  2268 1630 0 0 C 1170.89 188.027 t 0 r /Symbol findfont 76.92 sf 0 0 m (-) show NC gr 
 gsave  2268 1630 0 0 C 1393.11 188.027 t 0 r /Helvetica findfont 76.92 sf 0 0 m (170) show NC gr 
 gsave  2268 1630 0 0 C 1350.37 188.027 t 0 r /Symbol findfont 76.92 sf 0 0 m (-) show NC gr 
 gsave  2268 1630 0 0 C 1572.59 188.027 t 0 r /Helvetica findfont 76.92 sf 0 0 m (160) show NC gr 
 gsave  2268 1630 0 0 C 1529.85 188.027 t 0 r /Symbol findfont 76.92 sf 0 0 m (-) show NC gr 
 gsave  2268 1630 0 0 C 1752.07 188.027 t 0 r /Helvetica findfont 76.92 sf 0 0 m (150) show NC gr 
 gsave  2268 1630 0 0 C 1709.33 188.027 t 0 r /Symbol findfont 76.92 sf 0 0 m (-) show NC gr 
 gsave  2268 1630 0 0 C 1931.55 188.027 t 0 r /Helvetica findfont 76.92 sf 0 0 m (140) show NC gr 
 gsave  2268 1630 0 0 C 1888.81 188.027 t 0 r /Symbol findfont 76.92 sf 0 0 m (-) show NC gr 
 gsave  2268 1630 0 0 C 2111.03 188.027 t 0 r /Helvetica findfont 76.92 sf 0 0 m (130) show NC gr 
 gsave  2268 1630 0 0 C 2068.29 188.027 t 0 r /Symbol findfont 76.92 sf 0 0 m (-) show NC gr  363 1548 m 1791 X s 542 1509 m 39 Y s 578 1529 m 19 Y s 614 1529 m 19 Y s 649 1529 m 19 Y s 685 1529 m 19 Y s 721 1509 m 39 Y s 757 1529 m 19 Y s 793 1529 m
 19 Y s 829 1529 m 19 Y s 864 1529 m 19 Y s 900 1509 m 39 Y s 936 1529 m 19 Y s 972 1529 m 19 Y s 1008 1529 m 19 Y s 1043 1529 m 19 Y s 1079 1509 m 39 Y s 1115 1529 m 19 Y s 1151 1529 m 19 Y s 1187 1529 m 19 Y s 1223 1529 m 19 Y s 1258 1509 m 39 Y s
 1294 1529 m 19 Y s 1330 1529 m 19 Y s 1366 1529 m 19 Y s 1402 1529 m 19 Y s 1438 1509 m 39 Y s 1473 1529 m 19 Y s 1509 1529 m 19 Y s 1545 1529 m 19 Y s 1581 1529 m 19 Y s 1617 1509 m 39 Y s 1653 1529 m 19 Y s 1688 1529 m 19 Y s 1724 1529 m 19 Y s
 1760 1529 m 19 Y s 1796 1509 m 39 Y s 1832 1529 m 19 Y s 1868 1529 m 19 Y s 1903 1529 m 19 Y s 1939 1529 m 19 Y s 1975 1509 m 39 Y s 2011 1529 m 19 Y s 2047 1529 m 19 Y s 2083 1529 m 19 Y s 2118 1529 m 19 Y s 2154 1509 m 39 Y s 542 1509 m 39 Y s 506
 1529 m 19 Y s 470 1529 m 19 Y s 434 1529 m 19 Y s 399 1529 m 19 Y s 2154 1509 m 39 Y s 363 261 m 1287 Y s 417 261 m -54 X s 390 289 m -27 X s 390 317 m -27 X s 390 345 m -27 X s 417 374 m -54 X s 390 402 m -27 X s 390 430 m -27 X s 390 458 m -27 X s
 417 487 m -54 X s 390 515 m -27 X s 390 543 m -27 X s 390 571 m -27 X s 417 600 m -54 X s 390 628 m -27 X s 390 656 m -27 X s 390 684 m -27 X s 417 713 m -54 X s 390 741 m -27 X s 390 769 m -27 X s 390 797 m -27 X s 417 826 m -54 X s 390 854 m -27 X
 s 390 882 m -27 X s 390 910 m -27 X s 417 939 m -54 X s 390 967 m -27 X s 390 995 m -27 X s 390 1023 m -27 X s 417 1052 m -54 X s 390 1080 m -27 X s 390 1108 m -27 X s 390 1136 m -27 X s 417 1165 m -54 X s 390 1193 m -27 X s 390 1221 m -27 X s 390
 1249 m -27 X s 417 1278 m -54 X s 390 1306 m -27 X s 390 1334 m -27 X s 390 1362 m -27 X s 417 1391 m -54 X s 390 1419 m -27 X s 390 1447 m -27 X s 390 1475 m -27 X s 417 1504 m -54 X s 417 1504 m -54 X s 390 1532 m -27 X s
 gsave  2268 1630 0 0 C 310.529 233.609 t 0 r /Helvetica findfont 76.92 sf 0 0 m (0) show NC gr 
 gsave  2268 1630 0 0 C 267.796 347.565 t 0 r /Helvetica findfont 76.92 sf 0 0 m (20) show NC gr 
 gsave  2268 1630 0 0 C 267.796 458.671 t 0 r /Helvetica findfont 76.92 sf 0 0 m (40) show NC gr 
 gsave  2268 1630 0 0 C 267.796 572.627 t 0 r /Helvetica findfont 76.92 sf 0 0 m (60) show NC gr 
 gsave  2268 1630 0 0 C 267.796 686.583 t 0 r /Helvetica findfont 76.92 sf 0 0 m (80) show NC gr 
 gsave  2268 1630 0 0 C 225.062 797.689 t 0 r /Helvetica findfont 76.92 sf 0 0 m (100) show NC gr 
 gsave  2268 1630 0 0 C 225.062 911.645 t 0 r /Helvetica findfont 76.92 sf 0 0 m (120) show NC gr 
 gsave  2268 1630 0 0 C 225.062 1025.6 t 0 r /Helvetica findfont 76.92 sf 0 0 m (140) show NC gr 
 gsave  2268 1630 0 0 C 225.062 1136.71 t 0 r /Helvetica findfont 76.92 sf 0 0 m (160) show NC gr 
 gsave  2268 1630 0 0 C 225.062 1250.66 t 0 r /Helvetica findfont 76.92 sf 0 0 m (180) show NC gr 
 gsave  2268 1630 0 0 C 225.062 1364.62 t 0 r /Helvetica findfont 76.92 sf 0 0 m (200) show NC gr 
 gsave  2268 1630 0 0 C 225.062 1475.73 t 0 r /Helvetica findfont 76.92 sf 0 0 m (220) show NC gr  2154 261 m 1287 Y s 2101 261 m 53 X s 2127 289 m 27 X s 2127 317 m 27 X s 2127 345 m 27 X s 2101 374 m 53 X s 2127 402 m 27 X s 2127 430 m 27 X s 2127
 458 m 27 X s 2101 487 m 53 X s 2127 515 m 27 X s 2127 543 m 27 X s 2127 571 m 27 X s 2101 600 m 53 X s 2127 628 m 27 X s 2127 656 m 27 X s 2127 684 m 27 X s 2101 713 m 53 X s 2127 741 m 27 X s 2127 769 m 27 X s 2127 797 m 27 X s 2101 826 m 53 X s
 2127 854 m 27 X s 2127 882 m 27 X s 2127 910 m 27 X s 2101 939 m 53 X s 2127 967 m 27 X s 2127 995 m 27 X s 2127 1023 m 27 X s 2101 1052 m 53 X s 2127 1080 m 27 X s 2127 1108 m 27 X s 2127 1136 m 27 X s 2101 1165 m 53 X s 2127 1193 m 27 X s 2127
 1221 m 27 X s 2127 1249 m 27 X s 2101 1278 m 53 X s 2127 1306 m 27 X s 2127 1334 m 27 X s 2127 1362 m 27 X s 2101 1391 m 53 X s 2127 1419 m 27 X s 2127 1447 m 27 X s 2127 1475 m 27 X s 2101 1504 m 53 X s 2101 1504 m 53 X s 2127 1532 m 27 X s 1 0 0 c
 408 261 m 321 Y s 1 1 1 c black
 gsave  2268 1630 0 0 C 706.525 1549.8 t 0 r /Helvetica findfont 79.7689 sf 0 0 m (Negative Log\255Likelihood) show NC gr 
 gr  gr showpage
end
%%EOF
