%!PS-Adobe-2.0 EPSF-2.0
%%BoundingBox:  0 0 567 407
%%Title: Plots/NLL_Sideband_QStar.eps: Negative Log-Likelihood
%%Creator: ROOT Version 6.02/12
%%CreationDate: Thu Sep 17 15:58:39 2015
%%EndComments
%%BeginProlog
80 dict begin
/s {stroke} def /l {lineto} def /m {moveto} def /t {translate} def
/r {rotate} def /rl {roll}  def /R {repeat} def
/d {rlineto} def /rm {rmoveto} def /gr {grestore} def /f {eofill} def
/c {setrgbcolor} def /black {0 setgray} def /sd {setdash} def
/cl {closepath} def /sf {scalefont setfont} def /lw {setlinewidth} def
/box {m dup 0 exch d exch 0 d 0 exch neg d cl} def
/NC{systemdict begin initclip end}def/C{NC box clip newpath}def
/bl {box s} def /bf {gsave box gsave f grestore 1 lw [] 0 sd s grestore} def /Y { 0 exch d} def /X { 0 d} def 
/K {{pop pop 0 moveto} exch kshow} bind def
/ita {/ang 15 def gsave [1 0 ang dup sin exch cos div 1 0 0] concat} def 
/mp {newpath /y exch def /x exch def} def
/side {[w .77 mul w .23 mul] .385 w mul sd w 0 l currentpoint t -144 r} def
/mr {mp x y w2 0 360 arc} def /m24 {mr s} def /m20 {mr f} def
/mb {mp x y w2 add m w2 neg 0 d 0 w neg d w 0 d 0 w d cl} def
/mt {mp x y w2 add m w2 neg w neg d w 0 d cl} def
/m21 {mb f} def /m25 {mb s} def /m22 {mt f} def /m26{mt s} def
/m23 {mp x y w2 sub m w2 w d w neg 0 d cl f} def
/m27 {mp x y w2 add m w3 neg w2 neg d w3 w2 neg d w3 w2 d cl s} def
/m28 {mp x w2 sub y w2 sub w3 add m w3 0 d  0 w3 neg d w3 0 d 0 w3 d w3 0 d  0 w3 d w3 neg 0 d 0 w3 d w3 neg 0 d 0 w3 neg d w3 neg 0 d cl s } def
/m29 {mp gsave x w2 sub y w2 add w3 sub m currentpoint t 4 {side} repeat cl fill gr} def
/m30 {mp gsave x w2 sub y w2 add w3 sub m currentpoint t 4 {side} repeat cl s gr} def
/m31 {mp x y w2 sub m 0 w d x w2 sub y m w 0 d x w2 sub y w2 add m w w neg d x w2 sub y w2 sub m w w d s} def
/m32 {mp x y w2 sub m w2 w d w neg 0 d cl s} def
/m33 {mp x y w2 add m w3 neg w2 neg d w3 w2 neg d w3 w2 d cl f} def
/m34 {mp x w2 sub y w2 sub w3 add m w3 0 d  0 w3 neg d w3 0 d 0 w3 d w3 0 d  0 w3 d w3 neg 0 d 0 w3 d w3 neg 0 d 0 w3 neg d w3 neg 0 d cl f } def
/m2 {mp x y w2 sub m 0 w d x w2 sub y m w 0 d s} def
/m5 {mp x w2 sub y w2 sub m w w d x w2 sub y w2 add m w w neg d s} def
/reEncode {exch findfont dup length dict begin {1 index /FID eq  {pop pop} {def} ifelse } forall /Encoding exch def currentdict end dup /FontName get exch definefont pop } def [/Times-Bold /Times-Italic /Times-BoldItalic /Helvetica /Helvetica-Oblique
 /Helvetica-Bold /Helvetica-BoldOblique /Courier /Courier-Oblique /Courier-Bold /Courier-BoldOblique /Times-Roman /AvantGarde-Book /AvantGarde-BookOblique /AvantGarde-Demi /AvantGarde-DemiOblique /Bookman-Demi /Bookman-DemiItalic /Bookman-Light
 /Bookman-LightItalic /Helvetica-Narrow /Helvetica-Narrow-Bold /Helvetica-Narrow-BoldOblique /Helvetica-Narrow-Oblique /NewCenturySchlbk-Roman /NewCenturySchlbk-Bold /NewCenturySchlbk-BoldItalic /NewCenturySchlbk-Italic /Palatino-Bold
 /Palatino-BoldItalic /Palatino-Italic /Palatino-Roman ] {ISOLatin1Encoding reEncode } forall
%%EndProlog
%%BeginSetup
%%EndSetup
newpath  gsave  .25 .25 scale  gsave  0 0 t black[  ] 0 sd 3 lw 1 1 1 c 2268 1630 0 0 bf black 1 1 1 c 1791 1287 363 261 bf black 1791 1287 363 261 bl 1 1 1 c 1791 1287 363 261 bf black 1791 1287 363 261 bl 6 lw 1 1 0 c black 3 lw 1 1 0 c 363 261 m
 443 X 5 Y 5 X -5 Y 4 X 5 Y 5 X -5 Y 4 X 11 Y 5 X -6 Y 9 X -5 Y 17 X 11 Y 5 X -11 Y 4 X 5 Y 14 X 6 Y 4 X -6 Y 5 X 6 Y 9 X 17 Y 4 X -23 Y 9 X 12 Y 5 X 11 Y 4 X -23 Y 5 X 23 Y 4 X -11 Y 5 X -6 Y 4 X 11 Y 5 X 6 Y 9 X 11 Y 4 X -17 Y 5 X 17 Y 8 X 6 Y 5 X
 28 Y 4 X -23 Y 5 X 39 Y 4 X -22 Y 5 X 39 Y 4 X 6 Y 9 X -6 Y 5 X 6 Y 4 X 39 Y 5 X -39 Y 9 X 5 Y 4 X 84 Y 5 X 23 Y 4 X -6 Y 5 X -39 Y 4 X 45 Y 5 X 100 Y 4 X -50 Y 5 X 11 Y 4 X -22 Y 9 X 5 Y 4 X 79 Y 5 X 84 Y 4 X 22 Y 5 X 23 Y 4 X -56 Y 5 X 16 Y 4 X
 129 Y 5 X 28 Y 4 X -61 Y 5 X -6 Y 4 X 106 Y 5 X 56 Y 4 X 56 Y 5 X 68 Y 4 X -17 Y 5 X -17 Y 4 X 140 Y 5 X -146 Y 4 X 140 Y 5 X -78 Y 4 X 67 Y 4 X -6 Y 5 X 157 Y 4 X -73 Y 5 X 12 Y 4 X 184 Y 5 X -268 Y 4 X 78 Y 5 X 50 Y 4 X 84 Y 5 X 107 Y 4 X -263 Y 5
 X 67 Y 4 X 157 Y 5 X -107 Y 4 X -101 Y 5 X 129 Y 4 X -28 Y 5 X -11 Y 4 X -11 Y 5 X -73 Y 4 X 134 Y 5 X -168 Y 4 X 62 Y 4 X -101 Y 5 X 51 Y 4 X 50 Y 5 X -224 Y 4 X 28 Y 5 X -39 Y 4 X -22 Y 5 X -51 Y 4 X 73 Y 5 X -297 Y 4 X 79 Y 5 X 67 Y 4 X -163 Y 5
 X -33 Y 4 X -11 Y 5 X 5 Y 4 X -11 Y 5 X -50 Y 4 X -107 Y 5 X 34 Y 4 X -11 Y 5 X -79 Y 4 X -61 Y 5 X -6 Y 4 X 6 Y 4 X -28 Y 5 X -39 Y 4 X 16 Y 5 X -28 Y 4 X -11 Y 5 X 11 Y 4 X 6 Y 5 X -28 Y 9 X -22 Y 4 X -6 Y 5 X 6 Y 9 X 11 Y 4 X -28 Y 5 X 11 Y 4 X
 -11 Y 5 X 5 Y 9 X -5 Y 31 X 5 Y 4 X -5 Y 5 X 5 Y 4 X -5 Y 636 X f 6 lw black 1 1 0 c black 363 261 m 443 X 5 Y 5 X -5 Y 4 X 5 Y 5 X -5 Y 4 X 11 Y 5 X -6 Y 9 X -5 Y 17 X 11 Y 5 X -11 Y 4 X 5 Y 14 X 6 Y 4 X -6 Y 5 X 6 Y 9 X 17 Y 4 X -23 Y 9 X 12 Y 5 X
 11 Y 4 X -23 Y 5 X 23 Y 4 X -11 Y 5 X -6 Y 4 X 11 Y 5 X 6 Y 9 X 11 Y 4 X -17 Y 5 X 17 Y 8 X 6 Y 5 X 28 Y 4 X -23 Y 5 X 39 Y 4 X -22 Y 5 X 39 Y 4 X 6 Y 9 X -6 Y 5 X 6 Y 4 X 39 Y 5 X -39 Y 9 X 5 Y 4 X 84 Y 5 X 23 Y 4 X -6 Y 5 X -39 Y 4 X 45 Y 5 X 100
 Y 4 X -50 Y 5 X 11 Y 4 X -22 Y 9 X 5 Y 4 X 79 Y 5 X 84 Y 4 X 22 Y 5 X 23 Y 4 X -56 Y 5 X 16 Y 4 X 129 Y 5 X 28 Y 4 X -61 Y 5 X -6 Y 4 X 106 Y 5 X 56 Y 4 X 56 Y 5 X 68 Y 4 X -17 Y 5 X -17 Y 4 X 140 Y 5 X -146 Y 4 X 140 Y 5 X -78 Y 4 X 67 Y 4 X -6 Y 5
 X 157 Y 4 X -73 Y 5 X 12 Y 4 X 184 Y 5 X -268 Y 4 X 78 Y 5 X 50 Y 4 X 84 Y 5 X 107 Y 4 X -263 Y 5 X 67 Y 4 X 157 Y 5 X -107 Y 4 X -101 Y 5 X 129 Y 4 X -28 Y 5 X -11 Y 4 X -11 Y 5 X -73 Y 4 X 134 Y 5 X -168 Y 4 X 62 Y 4 X -101 Y 5 X 51 Y 4 X 50 Y 5 X
 -224 Y 4 X 28 Y 5 X -39 Y 4 X -22 Y 5 X -51 Y 4 X 73 Y 5 X -297 Y 4 X 79 Y 5 X 67 Y 4 X -163 Y 5 X -33 Y 4 X -11 Y 5 X 5 Y 4 X -11 Y 5 X -50 Y 4 X -107 Y 5 X 34 Y 4 X -11 Y 5 X -79 Y 4 X -61 Y 5 X -6 Y 4 X 6 Y 4 X -28 Y 5 X -39 Y 4 X 16 Y 5 X -28 Y
 4 X -11 Y 5 X 11 Y 4 X 6 Y 5 X -28 Y 9 X -22 Y 4 X -6 Y 5 X 6 Y 9 X 11 Y 4 X -28 Y 5 X 11 Y 4 X -11 Y 5 X 5 Y 9 X -5 Y 31 X 5 Y 4 X -5 Y 5 X 5 Y 4 X -5 Y 636 X s 3 lw 363 261 m 1791 X s 366 299 m -38 Y s 402 280 m -19 Y s 438 280 m -19 Y s 474 280 m
 -19 Y s 509 280 m -19 Y s 545 299 m -38 Y s 581 280 m -19 Y s 617 280 m -19 Y s 653 280 m -19 Y s 689 280 m -19 Y s 724 299 m -38 Y s 760 280 m -19 Y s 796 280 m -19 Y s 832 280 m -19 Y s 868 280 m -19 Y s 904 299 m -38 Y s 939 280 m -19 Y s 975 280
 m -19 Y s 1011 280 m -19 Y s 1047 280 m -19 Y s 1083 299 m -38 Y s 1119 280 m -19 Y s 1154 280 m -19 Y s 1190 280 m -19 Y s 1226 280 m -19 Y s 1262 299 m -38 Y s 1298 280 m -19 Y s 1334 280 m -19 Y s 1369 280 m -19 Y s 1405 280 m -19 Y s 1441 299 m
 -38 Y s 1477 280 m -19 Y s 1513 280 m -19 Y s 1549 280 m -19 Y s 1584 280 m -19 Y s 1620 299 m -38 Y s 1656 280 m -19 Y s 1692 280 m -19 Y s 1728 280 m -19 Y s 1764 280 m -19 Y s 1799 299 m -38 Y s 1835 280 m -19 Y s 1871 280 m -19 Y s 1907 280 m
 -19 Y s 1943 280 m -19 Y s 1979 299 m -38 Y s 366 299 m -38 Y s 1979 299 m -38 Y s 2014 280 m -19 Y s 2050 280 m -19 Y s 2086 280 m -19 Y s 2122 280 m -19 Y s
 gsave  2268 1630 0 0 C 321.925 188.027 t 0 r /Helvetica findfont 76.92 sf 0 0 m (230) show NC gr 
 gsave  2268 1630 0 0 C 279.191 188.027 t 0 r /Symbol findfont 76.92 sf 0 0 m (-) show NC gr 
 gsave  2268 1630 0 0 C 501.405 188.027 t 0 r /Helvetica findfont 76.92 sf 0 0 m (220) show NC gr 
 gsave  2268 1630 0 0 C 458.671 188.027 t 0 r /Symbol findfont 76.92 sf 0 0 m (-) show NC gr 
 gsave  2268 1630 0 0 C 680.885 188.027 t 0 r /Helvetica findfont 76.92 sf 0 0 m (210) show NC gr 
 gsave  2268 1630 0 0 C 638.151 188.027 t 0 r /Symbol findfont 76.92 sf 0 0 m (-) show NC gr 
 gsave  2268 1630 0 0 C 860.365 188.027 t 0 r /Helvetica findfont 76.92 sf 0 0 m (200) show NC gr 
 gsave  2268 1630 0 0 C 817.631 188.027 t 0 r /Symbol findfont 76.92 sf 0 0 m (-) show NC gr 
 gsave  2268 1630 0 0 C 1039.84 188.027 t 0 r /Helvetica findfont 76.92 sf 0 0 m (190) show NC gr 
 gsave  2268 1630 0 0 C 997.112 188.027 t 0 r /Symbol findfont 76.92 sf 0 0 m (-) show NC gr 
 gsave  2268 1630 0 0 C 1216.48 188.027 t 0 r /Helvetica findfont 76.92 sf 0 0 m (180) show NC gr 
 gsave  2268 1630 0 0 C 1173.74 188.027 t 0 r /Symbol findfont 76.92 sf 0 0 m (-) show NC gr 
 gsave  2268 1630 0 0 C 1395.96 188.027 t 0 r /Helvetica findfont 76.92 sf 0 0 m (170) show NC gr 
 gsave  2268 1630 0 0 C 1353.22 188.027 t 0 r /Symbol findfont 76.92 sf 0 0 m (-) show NC gr 
 gsave  2268 1630 0 0 C 1575.44 188.027 t 0 r /Helvetica findfont 76.92 sf 0 0 m (160) show NC gr 
 gsave  2268 1630 0 0 C 1532.7 188.027 t 0 r /Symbol findfont 76.92 sf 0 0 m (-) show NC gr 
 gsave  2268 1630 0 0 C 1754.92 188.027 t 0 r /Helvetica findfont 76.92 sf 0 0 m (150) show NC gr 
 gsave  2268 1630 0 0 C 1712.18 188.027 t 0 r /Symbol findfont 76.92 sf 0 0 m (-) show NC gr 
 gsave  2268 1630 0 0 C 1934.4 188.027 t 0 r /Helvetica findfont 76.92 sf 0 0 m (140) show NC gr 
 gsave  2268 1630 0 0 C 1891.66 188.027 t 0 r /Symbol findfont 76.92 sf 0 0 m (-) show NC gr  363 1548 m 1791 X s 366 1509 m 39 Y s 402 1529 m 19 Y s 438 1529 m 19 Y s 474 1529 m 19 Y s 509 1529 m 19 Y s 545 1509 m 39 Y s 581 1529 m 19 Y s 617 1529 m
 19 Y s 653 1529 m 19 Y s 689 1529 m 19 Y s 724 1509 m 39 Y s 760 1529 m 19 Y s 796 1529 m 19 Y s 832 1529 m 19 Y s 868 1529 m 19 Y s 904 1509 m 39 Y s 939 1529 m 19 Y s 975 1529 m 19 Y s 1011 1529 m 19 Y s 1047 1529 m 19 Y s 1083 1509 m 39 Y s 1119
 1529 m 19 Y s 1154 1529 m 19 Y s 1190 1529 m 19 Y s 1226 1529 m 19 Y s 1262 1509 m 39 Y s 1298 1529 m 19 Y s 1334 1529 m 19 Y s 1369 1529 m 19 Y s 1405 1529 m 19 Y s 1441 1509 m 39 Y s 1477 1529 m 19 Y s 1513 1529 m 19 Y s 1549 1529 m 19 Y s 1584
 1529 m 19 Y s 1620 1509 m 39 Y s 1656 1529 m 19 Y s 1692 1529 m 19 Y s 1728 1529 m 19 Y s 1764 1529 m 19 Y s 1799 1509 m 39 Y s 1835 1529 m 19 Y s 1871 1529 m 19 Y s 1907 1529 m 19 Y s 1943 1529 m 19 Y s 1979 1509 m 39 Y s 366 1509 m 39 Y s 1979
 1509 m 39 Y s 2014 1529 m 19 Y s 2050 1529 m 19 Y s 2086 1529 m 19 Y s 2122 1529 m 19 Y s 363 261 m 1287 Y s 417 261 m -54 X s 390 289 m -27 X s 390 317 m -27 X s 390 345 m -27 X s 417 373 m -54 X s 390 401 m -27 X s 390 429 m -27 X s 390 457 m -27
 X s 417 485 m -54 X s 390 513 m -27 X s 390 541 m -27 X s 390 569 m -27 X s 417 597 m -54 X s 390 625 m -27 X s 390 653 m -27 X s 390 681 m -27 X s 417 709 m -54 X s 390 737 m -27 X s 390 765 m -27 X s 390 793 m -27 X s 417 821 m -54 X s 390 849 m
 -27 X s 390 877 m -27 X s 390 905 m -27 X s 417 933 m -54 X s 390 961 m -27 X s 390 989 m -27 X s 390 1017 m -27 X s 417 1045 m -54 X s 390 1073 m -27 X s 390 1100 m -27 X s 390 1128 m -27 X s 417 1156 m -54 X s 390 1184 m -27 X s 390 1212 m -27 X s
 390 1240 m -27 X s 417 1268 m -54 X s 390 1296 m -27 X s 390 1324 m -27 X s 390 1352 m -27 X s 417 1380 m -54 X s 390 1408 m -27 X s 390 1436 m -27 X s 390 1464 m -27 X s 417 1492 m -54 X s 417 1492 m -54 X s 390 1520 m -27 X s
 gsave  2268 1630 0 0 C 310.529 233.609 t 0 r /Helvetica findfont 76.92 sf 0 0 m (0) show NC gr 
 gsave  2268 1630 0 0 C 267.796 344.716 t 0 r /Helvetica findfont 76.92 sf 0 0 m (20) show NC gr 
 gsave  2268 1630 0 0 C 267.796 458.671 t 0 r /Helvetica findfont 76.92 sf 0 0 m (40) show NC gr 
 gsave  2268 1630 0 0 C 267.796 569.778 t 0 r /Helvetica findfont 76.92 sf 0 0 m (60) show NC gr 
 gsave  2268 1630 0 0 C 267.796 680.885 t 0 r /Helvetica findfont 76.92 sf 0 0 m (80) show NC gr 
 gsave  2268 1630 0 0 C 225.062 794.84 t 0 r /Helvetica findfont 76.92 sf 0 0 m (100) show NC gr 
 gsave  2268 1630 0 0 C 225.062 905.947 t 0 r /Helvetica findfont 76.92 sf 0 0 m (120) show NC gr 
 gsave  2268 1630 0 0 C 225.062 1017.05 t 0 r /Helvetica findfont 76.92 sf 0 0 m (140) show NC gr 
 gsave  2268 1630 0 0 C 225.062 1128.16 t 0 r /Helvetica findfont 76.92 sf 0 0 m (160) show NC gr 
 gsave  2268 1630 0 0 C 225.062 1242.12 t 0 r /Helvetica findfont 76.92 sf 0 0 m (180) show NC gr 
 gsave  2268 1630 0 0 C 225.062 1353.22 t 0 r /Helvetica findfont 76.92 sf 0 0 m (200) show NC gr 
 gsave  2268 1630 0 0 C 225.062 1464.33 t 0 r /Helvetica findfont 76.92 sf 0 0 m (220) show NC gr  2154 261 m 1287 Y s 2101 261 m 53 X s 2127 289 m 27 X s 2127 317 m 27 X s 2127 345 m 27 X s 2101 373 m 53 X s 2127 401 m 27 X s 2127 429 m 27 X s 2127
 457 m 27 X s 2101 485 m 53 X s 2127 513 m 27 X s 2127 541 m 27 X s 2127 569 m 27 X s 2101 597 m 53 X s 2127 625 m 27 X s 2127 653 m 27 X s 2127 681 m 27 X s 2101 709 m 53 X s 2127 737 m 27 X s 2127 765 m 27 X s 2127 793 m 27 X s 2101 821 m 53 X s
 2127 849 m 27 X s 2127 877 m 27 X s 2127 905 m 27 X s 2101 933 m 53 X s 2127 961 m 27 X s 2127 989 m 27 X s 2127 1017 m 27 X s 2101 1045 m 53 X s 2127 1073 m 27 X s 2127 1100 m 27 X s 2127 1128 m 27 X s 2101 1156 m 53 X s 2127 1184 m 27 X s 2127
 1212 m 27 X s 2127 1240 m 27 X s 2101 1268 m 53 X s 2127 1296 m 27 X s 2127 1324 m 27 X s 2127 1352 m 27 X s 2101 1380 m 53 X s 2127 1408 m 27 X s 2127 1436 m 27 X s 2127 1464 m 27 X s 2101 1492 m 53 X s 2101 1492 m 53 X s 2127 1520 m 27 X s 1 0 0 c
 435 261 m 319 Y s 1 1 1 c black
 gsave  2268 1630 0 0 C 706.525 1549.8 t 0 r /Helvetica findfont 79.7689 sf 0 0 m (Negative Log\255Likelihood) show NC gr 
 gr  gr showpage
end
%%EOF
