%!PS-Adobe-2.0 EPSF-2.0
%%BoundingBox:  0 0 567 407
%%Title: /afs/cern.ch/user/g/gkoren/DijetAlgo/trunk/TLA/Plots/pvalues_QS3000.eps: p-values
%%Creator: ROOT Version 6.02/12
%%CreationDate: Fri Sep 18 12:23:00 2015
%%EndComments
%%BeginProlog
80 dict begin
/s {stroke} def /l {lineto} def /m {moveto} def /t {translate} def
/r {rotate} def /rl {roll}  def /R {repeat} def
/d {rlineto} def /rm {rmoveto} def /gr {grestore} def /f {eofill} def
/c {setrgbcolor} def /black {0 setgray} def /sd {setdash} def
/cl {closepath} def /sf {scalefont setfont} def /lw {setlinewidth} def
/box {m dup 0 exch d exch 0 d 0 exch neg d cl} def
/NC{systemdict begin initclip end}def/C{NC box clip newpath}def
/bl {box s} def /bf {gsave box gsave f grestore 1 lw [] 0 sd s grestore} def /Y { 0 exch d} def /X { 0 d} def 
/K {{pop pop 0 moveto} exch kshow} bind def
/ita {/ang 15 def gsave [1 0 ang dup sin exch cos div 1 0 0] concat} def 
/mp {newpath /y exch def /x exch def} def
/side {[w .77 mul w .23 mul] .385 w mul sd w 0 l currentpoint t -144 r} def
/mr {mp x y w2 0 360 arc} def /m24 {mr s} def /m20 {mr f} def
/mb {mp x y w2 add m w2 neg 0 d 0 w neg d w 0 d 0 w d cl} def
/mt {mp x y w2 add m w2 neg w neg d w 0 d cl} def
/m21 {mb f} def /m25 {mb s} def /m22 {mt f} def /m26{mt s} def
/m23 {mp x y w2 sub m w2 w d w neg 0 d cl f} def
/m27 {mp x y w2 add m w3 neg w2 neg d w3 w2 neg d w3 w2 d cl s} def
/m28 {mp x w2 sub y w2 sub w3 add m w3 0 d  0 w3 neg d w3 0 d 0 w3 d w3 0 d  0 w3 d w3 neg 0 d 0 w3 d w3 neg 0 d 0 w3 neg d w3 neg 0 d cl s } def
/m29 {mp gsave x w2 sub y w2 add w3 sub m currentpoint t 4 {side} repeat cl fill gr} def
/m30 {mp gsave x w2 sub y w2 add w3 sub m currentpoint t 4 {side} repeat cl s gr} def
/m31 {mp x y w2 sub m 0 w d x w2 sub y m w 0 d x w2 sub y w2 add m w w neg d x w2 sub y w2 sub m w w d s} def
/m32 {mp x y w2 sub m w2 w d w neg 0 d cl s} def
/m33 {mp x y w2 add m w3 neg w2 neg d w3 w2 neg d w3 w2 d cl f} def
/m34 {mp x w2 sub y w2 sub w3 add m w3 0 d  0 w3 neg d w3 0 d 0 w3 d w3 0 d  0 w3 d w3 neg 0 d 0 w3 d w3 neg 0 d 0 w3 neg d w3 neg 0 d cl f } def
/m2 {mp x y w2 sub m 0 w d x w2 sub y m w 0 d s} def
/m5 {mp x w2 sub y w2 sub m w w d x w2 sub y w2 add m w w neg d s} def
/reEncode {exch findfont dup length dict begin {1 index /FID eq  {pop pop} {def} ifelse } forall /Encoding exch def currentdict end dup /FontName get exch definefont pop } def [/Times-Bold /Times-Italic /Times-BoldItalic /Helvetica /Helvetica-Oblique
 /Helvetica-Bold /Helvetica-BoldOblique /Courier /Courier-Oblique /Courier-Bold /Courier-BoldOblique /Times-Roman /AvantGarde-Book /AvantGarde-BookOblique /AvantGarde-Demi /AvantGarde-DemiOblique /Bookman-Demi /Bookman-DemiItalic /Bookman-Light
 /Bookman-LightItalic /Helvetica-Narrow /Helvetica-Narrow-Bold /Helvetica-Narrow-BoldOblique /Helvetica-Narrow-Oblique /NewCenturySchlbk-Roman /NewCenturySchlbk-Bold /NewCenturySchlbk-BoldItalic /NewCenturySchlbk-Italic /Palatino-Bold
 /Palatino-BoldItalic /Palatino-Italic /Palatino-Roman ] {ISOLatin1Encoding reEncode } forall
%%EndProlog
%%BeginSetup
%%EndSetup
newpath  gsave  .25 .25 scale  gsave  0 0 t black[  ] 0 sd 3 lw 1 1 1 c 2268 1630 0 0 bf black 1 1 1 c 1791 1287 363 261 bf black 1791 1287 363 261 bl 1 1 1 c 1791 1287 363 261 bf black 1791 1287 363 261 bl 363 261 m 1791 X s
 gsave  2268 1630 0 0 C 1883.12 153.84 t 0 r /Helvetica findfont 54.1289 sf 0 0 m ( m\(jj\) [GeV]) show NC gr  374 299 m -38 Y s 422 280 m -19 Y s 470 280 m -19 Y s 519 280 m -19 Y s 567 280 m -19 Y s 615 299 m -38 Y s 663 280 m -19 Y s 712 280 m -19
 Y s 760 280 m -19 Y s 808 280 m -19 Y s 856 299 m -38 Y s 905 280 m -19 Y s 953 280 m -19 Y s 1001 280 m -19 Y s 1049 280 m -19 Y s 1098 299 m -38 Y s 1146 280 m -19 Y s 1194 280 m -19 Y s 1242 280 m -19 Y s 1291 280 m -19 Y s 1339 299 m -38 Y s
 1387 280 m -19 Y s 1435 280 m -19 Y s 1484 280 m -19 Y s 1532 280 m -19 Y s 1580 299 m -38 Y s 1628 280 m -19 Y s 1676 280 m -19 Y s 1725 280 m -19 Y s 1773 280 m -19 Y s 1821 299 m -38 Y s 1869 280 m -19 Y s 1918 280 m -19 Y s 1966 280 m -19 Y s
 2014 280 m -19 Y s 2062 299 m -38 Y s 374 299 m -38 Y s 2062 299 m -38 Y s 2111 280 m -19 Y s
 gsave  2268 1630 0 0 C 313.378 207.969 t 0 r /Helvetica findfont 54.1289 sf 0 0 m (1500) show NC gr 
 gsave  2268 1630 0 0 C 552.685 207.969 t 0 r /Helvetica findfont 54.1289 sf 0 0 m (2000) show NC gr 
 gsave  2268 1630 0 0 C 794.84 207.969 t 0 r /Helvetica findfont 54.1289 sf 0 0 m (2500) show NC gr 
 gsave  2268 1630 0 0 C 1037 207.969 t 0 r /Helvetica findfont 54.1289 sf 0 0 m (3000) show NC gr 
 gsave  2268 1630 0 0 C 1276.3 207.969 t 0 r /Helvetica findfont 54.1289 sf 0 0 m (3500) show NC gr 
 gsave  2268 1630 0 0 C 1518.46 207.969 t 0 r /Helvetica findfont 54.1289 sf 0 0 m (4000) show NC gr 
 gsave  2268 1630 0 0 C 1760.61 207.969 t 0 r /Helvetica findfont 54.1289 sf 0 0 m (4500) show NC gr 
 gsave  2268 1630 0 0 C 1999.92 207.969 t 0 r /Helvetica findfont 54.1289 sf 0 0 m (5000) show NC gr  363 1548 m 1791 X s 374 1509 m 39 Y s 422 1529 m 19 Y s 470 1529 m 19 Y s 519 1529 m 19 Y s 567 1529 m 19 Y s 615 1509 m 39 Y s 663 1529 m 19 Y s
 712 1529 m 19 Y s 760 1529 m 19 Y s 808 1529 m 19 Y s 856 1509 m 39 Y s 905 1529 m 19 Y s 953 1529 m 19 Y s 1001 1529 m 19 Y s 1049 1529 m 19 Y s 1098 1509 m 39 Y s 1146 1529 m 19 Y s 1194 1529 m 19 Y s 1242 1529 m 19 Y s 1291 1529 m 19 Y s 1339
 1509 m 39 Y s 1387 1529 m 19 Y s 1435 1529 m 19 Y s 1484 1529 m 19 Y s 1532 1529 m 19 Y s 1580 1509 m 39 Y s 1628 1529 m 19 Y s 1676 1529 m 19 Y s 1725 1529 m 19 Y s 1773 1529 m 19 Y s 1821 1509 m 39 Y s 1869 1529 m 19 Y s 1918 1529 m 19 Y s 1966
 1529 m 19 Y s 2014 1529 m 19 Y s 2062 1509 m 39 Y s 374 1509 m 39 Y s 2062 1509 m 39 Y s 2111 1529 m 19 Y s 363 261 m 1287 Y s
 gsave  2268 1630 0 0 C 247.853 1358.92 t 90 r /Helvetica findfont 54.1289 sf 0 0 m ( p\255value) show NC gr  390 287 m -27 X s 390 321 m -27 X s 390 350 m -27 X s 417 377 m -54 X s
 gsave  2268 1630 0 0 C 324.773 378.902 t 0 r /Helvetica findfont 34.1867 sf 0 0 m (2) show NC gr 
 gsave  2268 1630 0 0 C 304.831 378.902 t 0 r /Symbol findfont 34.1867 sf 0 0 m (-) show NC gr 
 gsave  2268 1630 0 0 C 245.005 353.262 t 0 r /Helvetica findfont 54.1289 sf 0 0 m (10) show NC gr  390 551 m -27 X s 390 653 m -27 X s 390 725 m -27 X s 390 781 m -27 X s 390 827 m -27 X s 390 866 m -27 X s 390 899 m -27 X s 390 929 m -27 X s 417
 955 m -54 X s
 gsave  2268 1630 0 0 C 330.471 957.227 t 0 r /Helvetica findfont 34.1867 sf 0 0 m (1) show NC gr 
 gsave  2268 1630 0 0 C 310.529 957.227 t 0 r /Symbol findfont 34.1867 sf 0 0 m (-) show NC gr 
 gsave  2268 1630 0 0 C 250.702 931.587 t 0 r /Helvetica findfont 54.1289 sf 0 0 m (10) show NC gr  390 1129 m -27 X s 390 1231 m -27 X s 390 1304 m -27 X s 390 1360 m -27 X s 390 1405 m -27 X s 390 1444 m -27 X s 390 1478 m -27 X s 390 1507 m -27 X
 s 417 1534 m -54 X s
 gsave  2268 1630 0 0 C 345.146 1510.99 t 0 r  -29 0 t /Helvetica findfont 54.1289 sf 0 0 m (1) show NC gr  2154 261 m 1287 Y s 2127 287 m 27 X s 2127 321 m 27 X s 2127 350 m 27 X s 2101 377 m 53 X s 2127 551 m 27 X s 2127 653 m 27 X s 2127 725 m 27
 X s 2127 781 m 27 X s 2127 827 m 27 X s 2127 866 m 27 X s 2127 899 m 27 X s 2127 929 m 27 X s 2101 955 m 53 X s 2127 1129 m 27 X s 2127 1231 m 27 X s 2127 1304 m 27 X s 2127 1360 m 27 X s 2127 1405 m 27 X s 2127 1444 m 27 X s 2127 1478 m 27 X s 2127
 1507 m 27 X s 2101 1534 m 53 X s 0 1 0 c 9 lw black 0 1 0 c 512 1251 m 22 -120 d 22 -37 d 22 -45 d 23 228 d 23 10 d 23 -20 d 24 -81 d 24 41 d 25 51 d 25 -43 d 25 26 d 27 36 d 26 -127 d 27 3 d 28 5 d 28 346 d 28 -355 d 29 -659 d 29 850 d 30 -1 d 62 X
 31 1 d 32 -1073 d 32 706 d 33 237 d 34 3 d 34 216 d 35 -158 d 35 18 d 36 -14 d 37 -47 d 37 -724 d 38 39 d 38 213 d 39 586 d 40 -127 d 41 3 d 41 -188 d 42 28 d 42 54 d 44 38 d 44 -108 d 44 -307 d 46 -12 d 46 222 d s 3 lw /w 2 def /w2 {w 2 div} def
 /w3 {w 3 div} def 512 1251 534 1131 556 1094 578 1049 601 1277 624 1287 647 1267 671 1186 695 1227 720 1278 745 1235 770 1261 797 1297 823 1170 850 1173 878 1178 906 1524 934 1169 963 510 992 1360 1022 1359 1053 1359 1084 1359 1115 1360 1147 287
 1179 993 1212 1230 1246 1233 1280 1449 1315 1291 1350 1309 1386 1295 1423 1248 1460 524 1498 563 1536 776 1575 1362 1615 1235 1656 1238 1697 1050 1739 1078 1781 1132 1825 1170 1869 1062 1913 755 1959 743 2005 965 47 { m20} R 9 lw 0 0 1 c black 0 0 1
 c 512 1310 m 22 -84 d 22 -2 d 22 64 d 23 -40 d 23 -276 d 23 -19 d 24 48 d 24 342 d 25 41 d 25 39 d 25 -13 d 27 -95 d 26 -129 d 27 -42 d 28 -36 d 28 25 d 28 19 d 29 -175 d 29 -293 d 30 676 d 31 X 31 -1 d 31 1 d 32 -716 d 32 403 d 33 197 d 34 12 d 34
 221 d 35 -12 d 35 -82 d 36 10 d 37 -9 d 37 -207 d 38 -16 d 38 -314 d 39 87 d 40 34 d 41 373 d 41 141 d 42 X 42 -76 d 44 2 d 44 -52 d 44 -111 d 46 -508 d 46 -18 d s 1 0 0 c black 1 0 0 c 512 1310 m 22 -84 d 22 -2 d 22 64 d 23 -40 d 23 -276 d 23 -19 d
 24 24 d 24 332 d 25 45 d 25 69 d 25 -2 d 27 -14 d 26 -412 d 27 X 28 -172 d 28 156 d 28 3 d 29 4 d 29 -172 d 30 546 d 62 X 31 -1099 d s 1116 261 m 31 408 d s 1147 669 m 32 149 d 33 122 d 34 30 d 34 375 d 35 13 d 35 -54 d 36 48 d 37 -30 d 37 -258 d 38
 8 d 38 -446 d 39 73 d 40 -7 d 41 526 d 41 289 d 42 -22 d 42 -63 d 44 -14 d 44 -103 d 44 -133 d 46 -586 d 46 11 d s black 3 lw 1 1 1 c 340 244 1814 1304 bf black
 gsave  2268 1630 0 0 C 1897.36 1498.52 t 0 r /Helvetica-Bold findfont 28.4889 sf 0 0 m (SideBands Fit) show NC gr  1 0 0 c 9 lw 1827 1507 m 59 X s black
 gsave  2268 1630 0 0 C 1897.36 1415.9 t 0 r /Helvetica-Bold findfont 28.4889 sf 0 0 m (Smoothed Fit) show NC gr  0 0 1 c 1827 1426 m 59 X s black
 gsave  2268 1630 0 0 C 1897.36 1333.28 t 0 r /Helvetica-Bold findfont 28.4889 sf 0 0 m (Global Fit) show NC gr  0 1 0 c 1827 1344 m 59 X s 1 1 1 c black
 gsave  2268 1630 0 0 C 829.027 1549.8 t 0 r /Helvetica findfont 79.7689 sf 0 0 m (Window p\255values) show NC gr 
 gr  gr showpage
end
%%EOF
