%!PS-Adobe-2.0 EPSF-2.0
%%BoundingBox:  0 0 567 407
%%Title: /afs/cern.ch/user/g/gkoren/SideBand/sideband.eps: Negative Log-Likelihood
%%Creator: ROOT Version 5.34/25
%%CreationDate: Thu Sep 24 16:35:26 2015
%%EndComments
%%BeginProlog
80 dict begin
/s {stroke} def /l {lineto} def /m {moveto} def /t {translate} def
/r {rotate} def /rl {roll}  def /R {repeat} def
/d {rlineto} def /rm {rmoveto} def /gr {grestore} def /f {eofill} def
/c {setrgbcolor} def /black {0 setgray} def /sd {setdash} def
/cl {closepath} def /sf {scalefont setfont} def /lw {setlinewidth} def
/box {m dup 0 exch d exch 0 d 0 exch neg d cl} def
/NC{systemdict begin initclip end}def/C{NC box clip newpath}def
/bl {box s} def /bf {box f} def /Y { 0 exch d} def /X { 0 d} def 
/K {{pop pop 0 moveto} exch kshow} bind def
/ita {/ang 15 def gsave [1 0 ang dup sin exch cos div 1 0 0] concat} def 
/mp {newpath /y exch def /x exch def} def
/side {[w .77 mul w .23 mul] .385 w mul sd w 0 l currentpoint t -144 r} def
/mr {mp x y w2 0 360 arc} def /m24 {mr s} def /m20 {mr f} def
/mb {mp x y w2 add m w2 neg 0 d 0 w neg d w 0 d 0 w d cl} def
/mt {mp x y w2 add m w2 neg w neg d w 0 d cl} def
/m21 {mb f} def /m25 {mb s} def /m22 {mt f} def /m26{mt s} def
/m23 {mp x y w2 sub m w2 w d w neg 0 d cl f} def
/m27 {mp x y w2 add m w3 neg w2 neg d w3 w2 neg d w3 w2 d cl s} def
/m28 {mp x w2 sub y w2 sub w3 add m w3 0 d  0 w3 neg d w3 0 d 0 w3 d w3 0 d  0 w3 d w3 neg 0 d 0 w3 d w3 neg 0 d 0 w3 neg d w3 neg 0 d cl s } def
/m29 {mp gsave x w2 sub y w2 add w3 sub m currentpoint t 4 {side} repeat cl fill gr} def
/m30 {mp gsave x w2 sub y w2 add w3 sub m currentpoint t 4 {side} repeat cl s gr} def
/m31 {mp x y w2 sub m 0 w d x w2 sub y m w 0 d x w2 sub y w2 add m w w neg d x w2 sub y w2 sub m w w d s} def
/m32 {mp x y w2 sub m w2 w d w neg 0 d cl s} def
/m33 {mp x y w2 add m w3 neg w2 neg d w3 w2 neg d w3 w2 d cl f} def
/m34 {mp x w2 sub y w2 sub w3 add m w3 0 d  0 w3 neg d w3 0 d 0 w3 d w3 0 d  0 w3 d w3 neg 0 d 0 w3 d w3 neg 0 d 0 w3 neg d w3 neg 0 d cl f } def
/m2 {mp x y w2 sub m 0 w d x w2 sub y m w 0 d s} def
/m5 {mp x w2 sub y w2 sub m w w d x w2 sub y w2 add m w w neg d s} def
/reEncode {exch findfont dup length dict begin {1 index /FID eq  {pop pop} {def} ifelse } forall /Encoding exch def currentdict end dup /FontName get exch definefont pop } def [/Times-Bold /Times-Italic /Times-BoldItalic /Helvetica /Helvetica-Oblique
 /Helvetica-Bold /Helvetica-BoldOblique /Courier /Courier-Oblique /Courier-Bold /Courier-BoldOblique /Times-Roman /AvantGarde-Book /AvantGarde-BookOblique /AvantGarde-Demi /AvantGarde-DemiOblique /Bookman-Demi /Bookman-DemiItalic /Bookman-Light
 /Bookman-LightItalic /Helvetica-Narrow /Helvetica-Narrow-Bold /Helvetica-Narrow-BoldOblique /Helvetica-Narrow-Oblique /NewCenturySchlbk-Roman /NewCenturySchlbk-Bold /NewCenturySchlbk-BoldItalic /NewCenturySchlbk-Italic /Palatino-Bold
 /Palatino-BoldItalic /Palatino-Italic /Palatino-Roman ] {ISOLatin1Encoding reEncode } forall
%%EndProlog
%%BeginSetup
%%EndSetup
newpath  gsave  .25 .25 scale  gsave  0 0 t black[  ] 0 sd 3 lw 1 1 1 c 2268 1630 0 0 bf black 1 1 1 c 1791 1287 363 261 bf black 1791 1287 363 261 bl 1 1 1 c 1791 1287 363 261 bf black 1791 1287 363 261 bl 6 lw 1 1 0 c black 3 lw 1 1 0 c 363 261 m
 457 X 5 Y 4 X -5 Y 9 X 5 Y 14 X -5 Y 4 X 5 Y 4 X -5 Y 5 X 5 Y 9 X -5 Y 4 X 5 Y 5 X 6 Y 4 X 6 Y 5 X -12 Y 4 X 6 Y 5 X -6 Y 9 X 6 Y 13 X 11 Y 5 X 11 Y 4 X -28 Y 5 X 23 Y 4 X 5 Y 9 X -16 Y 9 X 16 Y 5 X -5 Y 4 X 17 Y 4 X -28 Y 5 X 33 Y 4 X 6 Y 5 X -6 Y
 18 X 28 Y 4 X -45 Y 5 X 57 Y 4 X -6 Y 5 X 6 Y 4 X -12 Y 9 X 12 Y 5 X 50 Y 4 X -5 Y 5 X 17 Y 4 X 61 Y 5 X -5 Y 4 X -11 Y 5 X 28 Y 4 X -12 Y 4 X 57 Y 5 X -57 Y 4 X 62 Y 5 X 90 Y 4 X -33 Y 5 X -68 Y 4 X 191 Y 5 X -56 Y 4 X 28 Y 5 X -34 Y 4 X 102 Y 5 X
 -57 Y 4 X 23 Y 5 X 163 Y 4 X -157 Y 5 X 90 Y 4 X 129 Y 5 X -39 Y 4 X -90 Y 5 X 191 Y 4 X -57 Y 5 X 62 Y 4 X 79 Y 4 X 79 Y 5 X -124 Y 4 X -11 Y 5 X 34 Y 4 X 118 Y 5 X -6 Y 4 X 51 Y 5 X 112 Y 4 X -28 Y 5 X -45 Y 4 X 51 Y 5 X -51 Y 4 X -28 Y 5 X 73 Y 4
 X 101 Y 5 X -107 Y 4 X -61 Y 5 X 208 Y 9 X -79 Y 4 X 107 Y 5 X -293 Y 4 X 45 Y 4 X -28 Y 5 X 163 Y 4 X -112 Y 5 X 62 Y 4 X 73 Y 5 X -163 Y 4 X -68 Y 5 X -34 Y 4 X -22 Y 5 X -84 Y 4 X 16 Y 5 X -5 Y 4 X -113 Y 5 X 62 Y 4 X -118 Y 5 X 40 Y 4 X -180 Y 5
 X -29 Y 4 X 68 Y 5 X -129 Y 4 X -74 Y 5 X 40 Y 4 X -79 Y 5 X 39 Y 4 X -56 Y 4 X -11 Y 5 X -34 Y 4 X -50 Y 5 X 33 Y 4 X -56 Y 5 X -56 Y 4 X 17 Y 5 X 33 Y 4 X -39 Y 5 X -17 Y 4 X 23 Y 5 X -51 Y 4 X -11 Y 5 X 11 Y 4 X -6 Y 5 X 6 Y 4 X -11 Y 5 X -23 Y 4
 X 6 Y 5 X -6 Y 4 X 23 Y 5 X -28 Y 4 X 5 Y 4 X -5 Y 9 X 5 Y 5 X -5 Y 649 X f 6 lw black 1 1 0 c black 363 261 m 457 X 5 Y 4 X -5 Y 9 X 5 Y 14 X -5 Y 4 X 5 Y 4 X -5 Y 5 X 5 Y 9 X -5 Y 4 X 5 Y 5 X 6 Y 4 X 6 Y 5 X -12 Y 4 X 6 Y 5 X -6 Y 9 X 6 Y 13 X 11
 Y 5 X 11 Y 4 X -28 Y 5 X 23 Y 4 X 5 Y 9 X -16 Y 9 X 16 Y 5 X -5 Y 4 X 17 Y 4 X -28 Y 5 X 33 Y 4 X 6 Y 5 X -6 Y 18 X 28 Y 4 X -45 Y 5 X 57 Y 4 X -6 Y 5 X 6 Y 4 X -12 Y 9 X 12 Y 5 X 50 Y 4 X -5 Y 5 X 17 Y 4 X 61 Y 5 X -5 Y 4 X -11 Y 5 X 28 Y 4 X -12 Y
 4 X 57 Y 5 X -57 Y 4 X 62 Y 5 X 90 Y 4 X -33 Y 5 X -68 Y 4 X 191 Y 5 X -56 Y 4 X 28 Y 5 X -34 Y 4 X 102 Y 5 X -57 Y 4 X 23 Y 5 X 163 Y 4 X -157 Y 5 X 90 Y 4 X 129 Y 5 X -39 Y 4 X -90 Y 5 X 191 Y 4 X -57 Y 5 X 62 Y 4 X 79 Y 4 X 79 Y 5 X -124 Y 4 X
 -11 Y 5 X 34 Y 4 X 118 Y 5 X -6 Y 4 X 51 Y 5 X 112 Y 4 X -28 Y 5 X -45 Y 4 X 51 Y 5 X -51 Y 4 X -28 Y 5 X 73 Y 4 X 101 Y 5 X -107 Y 4 X -61 Y 5 X 208 Y 9 X -79 Y 4 X 107 Y 5 X -293 Y 4 X 45 Y 4 X -28 Y 5 X 163 Y 4 X -112 Y 5 X 62 Y 4 X 73 Y 5 X -163
 Y 4 X -68 Y 5 X -34 Y 4 X -22 Y 5 X -84 Y 4 X 16 Y 5 X -5 Y 4 X -113 Y 5 X 62 Y 4 X -118 Y 5 X 40 Y 4 X -180 Y 5 X -29 Y 4 X 68 Y 5 X -129 Y 4 X -74 Y 5 X 40 Y 4 X -79 Y 5 X 39 Y 4 X -56 Y 4 X -11 Y 5 X -34 Y 4 X -50 Y 5 X 33 Y 4 X -56 Y 5 X -56 Y 4
 X 17 Y 5 X 33 Y 4 X -39 Y 5 X -17 Y 4 X 23 Y 5 X -51 Y 4 X -11 Y 5 X 11 Y 4 X -6 Y 5 X 6 Y 4 X -11 Y 5 X -23 Y 4 X 6 Y 5 X -6 Y 4 X 23 Y 5 X -28 Y 4 X 5 Y 4 X -5 Y 9 X 5 Y 5 X -5 Y 649 X s 3 lw 363 261 m 1791 X s 536 299 m -38 Y s 571 280 m -19 Y s
 607 280 m -19 Y s 643 280 m -19 Y s 679 280 m -19 Y s 715 299 m -38 Y s 751 280 m -19 Y s 786 280 m -19 Y s 822 280 m -19 Y s 858 280 m -19 Y s 894 299 m -38 Y s 930 280 m -19 Y s 966 280 m -19 Y s 1001 280 m -19 Y s 1037 280 m -19 Y s 1073 299 m
 -38 Y s 1109 280 m -19 Y s 1145 280 m -19 Y s 1181 280 m -19 Y s 1216 280 m -19 Y s 1252 299 m -38 Y s 1288 280 m -19 Y s 1324 280 m -19 Y s 1360 280 m -19 Y s 1396 280 m -19 Y s 1431 299 m -38 Y s 1467 280 m -19 Y s 1503 280 m -19 Y s 1539 280 m
 -19 Y s 1575 280 m -19 Y s 1611 299 m -38 Y s 1646 280 m -19 Y s 1682 280 m -19 Y s 1718 280 m -19 Y s 1754 280 m -19 Y s 1790 299 m -38 Y s 1826 280 m -19 Y s 1861 280 m -19 Y s 1897 280 m -19 Y s 1933 280 m -19 Y s 1969 299 m -38 Y s 2005 280 m
 -19 Y s 2040 280 m -19 Y s 2076 280 m -19 Y s 2112 280 m -19 Y s 2148 299 m -38 Y s 536 299 m -38 Y s 500 280 m -19 Y s 464 280 m -19 Y s 428 280 m -19 Y s 392 280 m -19 Y s 2148 299 m -38 Y s
 gsave  2268 1630 0 0 C 492.858 188.027 t 0 r /Helvetica findfont 76.92 sf 0 0 m (220) show NC gr 
 gsave  2268 1630 0 0 C 450.125 188.027 t 0 r /Symbol findfont 76.92 sf 0 0 m (-) show NC gr 
 gsave  2268 1630 0 0 C 669.489 188.027 t 0 r /Helvetica findfont 76.92 sf 0 0 m (210) show NC gr 
 gsave  2268 1630 0 0 C 626.756 188.027 t 0 r /Symbol findfont 76.92 sf 0 0 m (-) show NC gr 
 gsave  2268 1630 0 0 C 848.969 188.027 t 0 r /Helvetica findfont 76.92 sf 0 0 m (200) show NC gr 
 gsave  2268 1630 0 0 C 806.236 188.027 t 0 r /Symbol findfont 76.92 sf 0 0 m (-) show NC gr 
 gsave  2268 1630 0 0 C 1028.45 188.027 t 0 r /Helvetica findfont 76.92 sf 0 0 m (190) show NC gr 
 gsave  2268 1630 0 0 C 985.716 188.027 t 0 r /Symbol findfont 76.92 sf 0 0 m (-) show NC gr 
 gsave  2268 1630 0 0 C 1207.93 188.027 t 0 r /Helvetica findfont 76.92 sf 0 0 m (180) show NC gr 
 gsave  2268 1630 0 0 C 1165.2 188.027 t 0 r /Symbol findfont 76.92 sf 0 0 m (-) show NC gr 
 gsave  2268 1630 0 0 C 1387.41 188.027 t 0 r /Helvetica findfont 76.92 sf 0 0 m (170) show NC gr 
 gsave  2268 1630 0 0 C 1344.68 188.027 t 0 r /Symbol findfont 76.92 sf 0 0 m (-) show NC gr 
 gsave  2268 1630 0 0 C 1566.89 188.027 t 0 r /Helvetica findfont 76.92 sf 0 0 m (160) show NC gr 
 gsave  2268 1630 0 0 C 1524.16 188.027 t 0 r /Symbol findfont 76.92 sf 0 0 m (-) show NC gr 
 gsave  2268 1630 0 0 C 1746.37 188.027 t 0 r /Helvetica findfont 76.92 sf 0 0 m (150) show NC gr 
 gsave  2268 1630 0 0 C 1703.64 188.027 t 0 r /Symbol findfont 76.92 sf 0 0 m (-) show NC gr 
 gsave  2268 1630 0 0 C 1925.85 188.027 t 0 r /Helvetica findfont 76.92 sf 0 0 m (140) show NC gr 
 gsave  2268 1630 0 0 C 1883.12 188.027 t 0 r /Symbol findfont 76.92 sf 0 0 m (-) show NC gr 
 gsave  2268 1630 0 0 C 2102.48 188.027 t 0 r /Helvetica findfont 76.92 sf 0 0 m (130) show NC gr 
 gsave  2268 1630 0 0 C 2059.75 188.027 t 0 r /Symbol findfont 76.92 sf 0 0 m (-) show NC gr  363 1548 m 1791 X s 536 1509 m 39 Y s 571 1529 m 19 Y s 607 1529 m 19 Y s 643 1529 m 19 Y s 679 1529 m 19 Y s 715 1509 m 39 Y s 751 1529 m 19 Y s 786 1529 m
 19 Y s 822 1529 m 19 Y s 858 1529 m 19 Y s 894 1509 m 39 Y s 930 1529 m 19 Y s 966 1529 m 19 Y s 1001 1529 m 19 Y s 1037 1529 m 19 Y s 1073 1509 m 39 Y s 1109 1529 m 19 Y s 1145 1529 m 19 Y s 1181 1529 m 19 Y s 1216 1529 m 19 Y s 1252 1509 m 39 Y s
 1288 1529 m 19 Y s 1324 1529 m 19 Y s 1360 1529 m 19 Y s 1396 1529 m 19 Y s 1431 1509 m 39 Y s 1467 1529 m 19 Y s 1503 1529 m 19 Y s 1539 1529 m 19 Y s 1575 1529 m 19 Y s 1611 1509 m 39 Y s 1646 1529 m 19 Y s 1682 1529 m 19 Y s 1718 1529 m 19 Y s
 1754 1529 m 19 Y s 1790 1509 m 39 Y s 1826 1529 m 19 Y s 1861 1529 m 19 Y s 1897 1529 m 19 Y s 1933 1529 m 19 Y s 1969 1509 m 39 Y s 2005 1529 m 19 Y s 2040 1529 m 19 Y s 2076 1529 m 19 Y s 2112 1529 m 19 Y s 2148 1509 m 39 Y s 536 1509 m 39 Y s 500
 1529 m 19 Y s 464 1529 m 19 Y s 428 1529 m 19 Y s 392 1529 m 19 Y s 2148 1509 m 39 Y s 363 261 m 1287 Y s 417 261 m -54 X s 390 289 m -27 X s 390 317 m -27 X s 390 345 m -27 X s 417 373 m -54 X s 390 401 m -27 X s 390 429 m -27 X s 390 458 m -27 X s
 417 486 m -54 X s 390 514 m -27 X s 390 542 m -27 X s 390 570 m -27 X s 417 598 m -54 X s 390 626 m -27 X s 390 654 m -27 X s 390 683 m -27 X s 417 711 m -54 X s 390 739 m -27 X s 390 767 m -27 X s 390 795 m -27 X s 417 823 m -54 X s 390 851 m -27 X
 s 390 879 m -27 X s 390 908 m -27 X s 417 936 m -54 X s 390 964 m -27 X s 390 992 m -27 X s 390 1020 m -27 X s 417 1048 m -54 X s 390 1076 m -27 X s 390 1104 m -27 X s 390 1132 m -27 X s 417 1161 m -54 X s 390 1189 m -27 X s 390 1217 m -27 X s 390
 1245 m -27 X s 417 1273 m -54 X s 390 1301 m -27 X s 390 1329 m -27 X s 390 1357 m -27 X s 417 1386 m -54 X s 390 1414 m -27 X s 390 1442 m -27 X s 390 1470 m -27 X s 417 1498 m -54 X s 417 1498 m -54 X s 390 1526 m -27 X s
 gsave  2268 1630 0 0 C 310.529 233.609 t 0 r /Helvetica findfont 76.92 sf 0 0 m (0) show NC gr 
 gsave  2268 1630 0 0 C 267.796 347.565 t 0 r /Helvetica findfont 76.92 sf 0 0 m (20) show NC gr 
 gsave  2268 1630 0 0 C 267.796 458.671 t 0 r /Helvetica findfont 76.92 sf 0 0 m (40) show NC gr 
 gsave  2268 1630 0 0 C 267.796 569.778 t 0 r /Helvetica findfont 76.92 sf 0 0 m (60) show NC gr 
 gsave  2268 1630 0 0 C 267.796 683.734 t 0 r /Helvetica findfont 76.92 sf 0 0 m (80) show NC gr 
 gsave  2268 1630 0 0 C 225.062 794.84 t 0 r /Helvetica findfont 76.92 sf 0 0 m (100) show NC gr 
 gsave  2268 1630 0 0 C 225.062 908.796 t 0 r /Helvetica findfont 76.92 sf 0 0 m (120) show NC gr 
 gsave  2268 1630 0 0 C 225.062 1019.9 t 0 r /Helvetica findfont 76.92 sf 0 0 m (140) show NC gr 
 gsave  2268 1630 0 0 C 225.062 1133.86 t 0 r /Helvetica findfont 76.92 sf 0 0 m (160) show NC gr 
 gsave  2268 1630 0 0 C 225.062 1244.96 t 0 r /Helvetica findfont 76.92 sf 0 0 m (180) show NC gr 
 gsave  2268 1630 0 0 C 225.062 1358.92 t 0 r /Helvetica findfont 76.92 sf 0 0 m (200) show NC gr 
 gsave  2268 1630 0 0 C 225.062 1470.03 t 0 r /Helvetica findfont 76.92 sf 0 0 m (220) show NC gr  2154 261 m 1287 Y s 2101 261 m 53 X s 2127 289 m 27 X s 2127 317 m 27 X s 2127 345 m 27 X s 2101 373 m 53 X s 2127 401 m 27 X s 2127 429 m 27 X s 2127
 458 m 27 X s 2101 486 m 53 X s 2127 514 m 27 X s 2127 542 m 27 X s 2127 570 m 27 X s 2101 598 m 53 X s 2127 626 m 27 X s 2127 654 m 27 X s 2127 683 m 27 X s 2101 711 m 53 X s 2127 739 m 27 X s 2127 767 m 27 X s 2127 795 m 27 X s 2101 823 m 53 X s
 2127 851 m 27 X s 2127 879 m 27 X s 2127 908 m 27 X s 2101 936 m 53 X s 2127 964 m 27 X s 2127 992 m 27 X s 2127 1020 m 27 X s 2101 1048 m 53 X s 2127 1076 m 27 X s 2127 1104 m 27 X s 2127 1132 m 27 X s 2101 1161 m 53 X s 2127 1189 m 27 X s 2127
 1217 m 27 X s 2127 1245 m 27 X s 2101 1273 m 53 X s 2127 1301 m 27 X s 2127 1329 m 27 X s 2127 1357 m 27 X s 2101 1386 m 53 X s 2127 1414 m 27 X s 2127 1442 m 27 X s 2127 1470 m 27 X s 2101 1498 m 53 X s 2101 1498 m 53 X s 2127 1526 m 27 X s 1 0 0 c
 992 261 m 320 Y s 1 1 1 c black
 gsave  2268 1630 0 0 C 706.525 1549.8 t 0 r /Helvetica findfont 79.7689 sf 0 0 m (Negative Log\255Likelihood) show NC gr 
 gr  gr showpage
end
%%EOF
