%!PS-Adobe-2.0 EPSF-2.0
%%BoundingBox:  0 0 567 407
%%Title: /afs/cern.ch/user/g/gkoren/SideBand/smooth.eps: Negative Log-Likelihood
%%Creator: ROOT Version 5.34/25
%%CreationDate: Thu Sep 24 16:34:41 2015
%%EndComments
%%BeginProlog
80 dict begin
/s {stroke} def /l {lineto} def /m {moveto} def /t {translate} def
/r {rotate} def /rl {roll}  def /R {repeat} def
/d {rlineto} def /rm {rmoveto} def /gr {grestore} def /f {eofill} def
/c {setrgbcolor} def /black {0 setgray} def /sd {setdash} def
/cl {closepath} def /sf {scalefont setfont} def /lw {setlinewidth} def
/box {m dup 0 exch d exch 0 d 0 exch neg d cl} def
/NC{systemdict begin initclip end}def/C{NC box clip newpath}def
/bl {box s} def /bf {box f} def /Y { 0 exch d} def /X { 0 d} def 
/K {{pop pop 0 moveto} exch kshow} bind def
/ita {/ang 15 def gsave [1 0 ang dup sin exch cos div 1 0 0] concat} def 
/mp {newpath /y exch def /x exch def} def
/side {[w .77 mul w .23 mul] .385 w mul sd w 0 l currentpoint t -144 r} def
/mr {mp x y w2 0 360 arc} def /m24 {mr s} def /m20 {mr f} def
/mb {mp x y w2 add m w2 neg 0 d 0 w neg d w 0 d 0 w d cl} def
/mt {mp x y w2 add m w2 neg w neg d w 0 d cl} def
/m21 {mb f} def /m25 {mb s} def /m22 {mt f} def /m26{mt s} def
/m23 {mp x y w2 sub m w2 w d w neg 0 d cl f} def
/m27 {mp x y w2 add m w3 neg w2 neg d w3 w2 neg d w3 w2 d cl s} def
/m28 {mp x w2 sub y w2 sub w3 add m w3 0 d  0 w3 neg d w3 0 d 0 w3 d w3 0 d  0 w3 d w3 neg 0 d 0 w3 d w3 neg 0 d 0 w3 neg d w3 neg 0 d cl s } def
/m29 {mp gsave x w2 sub y w2 add w3 sub m currentpoint t 4 {side} repeat cl fill gr} def
/m30 {mp gsave x w2 sub y w2 add w3 sub m currentpoint t 4 {side} repeat cl s gr} def
/m31 {mp x y w2 sub m 0 w d x w2 sub y m w 0 d x w2 sub y w2 add m w w neg d x w2 sub y w2 sub m w w d s} def
/m32 {mp x y w2 sub m w2 w d w neg 0 d cl s} def
/m33 {mp x y w2 add m w3 neg w2 neg d w3 w2 neg d w3 w2 d cl f} def
/m34 {mp x w2 sub y w2 sub w3 add m w3 0 d  0 w3 neg d w3 0 d 0 w3 d w3 0 d  0 w3 d w3 neg 0 d 0 w3 d w3 neg 0 d 0 w3 neg d w3 neg 0 d cl f } def
/m2 {mp x y w2 sub m 0 w d x w2 sub y m w 0 d s} def
/m5 {mp x w2 sub y w2 sub m w w d x w2 sub y w2 add m w w neg d s} def
/reEncode {exch findfont dup length dict begin {1 index /FID eq  {pop pop} {def} ifelse } forall /Encoding exch def currentdict end dup /FontName get exch definefont pop } def [/Times-Bold /Times-Italic /Times-BoldItalic /Helvetica /Helvetica-Oblique
 /Helvetica-Bold /Helvetica-BoldOblique /Courier /Courier-Oblique /Courier-Bold /Courier-BoldOblique /Times-Roman /AvantGarde-Book /AvantGarde-BookOblique /AvantGarde-Demi /AvantGarde-DemiOblique /Bookman-Demi /Bookman-DemiItalic /Bookman-Light
 /Bookman-LightItalic /Helvetica-Narrow /Helvetica-Narrow-Bold /Helvetica-Narrow-BoldOblique /Helvetica-Narrow-Oblique /NewCenturySchlbk-Roman /NewCenturySchlbk-Bold /NewCenturySchlbk-BoldItalic /NewCenturySchlbk-Italic /Palatino-Bold
 /Palatino-BoldItalic /Palatino-Italic /Palatino-Roman ] {ISOLatin1Encoding reEncode } forall
%%EndProlog
%%BeginSetup
%%EndSetup
newpath  gsave  .25 .25 scale  gsave  0 0 t black[  ] 0 sd 3 lw 1 1 1 c 2268 1630 0 0 bf black 1 1 1 c 1791 1287 363 261 bf black 1791 1287 363 261 bl 1 1 1 c 1791 1287 363 261 bf black 1791 1287 363 261 bl 6 lw 1 1 0 c black 3 lw 1 1 0 c 363 261 m
 479 X 5 Y 5 X -5 Y 13 X 5 Y 9 X -5 Y 45 X 5 Y 9 X -5 Y 4 X 11 Y 9 X -6 Y 9 X -5 Y 9 X 11 Y 5 X -6 Y 4 X -5 Y 4 X 5 Y 5 X 6 Y 9 X 17 Y 9 X -17 Y 9 X 17 Y 4 X -11 Y 9 X 17 Y 14 X 17 Y 4 X -40 Y 5 X 17 Y 4 X -17 Y 5 X 63 Y 4 X 6 Y 5 X -35 Y 9 X 6 Y 4 X
 29 Y 4 X 57 Y 5 X -75 Y 4 X 35 Y 5 X -6 Y 4 X 11 Y 5 X 12 Y 4 X 5 Y 5 X 35 Y 4 X 23 Y 5 X -23 Y 4 X 51 Y 5 X -40 Y 4 X 91 Y 5 X -28 Y 4 X 45 Y 5 X -22 Y 4 X 114 Y 5 X -109 Y 4 X 63 Y 5 X 29 Y 4 X 34 Y 9 X 68 Y 4 X -137 Y 5 X 234 Y 4 X -148 Y 5 X 97
 Y 4 X 68 Y 5 X 46 Y 4 X -11 Y 5 X -12 Y 4 X 63 Y 5 X 45 Y 4 X -34 Y 5 X 126 Y 4 X 34 Y 5 X -131 Y 4 X 68 Y 5 X 131 Y 4 X 57 Y 5 X -68 Y 4 X -29 Y 5 X 46 Y 4 X 114 Y 5 X -114 Y 4 X 23 Y 4 X 40 Y 5 X 182 Y 4 X -108 Y 5 X 108 Y 4 X 52 Y 5 X 34 Y 4 X
 -171 Y 5 X 114 Y 9 X -137 Y 4 X 165 Y 5 X -34 Y 4 X 34 Y 5 X -74 Y 4 X -63 Y 5 X 40 Y 4 X -57 Y 5 X 17 Y 4 X -108 Y 5 X 86 Y 4 X -114 Y 5 X -75 Y 4 X -17 Y 5 X -5 Y 4 X -63 Y 4 X -103 Y 5 X -5 Y 4 X -46 Y 5 X -11 Y 4 X -6 Y 5 X -109 Y 4 X -45 Y 5 X
 51 Y 4 X -91 Y 5 X 63 Y 4 X -97 Y 5 X -63 Y 4 X -46 Y 5 X -11 Y 4 X -97 Y 5 X 148 Y 4 X -171 Y 5 X 57 Y 4 X 29 Y 5 X -63 Y 4 X -57 Y 5 X -6 Y 4 X 6 Y 4 X 17 Y 5 X -51 Y 4 X -17 Y 5 X 17 Y 4 X -29 Y 5 X 12 Y 4 X -12 Y 5 X -23 Y 4 X 6 Y 9 X 6 Y 5 X
 -12 Y 9 X -5 Y 4 X 17 Y 5 X -6 Y 4 X -11 Y 591 X f 6 lw black 1 1 0 c black 363 261 m 479 X 5 Y 5 X -5 Y 13 X 5 Y 9 X -5 Y 45 X 5 Y 9 X -5 Y 4 X 11 Y 9 X -6 Y 9 X -5 Y 9 X 11 Y 5 X -6 Y 4 X -5 Y 4 X 5 Y 5 X 6 Y 9 X 17 Y 9 X -17 Y 9 X 17 Y 4 X -11 Y
 9 X 17 Y 14 X 17 Y 4 X -40 Y 5 X 17 Y 4 X -17 Y 5 X 63 Y 4 X 6 Y 5 X -35 Y 9 X 6 Y 4 X 29 Y 4 X 57 Y 5 X -75 Y 4 X 35 Y 5 X -6 Y 4 X 11 Y 5 X 12 Y 4 X 5 Y 5 X 35 Y 4 X 23 Y 5 X -23 Y 4 X 51 Y 5 X -40 Y 4 X 91 Y 5 X -28 Y 4 X 45 Y 5 X -22 Y 4 X 114 Y
 5 X -109 Y 4 X 63 Y 5 X 29 Y 4 X 34 Y 9 X 68 Y 4 X -137 Y 5 X 234 Y 4 X -148 Y 5 X 97 Y 4 X 68 Y 5 X 46 Y 4 X -11 Y 5 X -12 Y 4 X 63 Y 5 X 45 Y 4 X -34 Y 5 X 126 Y 4 X 34 Y 5 X -131 Y 4 X 68 Y 5 X 131 Y 4 X 57 Y 5 X -68 Y 4 X -29 Y 5 X 46 Y 4 X 114
 Y 5 X -114 Y 4 X 23 Y 4 X 40 Y 5 X 182 Y 4 X -108 Y 5 X 108 Y 4 X 52 Y 5 X 34 Y 4 X -171 Y 5 X 114 Y 9 X -137 Y 4 X 165 Y 5 X -34 Y 4 X 34 Y 5 X -74 Y 4 X -63 Y 5 X 40 Y 4 X -57 Y 5 X 17 Y 4 X -108 Y 5 X 86 Y 4 X -114 Y 5 X -75 Y 4 X -17 Y 5 X -5 Y
 4 X -63 Y 4 X -103 Y 5 X -5 Y 4 X -46 Y 5 X -11 Y 4 X -6 Y 5 X -109 Y 4 X -45 Y 5 X 51 Y 4 X -91 Y 5 X 63 Y 4 X -97 Y 5 X -63 Y 4 X -46 Y 5 X -11 Y 4 X -97 Y 5 X 148 Y 4 X -171 Y 5 X 57 Y 4 X 29 Y 5 X -63 Y 4 X -57 Y 5 X -6 Y 4 X 6 Y 4 X 17 Y 5 X
 -51 Y 4 X -17 Y 5 X 17 Y 4 X -29 Y 5 X 12 Y 4 X -12 Y 5 X -23 Y 4 X 6 Y 9 X 6 Y 5 X -12 Y 9 X -5 Y 4 X 17 Y 5 X -6 Y 4 X -11 Y 591 X s 3 lw 363 261 m 1791 X s 420 299 m -38 Y s 456 280 m -19 Y s 492 280 m -19 Y s 528 280 m -19 Y s 564 280 m -19 Y s
 600 299 m -38 Y s 635 280 m -19 Y s 671 280 m -19 Y s 707 280 m -19 Y s 743 280 m -19 Y s 779 299 m -38 Y s 815 280 m -19 Y s 850 280 m -19 Y s 886 280 m -19 Y s 922 280 m -19 Y s 958 299 m -38 Y s 994 280 m -19 Y s 1030 280 m -19 Y s 1065 280 m -19
 Y s 1101 280 m -19 Y s 1137 299 m -38 Y s 1173 280 m -19 Y s 1209 280 m -19 Y s 1245 280 m -19 Y s 1280 280 m -19 Y s 1316 299 m -38 Y s 1352 280 m -19 Y s 1388 280 m -19 Y s 1424 280 m -19 Y s 1460 280 m -19 Y s 1495 299 m -38 Y s 1531 280 m -19 Y
 s 1567 280 m -19 Y s 1603 280 m -19 Y s 1639 280 m -19 Y s 1675 299 m -38 Y s 1710 280 m -19 Y s 1746 280 m -19 Y s 1782 280 m -19 Y s 1818 280 m -19 Y s 1854 299 m -38 Y s 1890 280 m -19 Y s 1925 280 m -19 Y s 1961 280 m -19 Y s 1997 280 m -19 Y s
 2033 299 m -38 Y s 420 299 m -38 Y s 385 280 m -19 Y s 2033 299 m -38 Y s 2069 280 m -19 Y s 2105 280 m -19 Y s 2140 280 m -19 Y s
 gsave  2268 1630 0 0 C 376.053 188.027 t 0 r /Helvetica findfont 76.92 sf 0 0 m (230) show NC gr 
 gsave  2268 1630 0 0 C 333.32 188.027 t 0 r /Symbol findfont 76.92 sf 0 0 m (-) show NC gr 
 gsave  2268 1630 0 0 C 555.534 188.027 t 0 r /Helvetica findfont 76.92 sf 0 0 m (220) show NC gr 
 gsave  2268 1630 0 0 C 512.8 188.027 t 0 r /Symbol findfont 76.92 sf 0 0 m (-) show NC gr 
 gsave  2268 1630 0 0 C 735.014 188.027 t 0 r /Helvetica findfont 76.92 sf 0 0 m (210) show NC gr 
 gsave  2268 1630 0 0 C 692.28 188.027 t 0 r /Symbol findfont 76.92 sf 0 0 m (-) show NC gr 
 gsave  2268 1630 0 0 C 914.494 188.027 t 0 r /Helvetica findfont 76.92 sf 0 0 m (200) show NC gr 
 gsave  2268 1630 0 0 C 871.76 188.027 t 0 r /Symbol findfont 76.92 sf 0 0 m (-) show NC gr 
 gsave  2268 1630 0 0 C 1093.97 188.027 t 0 r /Helvetica findfont 76.92 sf 0 0 m (190) show NC gr 
 gsave  2268 1630 0 0 C 1051.24 188.027 t 0 r /Symbol findfont 76.92 sf 0 0 m (-) show NC gr 
 gsave  2268 1630 0 0 C 1273.45 188.027 t 0 r /Helvetica findfont 76.92 sf 0 0 m (180) show NC gr 
 gsave  2268 1630 0 0 C 1230.72 188.027 t 0 r /Symbol findfont 76.92 sf 0 0 m (-) show NC gr 
 gsave  2268 1630 0 0 C 1450.09 188.027 t 0 r /Helvetica findfont 76.92 sf 0 0 m (170) show NC gr 
 gsave  2268 1630 0 0 C 1407.35 188.027 t 0 r /Symbol findfont 76.92 sf 0 0 m (-) show NC gr 
 gsave  2268 1630 0 0 C 1629.57 188.027 t 0 r /Helvetica findfont 76.92 sf 0 0 m (160) show NC gr 
 gsave  2268 1630 0 0 C 1586.83 188.027 t 0 r /Symbol findfont 76.92 sf 0 0 m (-) show NC gr 
 gsave  2268 1630 0 0 C 1809.05 188.027 t 0 r /Helvetica findfont 76.92 sf 0 0 m (150) show NC gr 
 gsave  2268 1630 0 0 C 1766.31 188.027 t 0 r /Symbol findfont 76.92 sf 0 0 m (-) show NC gr 
 gsave  2268 1630 0 0 C 1988.53 188.027 t 0 r /Helvetica findfont 76.92 sf 0 0 m (140) show NC gr 
 gsave  2268 1630 0 0 C 1945.79 188.027 t 0 r /Symbol findfont 76.92 sf 0 0 m (-) show NC gr  363 1548 m 1791 X s 420 1509 m 39 Y s 456 1529 m 19 Y s 492 1529 m 19 Y s 528 1529 m 19 Y s 564 1529 m 19 Y s 600 1509 m 39 Y s 635 1529 m 19 Y s 671 1529 m
 19 Y s 707 1529 m 19 Y s 743 1529 m 19 Y s 779 1509 m 39 Y s 815 1529 m 19 Y s 850 1529 m 19 Y s 886 1529 m 19 Y s 922 1529 m 19 Y s 958 1509 m 39 Y s 994 1529 m 19 Y s 1030 1529 m 19 Y s 1065 1529 m 19 Y s 1101 1529 m 19 Y s 1137 1509 m 39 Y s 1173
 1529 m 19 Y s 1209 1529 m 19 Y s 1245 1529 m 19 Y s 1280 1529 m 19 Y s 1316 1509 m 39 Y s 1352 1529 m 19 Y s 1388 1529 m 19 Y s 1424 1529 m 19 Y s 1460 1529 m 19 Y s 1495 1509 m 39 Y s 1531 1529 m 19 Y s 1567 1529 m 19 Y s 1603 1529 m 19 Y s 1639
 1529 m 19 Y s 1675 1509 m 39 Y s 1710 1529 m 19 Y s 1746 1529 m 19 Y s 1782 1529 m 19 Y s 1818 1529 m 19 Y s 1854 1509 m 39 Y s 1890 1529 m 19 Y s 1925 1529 m 19 Y s 1961 1529 m 19 Y s 1997 1529 m 19 Y s 2033 1509 m 39 Y s 420 1509 m 39 Y s 385 1529
 m 19 Y s 2033 1509 m 39 Y s 2069 1529 m 19 Y s 2105 1529 m 19 Y s 2140 1529 m 19 Y s 363 261 m 1287 Y s 417 261 m -54 X s 390 289 m -27 X s 390 318 m -27 X s 390 346 m -27 X s 417 375 m -54 X s 390 403 m -27 X s 390 432 m -27 X s 390 460 m -27 X s
 417 489 m -54 X s 390 517 m -27 X s 390 546 m -27 X s 390 574 m -27 X s 417 603 m -54 X s 390 631 m -27 X s 390 660 m -27 X s 390 688 m -27 X s 417 717 m -54 X s 390 745 m -27 X s 390 774 m -27 X s 390 802 m -27 X s 417 831 m -54 X s 390 860 m -27 X
 s 390 888 m -27 X s 390 917 m -27 X s 417 945 m -54 X s 390 974 m -27 X s 390 1002 m -27 X s 390 1031 m -27 X s 417 1059 m -54 X s 390 1088 m -27 X s 390 1116 m -27 X s 390 1145 m -27 X s 417 1173 m -54 X s 390 1202 m -27 X s 390 1230 m -27 X s 390
 1259 m -27 X s 417 1287 m -54 X s 390 1316 m -27 X s 390 1344 m -27 X s 390 1373 m -27 X s 417 1401 m -54 X s 390 1430 m -27 X s 390 1458 m -27 X s 390 1487 m -27 X s 417 1515 m -54 X s 417 1515 m -54 X s 390 1544 m -27 X s
 gsave  2268 1630 0 0 C 310.529 233.609 t 0 r /Helvetica findfont 76.92 sf 0 0 m (0) show NC gr 
 gsave  2268 1630 0 0 C 267.796 347.565 t 0 r /Helvetica findfont 76.92 sf 0 0 m (20) show NC gr 
 gsave  2268 1630 0 0 C 267.796 461.52 t 0 r /Helvetica findfont 76.92 sf 0 0 m (40) show NC gr 
 gsave  2268 1630 0 0 C 267.796 575.476 t 0 r /Helvetica findfont 76.92 sf 0 0 m (60) show NC gr 
 gsave  2268 1630 0 0 C 267.796 689.431 t 0 r /Helvetica findfont 76.92 sf 0 0 m (80) show NC gr 
 gsave  2268 1630 0 0 C 225.062 803.387 t 0 r /Helvetica findfont 76.92 sf 0 0 m (100) show NC gr 
 gsave  2268 1630 0 0 C 225.062 917.343 t 0 r /Helvetica findfont 76.92 sf 0 0 m (120) show NC gr 
 gsave  2268 1630 0 0 C 225.062 1031.3 t 0 r /Helvetica findfont 76.92 sf 0 0 m (140) show NC gr 
 gsave  2268 1630 0 0 C 225.062 1145.25 t 0 r /Helvetica findfont 76.92 sf 0 0 m (160) show NC gr 
 gsave  2268 1630 0 0 C 225.062 1259.21 t 0 r /Helvetica findfont 76.92 sf 0 0 m (180) show NC gr 
 gsave  2268 1630 0 0 C 225.062 1373.17 t 0 r /Helvetica findfont 76.92 sf 0 0 m (200) show NC gr 
 gsave  2268 1630 0 0 C 225.062 1487.12 t 0 r /Helvetica findfont 76.92 sf 0 0 m (220) show NC gr  2154 261 m 1287 Y s 2101 261 m 53 X s 2127 289 m 27 X s 2127 318 m 27 X s 2127 346 m 27 X s 2101 375 m 53 X s 2127 403 m 27 X s 2127 432 m 27 X s 2127
 460 m 27 X s 2101 489 m 53 X s 2127 517 m 27 X s 2127 546 m 27 X s 2127 574 m 27 X s 2101 603 m 53 X s 2127 631 m 27 X s 2127 660 m 27 X s 2127 688 m 27 X s 2101 717 m 53 X s 2127 745 m 27 X s 2127 774 m 27 X s 2127 802 m 27 X s 2101 831 m 53 X s
 2127 860 m 27 X s 2127 888 m 27 X s 2127 917 m 27 X s 2101 945 m 53 X s 2127 974 m 27 X s 2127 1002 m 27 X s 2127 1031 m 27 X s 2101 1059 m 53 X s 2127 1088 m 27 X s 2127 1116 m 27 X s 2127 1145 m 27 X s 2101 1173 m 53 X s 2127 1202 m 27 X s 2127
 1230 m 27 X s 2127 1259 m 27 X s 2101 1287 m 53 X s 2127 1316 m 27 X s 2127 1344 m 27 X s 2127 1373 m 27 X s 2101 1401 m 53 X s 2127 1430 m 27 X s 2127 1458 m 27 X s 2127 1487 m 27 X s 2101 1515 m 53 X s 2101 1515 m 53 X s 2127 1544 m 27 X s 1 0 0 c
 1239 261 m 324 Y s 1 1 1 c black
 gsave  2268 1630 0 0 C 706.525 1549.8 t 0 r /Helvetica findfont 79.7689 sf 0 0 m (Negative Log\255Likelihood) show NC gr 
 gr  gr showpage
end
%%EOF
